solid OpenSCAD_Model
  facet normal -1 0 0
    outer loop
      vertex -13.5 -6 -0.5
      vertex -13.5 6 0.5
      vertex -13.5 6 -0.5
    endloop
  endfacet
  facet normal -1 -0 0
    outer loop
      vertex -13.5 6 0.5
      vertex -13.5 -6 -0.5
      vertex -13.5 -6 0.5
    endloop
  endfacet
  facet normal 0 0 1
    outer loop
      vertex 13.5 6 0.5
      vertex 11.75 0 0.5
      vertex 13.5 -6 0.5
    endloop
  endfacet
  facet normal 0 0 1
    outer loop
      vertex 13.5 6 0.5
      vertex 11.7118 0.363845 0.5
      vertex 11.75 0 0.5
    endloop
  endfacet
  facet normal 0 0 1
    outer loop
      vertex 13.5 6 0.5
      vertex 11.5987 0.711788 0.5
      vertex 11.7118 0.363845 0.5
    endloop
  endfacet
  facet normal 0 0 1
    outer loop
      vertex 13.5 6 0.5
      vertex 11.4158 1.02862 0.5
      vertex 11.5987 0.711788 0.5
    endloop
  endfacet
  facet normal 0 0 1
    outer loop
      vertex 13.5 6 0.5
      vertex 11.171 1.3005 0.5
      vertex 11.4158 1.02862 0.5
    endloop
  endfacet
  facet normal 0 0 1
    outer loop
      vertex 13.5 6 0.5
      vertex 10.875 1.51554 0.5
      vertex 11.171 1.3005 0.5
    endloop
  endfacet
  facet normal 0 0 1
    outer loop
      vertex 13.5 6 0.5
      vertex 10.5408 1.66435 0.5
      vertex 10.875 1.51554 0.5
    endloop
  endfacet
  facet normal 0 0 1
    outer loop
      vertex 13.5 6 0.5
      vertex 10.1829 1.74041 0.5
      vertex 10.5408 1.66435 0.5
    endloop
  endfacet
  facet normal 0 0 1
    outer loop
      vertex 13.5 6 0.5
      vertex 9.81707 1.74041 0.5
      vertex 10.1829 1.74041 0.5
    endloop
  endfacet
  facet normal -0 0 1
    outer loop
      vertex 6.5 3.25 0.5
      vertex 9.81707 1.74041 0.5
      vertex 13.5 6 0.5
    endloop
  endfacet
  facet normal 0 0 1
    outer loop
      vertex 9.81707 1.74041 0.5
      vertex 6.5 3.25 0.5
      vertex 9.45922 1.66435 0.5
    endloop
  endfacet
  facet normal 0 0 1
    outer loop
      vertex 9.45922 1.66435 0.5
      vertex 6.5 3.25 0.5
      vertex 9.125 1.51554 0.5
    endloop
  endfacet
  facet normal 0 0 1
    outer loop
      vertex 8.28824 0.363845 0.5
      vertex 6.5 3.25 0.5
      vertex 8.25 0 0.5
    endloop
  endfacet
  facet normal 0 0 1
    outer loop
      vertex 8.40129 0.711788 0.5
      vertex 6.5 3.25 0.5
      vertex 8.28824 0.363845 0.5
    endloop
  endfacet
  facet normal 0 0 1
    outer loop
      vertex 8.58422 1.02862 0.5
      vertex 6.5 3.25 0.5
      vertex 8.40129 0.711788 0.5
    endloop
  endfacet
  facet normal 0 0 1
    outer loop
      vertex 8.82902 1.3005 0.5
      vertex 6.5 3.25 0.5
      vertex 8.58422 1.02862 0.5
    endloop
  endfacet
  facet normal 0 0 1
    outer loop
      vertex 9.125 1.51554 0.5
      vertex 6.5 3.25 0.5
      vertex 8.82902 1.3005 0.5
    endloop
  endfacet
  facet normal 0 0 1
    outer loop
      vertex 13.5 6 0.5
      vertex -6.5 3.25 0.5
      vertex 6.5 3.25 0.5
    endloop
  endfacet
  facet normal 0 0 1
    outer loop
      vertex -6.5 3.25 0.5
      vertex -8.25 0 0.5
      vertex -6.5 -3.25 0.5
    endloop
  endfacet
  facet normal 0 0 1
    outer loop
      vertex -6.5 3.25 0.5
      vertex -8.28824 0.363845 0.5
      vertex -8.25 0 0.5
    endloop
  endfacet
  facet normal 0 0 1
    outer loop
      vertex -6.5 3.25 0.5
      vertex -8.40129 0.711788 0.5
      vertex -8.28824 0.363845 0.5
    endloop
  endfacet
  facet normal 0 0 1
    outer loop
      vertex -6.5 3.25 0.5
      vertex -8.58422 1.02862 0.5
      vertex -8.40129 0.711788 0.5
    endloop
  endfacet
  facet normal 0 0 1
    outer loop
      vertex -6.5 3.25 0.5
      vertex -8.82902 1.3005 0.5
      vertex -8.58422 1.02862 0.5
    endloop
  endfacet
  facet normal 0 0 1
    outer loop
      vertex -6.5 3.25 0.5
      vertex -9.125 1.51554 0.5
      vertex -8.82902 1.3005 0.5
    endloop
  endfacet
  facet normal 0 0 1
    outer loop
      vertex -6.5 3.25 0.5
      vertex -9.45922 1.66435 0.5
      vertex -9.125 1.51554 0.5
    endloop
  endfacet
  facet normal 0 0 1
    outer loop
      vertex -6.5 3.25 0.5
      vertex -9.81707 1.74041 0.5
      vertex -9.45922 1.66435 0.5
    endloop
  endfacet
  facet normal 0 0 1
    outer loop
      vertex -13.5 6 0.5
      vertex -9.81707 1.74041 0.5
      vertex -6.5 3.25 0.5
    endloop
  endfacet
  facet normal 0 0 1
    outer loop
      vertex -9.81707 1.74041 0.5
      vertex -13.5 6 0.5
      vertex -10.1829 1.74041 0.5
    endloop
  endfacet
  facet normal 0 0 1
    outer loop
      vertex -11.7118 0.363845 0.5
      vertex -13.5 6 0.5
      vertex -11.75 0 0.5
    endloop
  endfacet
  facet normal 0 0 1
    outer loop
      vertex -11.5987 0.711788 0.5
      vertex -13.5 6 0.5
      vertex -11.7118 0.363845 0.5
    endloop
  endfacet
  facet normal 0 0 1
    outer loop
      vertex -11.4158 1.02862 0.5
      vertex -13.5 6 0.5
      vertex -11.5987 0.711788 0.5
    endloop
  endfacet
  facet normal 0 0 1
    outer loop
      vertex -11.171 1.3005 0.5
      vertex -13.5 6 0.5
      vertex -11.4158 1.02862 0.5
    endloop
  endfacet
  facet normal 0 0 1
    outer loop
      vertex -10.875 1.51554 0.5
      vertex -13.5 6 0.5
      vertex -11.171 1.3005 0.5
    endloop
  endfacet
  facet normal 0 0 1
    outer loop
      vertex -10.5408 1.66435 0.5
      vertex -13.5 6 0.5
      vertex -10.875 1.51554 0.5
    endloop
  endfacet
  facet normal 0 0 1
    outer loop
      vertex -10.1829 1.74041 0.5
      vertex -13.5 6 0.5
      vertex -10.5408 1.66435 0.5
    endloop
  endfacet
  facet normal -0 0 1
    outer loop
      vertex -13.5 6 0.5
      vertex -6.5 3.25 0.5
      vertex 13.5 6 0.5
    endloop
  endfacet
  facet normal -0 0 1
    outer loop
      vertex 11.7118 -0.363845 0.5
      vertex 13.5 -6 0.5
      vertex 11.75 0 0.5
    endloop
  endfacet
  facet normal -0 0 1
    outer loop
      vertex 11.5987 -0.711788 0.5
      vertex 13.5 -6 0.5
      vertex 11.7118 -0.363845 0.5
    endloop
  endfacet
  facet normal -0 0 1
    outer loop
      vertex 11.4158 -1.02862 0.5
      vertex 13.5 -6 0.5
      vertex 11.5987 -0.711788 0.5
    endloop
  endfacet
  facet normal -0 0 1
    outer loop
      vertex 11.171 -1.3005 0.5
      vertex 13.5 -6 0.5
      vertex 11.4158 -1.02862 0.5
    endloop
  endfacet
  facet normal -0 0 1
    outer loop
      vertex 10.875 -1.51554 0.5
      vertex 13.5 -6 0.5
      vertex 11.171 -1.3005 0.5
    endloop
  endfacet
  facet normal -0 0 1
    outer loop
      vertex 10.5408 -1.66435 0.5
      vertex 13.5 -6 0.5
      vertex 10.875 -1.51554 0.5
    endloop
  endfacet
  facet normal -0 0 1
    outer loop
      vertex 10.1829 -1.74041 0.5
      vertex 13.5 -6 0.5
      vertex 10.5408 -1.66435 0.5
    endloop
  endfacet
  facet normal -0 0 1
    outer loop
      vertex 9.81707 -1.74041 0.5
      vertex 13.5 -6 0.5
      vertex 10.1829 -1.74041 0.5
    endloop
  endfacet
  facet normal 0 0 1
    outer loop
      vertex 6.5 -3.25 0.5
      vertex 9.81707 -1.74041 0.5
      vertex 9.45922 -1.66435 0.5
    endloop
  endfacet
  facet normal 0 0 1
    outer loop
      vertex 6.5 -3.25 0.5
      vertex 9.45922 -1.66435 0.5
      vertex 9.125 -1.51554 0.5
    endloop
  endfacet
  facet normal 0 0 1
    outer loop
      vertex 6.5 -3.25 0.5
      vertex 9.125 -1.51554 0.5
      vertex 8.82902 -1.3005 0.5
    endloop
  endfacet
  facet normal 0 0 1
    outer loop
      vertex 6.5 -3.25 0.5
      vertex 8.25 0 0.5
      vertex 6.5 3.25 0.5
    endloop
  endfacet
  facet normal 0 0 1
    outer loop
      vertex 8.25 0 0.5
      vertex 6.5 -3.25 0.5
      vertex 8.28824 -0.363845 0.5
    endloop
  endfacet
  facet normal 0 0 1
    outer loop
      vertex 8.28824 -0.363845 0.5
      vertex 6.5 -3.25 0.5
      vertex 8.40129 -0.711788 0.5
    endloop
  endfacet
  facet normal 0 0 1
    outer loop
      vertex 6.5 -3.25 0.5
      vertex 8.58422 -1.02862 0.5
      vertex 8.40129 -0.711788 0.5
    endloop
  endfacet
  facet normal 0 0 1
    outer loop
      vertex 6.5 -3.25 0.5
      vertex 8.82902 -1.3005 0.5
      vertex 8.58422 -1.02862 0.5
    endloop
  endfacet
  facet normal 0 0 1
    outer loop
      vertex 9.81707 -1.74041 0.5
      vertex 6.5 -3.25 0.5
      vertex 13.5 -6 0.5
    endloop
  endfacet
  facet normal -0 0 1
    outer loop
      vertex -6.5 -3.25 0.5
      vertex 13.5 -6 0.5
      vertex 6.5 -3.25 0.5
    endloop
  endfacet
  facet normal -0 0 1
    outer loop
      vertex -8.28824 -0.363845 0.5
      vertex -6.5 -3.25 0.5
      vertex -8.25 0 0.5
    endloop
  endfacet
  facet normal -0 0 1
    outer loop
      vertex -8.40129 -0.711788 0.5
      vertex -6.5 -3.25 0.5
      vertex -8.28824 -0.363845 0.5
    endloop
  endfacet
  facet normal -0 0 1
    outer loop
      vertex -8.58422 -1.02862 0.5
      vertex -6.5 -3.25 0.5
      vertex -8.40129 -0.711788 0.5
    endloop
  endfacet
  facet normal -0 0 1
    outer loop
      vertex -8.82902 -1.3005 0.5
      vertex -6.5 -3.25 0.5
      vertex -8.58422 -1.02862 0.5
    endloop
  endfacet
  facet normal -0 0 1
    outer loop
      vertex -9.125 -1.51554 0.5
      vertex -6.5 -3.25 0.5
      vertex -8.82902 -1.3005 0.5
    endloop
  endfacet
  facet normal -0 0 1
    outer loop
      vertex -9.45922 -1.66435 0.5
      vertex -6.5 -3.25 0.5
      vertex -9.125 -1.51554 0.5
    endloop
  endfacet
  facet normal -0 0 1
    outer loop
      vertex -9.81707 -1.74041 0.5
      vertex -6.5 -3.25 0.5
      vertex -9.45922 -1.66435 0.5
    endloop
  endfacet
  facet normal 0 0 1
    outer loop
      vertex -13.5 -6 0.5
      vertex -9.81707 -1.74041 0.5
      vertex -10.1829 -1.74041 0.5
    endloop
  endfacet
  facet normal 0 0 1
    outer loop
      vertex -13.5 -6 0.5
      vertex -10.1829 -1.74041 0.5
      vertex -10.5408 -1.66435 0.5
    endloop
  endfacet
  facet normal 0 0 1
    outer loop
      vertex -13.5 -6 0.5
      vertex -11.75 0 0.5
      vertex -13.5 6 0.5
    endloop
  endfacet
  facet normal 0 0 1
    outer loop
      vertex -6.5 -3.25 0.5
      vertex -13.5 -6 0.5
      vertex 13.5 -6 0.5
    endloop
  endfacet
  facet normal 0 0 1
    outer loop
      vertex -9.81707 -1.74041 0.5
      vertex -13.5 -6 0.5
      vertex -6.5 -3.25 0.5
    endloop
  endfacet
  facet normal 0 0 1
    outer loop
      vertex -10.875 -1.51554 0.5
      vertex -13.5 -6 0.5
      vertex -10.5408 -1.66435 0.5
    endloop
  endfacet
  facet normal 0 0 1
    outer loop
      vertex -11.171 -1.3005 0.5
      vertex -13.5 -6 0.5
      vertex -10.875 -1.51554 0.5
    endloop
  endfacet
  facet normal 0 0 1
    outer loop
      vertex -11.4158 -1.02862 0.5
      vertex -13.5 -6 0.5
      vertex -11.171 -1.3005 0.5
    endloop
  endfacet
  facet normal 0 0 1
    outer loop
      vertex -11.5987 -0.711788 0.5
      vertex -13.5 -6 0.5
      vertex -11.4158 -1.02862 0.5
    endloop
  endfacet
  facet normal 0 0 1
    outer loop
      vertex -11.7118 -0.363845 0.5
      vertex -13.5 -6 0.5
      vertex -11.5987 -0.711788 0.5
    endloop
  endfacet
  facet normal 0 0 1
    outer loop
      vertex -11.75 0 0.5
      vertex -13.5 -6 0.5
      vertex -11.7118 -0.363845 0.5
    endloop
  endfacet
  facet normal 1 -0 0
    outer loop
      vertex 13.5 -6 0.5
      vertex 13.5 6 -0.5
      vertex 13.5 6 0.5
    endloop
  endfacet
  facet normal 1 0 0
    outer loop
      vertex 13.5 6 -0.5
      vertex 13.5 -6 0.5
      vertex 13.5 -6 -0.5
    endloop
  endfacet
  facet normal 0 1 -0
    outer loop
      vertex 13.5 6 -0.5
      vertex -13.5 6 0.5
      vertex 13.5 6 0.5
    endloop
  endfacet
  facet normal 0 1 0
    outer loop
      vertex -13.5 6 0.5
      vertex 13.5 6 -0.5
      vertex -13.5 6 -0.5
    endloop
  endfacet
  facet normal 0 0 -1
    outer loop
      vertex 13.5 -6 -0.5
      vertex 11.75 0 -0.5
      vertex 13.5 6 -0.5
    endloop
  endfacet
  facet normal 0 0 -1
    outer loop
      vertex 13.5 -6 -0.5
      vertex 11.7118 -0.363845 -0.5
      vertex 11.75 0 -0.5
    endloop
  endfacet
  facet normal 0 0 -1
    outer loop
      vertex 13.5 -6 -0.5
      vertex 11.5987 -0.711788 -0.5
      vertex 11.7118 -0.363845 -0.5
    endloop
  endfacet
  facet normal 0 0 -1
    outer loop
      vertex 13.5 -6 -0.5
      vertex 11.4158 -1.02862 -0.5
      vertex 11.5987 -0.711788 -0.5
    endloop
  endfacet
  facet normal 0 0 -1
    outer loop
      vertex 13.5 -6 -0.5
      vertex 11.171 -1.3005 -0.5
      vertex 11.4158 -1.02862 -0.5
    endloop
  endfacet
  facet normal 0 0 -1
    outer loop
      vertex 13.5 -6 -0.5
      vertex 10.875 -1.51554 -0.5
      vertex 11.171 -1.3005 -0.5
    endloop
  endfacet
  facet normal 0 0 -1
    outer loop
      vertex 13.5 -6 -0.5
      vertex 10.5408 -1.66435 -0.5
      vertex 10.875 -1.51554 -0.5
    endloop
  endfacet
  facet normal 0 0 -1
    outer loop
      vertex 13.5 -6 -0.5
      vertex 10.1829 -1.74041 -0.5
      vertex 10.5408 -1.66435 -0.5
    endloop
  endfacet
  facet normal 0 0 -1
    outer loop
      vertex 13.5 -6 -0.5
      vertex 9.81707 -1.74041 -0.5
      vertex 10.1829 -1.74041 -0.5
    endloop
  endfacet
  facet normal 0 0 -1
    outer loop
      vertex 6.5 -3.25 -0.5
      vertex 9.81707 -1.74041 -0.5
      vertex 13.5 -6 -0.5
    endloop
  endfacet
  facet normal -0 0 -1
    outer loop
      vertex 9.81707 -1.74041 -0.5
      vertex 6.5 -3.25 -0.5
      vertex 9.45922 -1.66435 -0.5
    endloop
  endfacet
  facet normal -0 0 -1
    outer loop
      vertex 9.45922 -1.66435 -0.5
      vertex 6.5 -3.25 -0.5
      vertex 9.125 -1.51554 -0.5
    endloop
  endfacet
  facet normal -0 0 -1
    outer loop
      vertex 8.28824 -0.363845 -0.5
      vertex 6.5 -3.25 -0.5
      vertex 8.25 0 -0.5
    endloop
  endfacet
  facet normal -0 0 -1
    outer loop
      vertex 8.40129 -0.711788 -0.5
      vertex 6.5 -3.25 -0.5
      vertex 8.28824 -0.363845 -0.5
    endloop
  endfacet
  facet normal -0 0 -1
    outer loop
      vertex 8.58422 -1.02862 -0.5
      vertex 6.5 -3.25 -0.5
      vertex 8.40129 -0.711788 -0.5
    endloop
  endfacet
  facet normal -0 0 -1
    outer loop
      vertex 8.82902 -1.3005 -0.5
      vertex 6.5 -3.25 -0.5
      vertex 8.58422 -1.02862 -0.5
    endloop
  endfacet
  facet normal -0 0 -1
    outer loop
      vertex 9.125 -1.51554 -0.5
      vertex 6.5 -3.25 -0.5
      vertex 8.82902 -1.3005 -0.5
    endloop
  endfacet
  facet normal 0 0 -1
    outer loop
      vertex 13.5 -6 -0.5
      vertex -6.5 -3.25 -0.5
      vertex 6.5 -3.25 -0.5
    endloop
  endfacet
  facet normal 0 0 -1
    outer loop
      vertex -6.5 -3.25 -0.5
      vertex -8.25 0 -0.5
      vertex -6.5 3.25 -0.5
    endloop
  endfacet
  facet normal 0 0 -1
    outer loop
      vertex -6.5 -3.25 -0.5
      vertex -8.28824 -0.363845 -0.5
      vertex -8.25 0 -0.5
    endloop
  endfacet
  facet normal 0 0 -1
    outer loop
      vertex -6.5 -3.25 -0.5
      vertex -8.40129 -0.711788 -0.5
      vertex -8.28824 -0.363845 -0.5
    endloop
  endfacet
  facet normal 0 0 -1
    outer loop
      vertex -6.5 -3.25 -0.5
      vertex -8.58422 -1.02862 -0.5
      vertex -8.40129 -0.711788 -0.5
    endloop
  endfacet
  facet normal 0 0 -1
    outer loop
      vertex -6.5 -3.25 -0.5
      vertex -8.82902 -1.3005 -0.5
      vertex -8.58422 -1.02862 -0.5
    endloop
  endfacet
  facet normal 0 0 -1
    outer loop
      vertex -6.5 -3.25 -0.5
      vertex -9.125 -1.51554 -0.5
      vertex -8.82902 -1.3005 -0.5
    endloop
  endfacet
  facet normal 0 0 -1
    outer loop
      vertex -6.5 -3.25 -0.5
      vertex -9.45922 -1.66435 -0.5
      vertex -9.125 -1.51554 -0.5
    endloop
  endfacet
  facet normal 0 0 -1
    outer loop
      vertex -6.5 -3.25 -0.5
      vertex -9.81707 -1.74041 -0.5
      vertex -9.45922 -1.66435 -0.5
    endloop
  endfacet
  facet normal 0 0 -1
    outer loop
      vertex -13.5 -6 -0.5
      vertex -9.81707 -1.74041 -0.5
      vertex -6.5 -3.25 -0.5
    endloop
  endfacet
  facet normal -0 0 -1
    outer loop
      vertex -9.81707 -1.74041 -0.5
      vertex -13.5 -6 -0.5
      vertex -10.1829 -1.74041 -0.5
    endloop
  endfacet
  facet normal -0 0 -1
    outer loop
      vertex -11.7118 -0.363845 -0.5
      vertex -13.5 -6 -0.5
      vertex -11.75 0 -0.5
    endloop
  endfacet
  facet normal -0 0 -1
    outer loop
      vertex -11.5987 -0.711788 -0.5
      vertex -13.5 -6 -0.5
      vertex -11.7118 -0.363845 -0.5
    endloop
  endfacet
  facet normal -0 0 -1
    outer loop
      vertex -11.4158 -1.02862 -0.5
      vertex -13.5 -6 -0.5
      vertex -11.5987 -0.711788 -0.5
    endloop
  endfacet
  facet normal -0 0 -1
    outer loop
      vertex -11.171 -1.3005 -0.5
      vertex -13.5 -6 -0.5
      vertex -11.4158 -1.02862 -0.5
    endloop
  endfacet
  facet normal -0 0 -1
    outer loop
      vertex -10.875 -1.51554 -0.5
      vertex -13.5 -6 -0.5
      vertex -11.171 -1.3005 -0.5
    endloop
  endfacet
  facet normal -0 0 -1
    outer loop
      vertex -10.5408 -1.66435 -0.5
      vertex -13.5 -6 -0.5
      vertex -10.875 -1.51554 -0.5
    endloop
  endfacet
  facet normal -0 0 -1
    outer loop
      vertex -10.1829 -1.74041 -0.5
      vertex -13.5 -6 -0.5
      vertex -10.5408 -1.66435 -0.5
    endloop
  endfacet
  facet normal 0 0 -1
    outer loop
      vertex -13.5 -6 -0.5
      vertex -6.5 -3.25 -0.5
      vertex 13.5 -6 -0.5
    endloop
  endfacet
  facet normal 0 0 -1
    outer loop
      vertex 11.7118 0.363845 -0.5
      vertex 13.5 6 -0.5
      vertex 11.75 0 -0.5
    endloop
  endfacet
  facet normal 0 0 -1
    outer loop
      vertex 11.5987 0.711788 -0.5
      vertex 13.5 6 -0.5
      vertex 11.7118 0.363845 -0.5
    endloop
  endfacet
  facet normal 0 0 -1
    outer loop
      vertex 11.4158 1.02862 -0.5
      vertex 13.5 6 -0.5
      vertex 11.5987 0.711788 -0.5
    endloop
  endfacet
  facet normal 0 0 -1
    outer loop
      vertex 11.171 1.3005 -0.5
      vertex 13.5 6 -0.5
      vertex 11.4158 1.02862 -0.5
    endloop
  endfacet
  facet normal 0 0 -1
    outer loop
      vertex 10.875 1.51554 -0.5
      vertex 13.5 6 -0.5
      vertex 11.171 1.3005 -0.5
    endloop
  endfacet
  facet normal 0 0 -1
    outer loop
      vertex 10.5408 1.66435 -0.5
      vertex 13.5 6 -0.5
      vertex 10.875 1.51554 -0.5
    endloop
  endfacet
  facet normal 0 0 -1
    outer loop
      vertex 10.1829 1.74041 -0.5
      vertex 13.5 6 -0.5
      vertex 10.5408 1.66435 -0.5
    endloop
  endfacet
  facet normal 0 0 -1
    outer loop
      vertex 9.81707 1.74041 -0.5
      vertex 13.5 6 -0.5
      vertex 10.1829 1.74041 -0.5
    endloop
  endfacet
  facet normal 0 0 -1
    outer loop
      vertex 6.5 3.25 -0.5
      vertex 9.81707 1.74041 -0.5
      vertex 9.45922 1.66435 -0.5
    endloop
  endfacet
  facet normal 0 0 -1
    outer loop
      vertex 6.5 3.25 -0.5
      vertex 9.45922 1.66435 -0.5
      vertex 9.125 1.51554 -0.5
    endloop
  endfacet
  facet normal 0 0 -1
    outer loop
      vertex 6.5 3.25 -0.5
      vertex 9.125 1.51554 -0.5
      vertex 8.82902 1.3005 -0.5
    endloop
  endfacet
  facet normal 0 0 -1
    outer loop
      vertex 6.5 3.25 -0.5
      vertex 8.25 0 -0.5
      vertex 6.5 -3.25 -0.5
    endloop
  endfacet
  facet normal 0 0 -1
    outer loop
      vertex 8.25 0 -0.5
      vertex 6.5 3.25 -0.5
      vertex 8.28824 0.363845 -0.5
    endloop
  endfacet
  facet normal 0 0 -1
    outer loop
      vertex 8.28824 0.363845 -0.5
      vertex 6.5 3.25 -0.5
      vertex 8.40129 0.711788 -0.5
    endloop
  endfacet
  facet normal 0 0 -1
    outer loop
      vertex 6.5 3.25 -0.5
      vertex 8.58422 1.02862 -0.5
      vertex 8.40129 0.711788 -0.5
    endloop
  endfacet
  facet normal 0 0 -1
    outer loop
      vertex 6.5 3.25 -0.5
      vertex 8.82902 1.3005 -0.5
      vertex 8.58422 1.02862 -0.5
    endloop
  endfacet
  facet normal 0 0 -1
    outer loop
      vertex 9.81707 1.74041 -0.5
      vertex 6.5 3.25 -0.5
      vertex 13.5 6 -0.5
    endloop
  endfacet
  facet normal 0 0 -1
    outer loop
      vertex -6.5 3.25 -0.5
      vertex 13.5 6 -0.5
      vertex 6.5 3.25 -0.5
    endloop
  endfacet
  facet normal 0 0 -1
    outer loop
      vertex -8.28824 0.363845 -0.5
      vertex -6.5 3.25 -0.5
      vertex -8.25 0 -0.5
    endloop
  endfacet
  facet normal 0 0 -1
    outer loop
      vertex -8.40129 0.711788 -0.5
      vertex -6.5 3.25 -0.5
      vertex -8.28824 0.363845 -0.5
    endloop
  endfacet
  facet normal 0 0 -1
    outer loop
      vertex -8.58422 1.02862 -0.5
      vertex -6.5 3.25 -0.5
      vertex -8.40129 0.711788 -0.5
    endloop
  endfacet
  facet normal 0 0 -1
    outer loop
      vertex -8.82902 1.3005 -0.5
      vertex -6.5 3.25 -0.5
      vertex -8.58422 1.02862 -0.5
    endloop
  endfacet
  facet normal 0 0 -1
    outer loop
      vertex -9.125 1.51554 -0.5
      vertex -6.5 3.25 -0.5
      vertex -8.82902 1.3005 -0.5
    endloop
  endfacet
  facet normal 0 0 -1
    outer loop
      vertex -9.45922 1.66435 -0.5
      vertex -6.5 3.25 -0.5
      vertex -9.125 1.51554 -0.5
    endloop
  endfacet
  facet normal 0 0 -1
    outer loop
      vertex -9.81707 1.74041 -0.5
      vertex -6.5 3.25 -0.5
      vertex -9.45922 1.66435 -0.5
    endloop
  endfacet
  facet normal 0 0 -1
    outer loop
      vertex -13.5 6 -0.5
      vertex -9.81707 1.74041 -0.5
      vertex -10.1829 1.74041 -0.5
    endloop
  endfacet
  facet normal 0 0 -1
    outer loop
      vertex -13.5 6 -0.5
      vertex -10.1829 1.74041 -0.5
      vertex -10.5408 1.66435 -0.5
    endloop
  endfacet
  facet normal 0 0 -1
    outer loop
      vertex -13.5 6 -0.5
      vertex -11.75 0 -0.5
      vertex -13.5 -6 -0.5
    endloop
  endfacet
  facet normal 0 0 -1
    outer loop
      vertex -6.5 3.25 -0.5
      vertex -13.5 6 -0.5
      vertex 13.5 6 -0.5
    endloop
  endfacet
  facet normal 0 0 -1
    outer loop
      vertex -9.81707 1.74041 -0.5
      vertex -13.5 6 -0.5
      vertex -6.5 3.25 -0.5
    endloop
  endfacet
  facet normal 0 0 -1
    outer loop
      vertex -10.875 1.51554 -0.5
      vertex -13.5 6 -0.5
      vertex -10.5408 1.66435 -0.5
    endloop
  endfacet
  facet normal 0 0 -1
    outer loop
      vertex -11.171 1.3005 -0.5
      vertex -13.5 6 -0.5
      vertex -10.875 1.51554 -0.5
    endloop
  endfacet
  facet normal 0 0 -1
    outer loop
      vertex -11.4158 1.02862 -0.5
      vertex -13.5 6 -0.5
      vertex -11.171 1.3005 -0.5
    endloop
  endfacet
  facet normal 0 0 -1
    outer loop
      vertex -11.5987 0.711788 -0.5
      vertex -13.5 6 -0.5
      vertex -11.4158 1.02862 -0.5
    endloop
  endfacet
  facet normal 0 0 -1
    outer loop
      vertex -11.7118 0.363845 -0.5
      vertex -13.5 6 -0.5
      vertex -11.5987 0.711788 -0.5
    endloop
  endfacet
  facet normal 0 0 -1
    outer loop
      vertex -11.75 0 -0.5
      vertex -13.5 6 -0.5
      vertex -11.7118 0.363845 -0.5
    endloop
  endfacet
  facet normal 0 -1 0
    outer loop
      vertex -13.5 -6 -0.5
      vertex 13.5 -6 0.5
      vertex -13.5 -6 0.5
    endloop
  endfacet
  facet normal 0 -1 -0
    outer loop
      vertex 13.5 -6 0.5
      vertex -13.5 -6 -0.5
      vertex 13.5 -6 -0.5
    endloop
  endfacet
  facet normal 1 -0 0
    outer loop
      vertex -6.5 -3.25 0.5
      vertex -6.5 3.25 -0.5
      vertex -6.5 3.25 0.5
    endloop
  endfacet
  facet normal 1 0 0
    outer loop
      vertex -6.5 3.25 -0.5
      vertex -6.5 -3.25 0.5
      vertex -6.5 -3.25 -0.5
    endloop
  endfacet
  facet normal -1 0 0
    outer loop
      vertex 6.5 -3.25 -0.5
      vertex 6.5 3.25 0.5
      vertex 6.5 3.25 -0.5
    endloop
  endfacet
  facet normal -1 -0 0
    outer loop
      vertex 6.5 3.25 0.5
      vertex 6.5 -3.25 -0.5
      vertex 6.5 -3.25 0.5
    endloop
  endfacet
  facet normal 0 1 -0
    outer loop
      vertex 6.5 -3.25 -0.5
      vertex -6.5 -3.25 0.5
      vertex 6.5 -3.25 0.5
    endloop
  endfacet
  facet normal 0 1 0
    outer loop
      vertex -6.5 -3.25 0.5
      vertex 6.5 -3.25 -0.5
      vertex -6.5 -3.25 -0.5
    endloop
  endfacet
  facet normal 0 -1 0
    outer loop
      vertex -6.5 3.25 -0.5
      vertex 6.5 3.25 0.5
      vertex -6.5 3.25 0.5
    endloop
  endfacet
  facet normal 0 -1 -0
    outer loop
      vertex 6.5 3.25 0.5
      vertex -6.5 3.25 -0.5
      vertex 6.5 3.25 -0.5
    endloop
  endfacet
  facet normal 0.951019 -0.309132 1.82422e-18
    outer loop
      vertex -11.7118 0.363845 0.5
      vertex -11.5987 0.711788 -0.5
      vertex -11.5987 0.711788 0.5
    endloop
  endfacet
  facet normal 0.951019 -0.309132 1.82422e-18
    outer loop
      vertex -11.5987 0.711788 -0.5
      vertex -11.7118 0.363845 0.5
      vertex -11.7118 0.363845 -0.5
    endloop
  endfacet
  facet normal -0.866017 -0.500014 9.34474e-18
    outer loop
      vertex -8.40129 0.711788 -0.5
      vertex -8.58422 1.02862 0.5
      vertex -8.58422 1.02862 -0.5
    endloop
  endfacet
  facet normal -0.866017 -0.500014 9.34474e-18
    outer loop
      vertex -8.58422 1.02862 0.5
      vertex -8.40129 0.711788 -0.5
      vertex -8.40129 0.711788 0.5
    endloop
  endfacet
  facet normal -0.951059 -0.309008 1.89818e-19
    outer loop
      vertex -8.28824 0.363845 -0.5
      vertex -8.40129 0.711788 0.5
      vertex -8.40129 0.711788 -0.5
    endloop
  endfacet
  facet normal -0.951059 -0.309008 1.89818e-19
    outer loop
      vertex -8.40129 0.711788 0.5
      vertex -8.28824 0.363845 -0.5
      vertex -8.28824 0.363845 0.5
    endloop
  endfacet
  facet normal -0.40675 -0.91354 0
    outer loop
      vertex -9.45922 1.66435 -0.5
      vertex -9.125 1.51554 0.5
      vertex -9.45922 1.66435 0.5
    endloop
  endfacet
  facet normal -0.40675 -0.91354 -0
    outer loop
      vertex -9.125 1.51554 0.5
      vertex -9.45922 1.66435 -0.5
      vertex -9.125 1.51554 -0.5
    endloop
  endfacet
  facet normal 0.40677 -0.913531 0
    outer loop
      vertex -10.875 1.51554 -0.5
      vertex -10.5408 1.66435 0.5
      vertex -10.875 1.51554 0.5
    endloop
  endfacet
  facet normal 0.40677 -0.913531 0
    outer loop
      vertex -10.5408 1.66435 0.5
      vertex -10.875 1.51554 -0.5
      vertex -10.5408 1.66435 -0.5
    endloop
  endfacet
  facet normal 0.866053 -0.499953 -6.45562e-18
    outer loop
      vertex -11.5987 0.711788 0.5
      vertex -11.4158 1.02862 -0.5
      vertex -11.4158 1.02862 0.5
    endloop
  endfacet
  facet normal 0.866053 -0.499953 -6.45562e-18
    outer loop
      vertex -11.4158 1.02862 -0.5
      vertex -11.5987 0.711788 0.5
      vertex -11.5987 0.711788 -0.5
    endloop
  endfacet
  facet normal 0.587756 -0.809039 0
    outer loop
      vertex -11.171 1.3005 -0.5
      vertex -10.875 1.51554 0.5
      vertex -11.171 1.3005 0.5
    endloop
  endfacet
  facet normal 0.587756 -0.809039 0
    outer loop
      vertex -10.875 1.51554 0.5
      vertex -11.171 1.3005 -0.5
      vertex -10.875 1.51554 -0.5
    endloop
  endfacet
  facet normal -0.994522 0.104524 8.83891e-19
    outer loop
      vertex -8.28824 -0.363845 -0.5
      vertex -8.25 0 0.5
      vertex -8.25 0 -0.5
    endloop
  endfacet
  facet normal -0.994522 0.104524 8.83891e-19
    outer loop
      vertex -8.25 0 0.5
      vertex -8.28824 -0.363845 -0.5
      vertex -8.28824 -0.363845 0.5
    endloop
  endfacet
  facet normal -0.743147 -0.669128 -9.53661e-18
    outer loop
      vertex -8.58422 1.02862 -0.5
      vertex -8.82902 1.3005 0.5
      vertex -8.82902 1.3005 -0.5
    endloop
  endfacet
  facet normal -0.743147 -0.669128 -9.53661e-18
    outer loop
      vertex -8.82902 1.3005 0.5
      vertex -8.58422 1.02862 -0.5
      vertex -8.58422 1.02862 0.5
    endloop
  endfacet
  facet normal 0 -1 0
    outer loop
      vertex -10.1829 1.74041 -0.5
      vertex -9.81707 1.74041 0.5
      vertex -10.1829 1.74041 0.5
    endloop
  endfacet
  facet normal 0 -1 -0
    outer loop
      vertex -9.81707 1.74041 0.5
      vertex -10.1829 1.74041 -0.5
      vertex -9.81707 1.74041 -0.5
    endloop
  endfacet
  facet normal -0.587782 -0.80902 0
    outer loop
      vertex -9.125 1.51554 -0.5
      vertex -8.82902 1.3005 0.5
      vertex -9.125 1.51554 0.5
    endloop
  endfacet
  facet normal -0.587782 -0.80902 -0
    outer loop
      vertex -8.82902 1.3005 0.5
      vertex -9.125 1.51554 -0.5
      vertex -8.82902 1.3005 -0.5
    endloop
  endfacet
  facet normal 0.994534 -0.104416 -1.61383e-18
    outer loop
      vertex -11.75 0 0.5
      vertex -11.7118 0.363845 -0.5
      vertex -11.7118 0.363845 0.5
    endloop
  endfacet
  facet normal 0.994534 -0.104416 -1.61383e-18
    outer loop
      vertex -11.7118 0.363845 -0.5
      vertex -11.75 0 0.5
      vertex -11.75 0 -0.5
    endloop
  endfacet
  facet normal 0.743147 -0.669128 1.97428e-18
    outer loop
      vertex -11.4158 1.02862 0.5
      vertex -11.171 1.3005 -0.5
      vertex -11.171 1.3005 0.5
    endloop
  endfacet
  facet normal 0.743147 -0.669128 1.97428e-18
    outer loop
      vertex -11.171 1.3005 -0.5
      vertex -11.4158 1.02862 0.5
      vertex -11.4158 1.02862 -0.5
    endloop
  endfacet
  facet normal 0.207875 -0.978155 0
    outer loop
      vertex -10.5408 1.66435 -0.5
      vertex -10.1829 1.74041 0.5
      vertex -10.5408 1.66435 0.5
    endloop
  endfacet
  facet normal 0.207875 -0.978155 0
    outer loop
      vertex -10.1829 1.74041 0.5
      vertex -10.5408 1.66435 -0.5
      vertex -10.1829 1.74041 -0.5
    endloop
  endfacet
  facet normal -0.994522 -0.104524 -8.83891e-19
    outer loop
      vertex -8.25 0 -0.5
      vertex -8.28824 0.363845 0.5
      vertex -8.28824 0.363845 -0.5
    endloop
  endfacet
  facet normal -0.994522 -0.104524 -8.83891e-19
    outer loop
      vertex -8.28824 0.363845 0.5
      vertex -8.25 0 -0.5
      vertex -8.25 0 0.5
    endloop
  endfacet
  facet normal -0.587782 0.80902 0
    outer loop
      vertex -8.82902 -1.3005 -0.5
      vertex -9.125 -1.51554 0.5
      vertex -8.82902 -1.3005 0.5
    endloop
  endfacet
  facet normal -0.587782 0.80902 0
    outer loop
      vertex -9.125 -1.51554 0.5
      vertex -8.82902 -1.3005 -0.5
      vertex -9.125 -1.51554 -0.5
    endloop
  endfacet
  facet normal -0.951059 0.309008 -1.89818e-19
    outer loop
      vertex -8.40129 -0.711788 -0.5
      vertex -8.28824 -0.363845 0.5
      vertex -8.28824 -0.363845 -0.5
    endloop
  endfacet
  facet normal -0.951059 0.309008 -1.89818e-19
    outer loop
      vertex -8.28824 -0.363845 0.5
      vertex -8.40129 -0.711788 -0.5
      vertex -8.40129 -0.711788 0.5
    endloop
  endfacet
  facet normal 0.207875 0.978155 -0
    outer loop
      vertex -10.1829 -1.74041 -0.5
      vertex -10.5408 -1.66435 0.5
      vertex -10.1829 -1.74041 0.5
    endloop
  endfacet
  facet normal 0.207875 0.978155 0
    outer loop
      vertex -10.5408 -1.66435 0.5
      vertex -10.1829 -1.74041 -0.5
      vertex -10.5408 -1.66435 -0.5
    endloop
  endfacet
  facet normal -0.207903 -0.978149 0
    outer loop
      vertex -9.81707 1.74041 -0.5
      vertex -9.45922 1.66435 0.5
      vertex -9.81707 1.74041 0.5
    endloop
  endfacet
  facet normal -0.207903 -0.978149 -0
    outer loop
      vertex -9.45922 1.66435 0.5
      vertex -9.81707 1.74041 -0.5
      vertex -9.45922 1.66435 -0.5
    endloop
  endfacet
  facet normal 0.994534 0.104416 1.61383e-18
    outer loop
      vertex -11.7118 -0.363845 0.5
      vertex -11.75 0 -0.5
      vertex -11.75 0 0.5
    endloop
  endfacet
  facet normal 0.994534 0.104416 1.61383e-18
    outer loop
      vertex -11.75 0 -0.5
      vertex -11.7118 -0.363845 0.5
      vertex -11.7118 -0.363845 -0.5
    endloop
  endfacet
  facet normal -0.207903 0.978149 0
    outer loop
      vertex -9.45922 -1.66435 -0.5
      vertex -9.81707 -1.74041 0.5
      vertex -9.45922 -1.66435 0.5
    endloop
  endfacet
  facet normal -0.207903 0.978149 0
    outer loop
      vertex -9.81707 -1.74041 0.5
      vertex -9.45922 -1.66435 -0.5
      vertex -9.81707 -1.74041 -0.5
    endloop
  endfacet
  facet normal -0.40675 0.91354 0
    outer loop
      vertex -9.125 -1.51554 -0.5
      vertex -9.45922 -1.66435 0.5
      vertex -9.125 -1.51554 0.5
    endloop
  endfacet
  facet normal -0.40675 0.91354 0
    outer loop
      vertex -9.45922 -1.66435 0.5
      vertex -9.125 -1.51554 -0.5
      vertex -9.45922 -1.66435 -0.5
    endloop
  endfacet
  facet normal -0.743147 0.669128 9.53661e-18
    outer loop
      vertex -8.82902 -1.3005 -0.5
      vertex -8.58422 -1.02862 0.5
      vertex -8.58422 -1.02862 -0.5
    endloop
  endfacet
  facet normal -0.743147 0.669128 9.53661e-18
    outer loop
      vertex -8.58422 -1.02862 0.5
      vertex -8.82902 -1.3005 -0.5
      vertex -8.82902 -1.3005 0.5
    endloop
  endfacet
  facet normal -0.866017 0.500014 -9.34474e-18
    outer loop
      vertex -8.58422 -1.02862 -0.5
      vertex -8.40129 -0.711788 0.5
      vertex -8.40129 -0.711788 -0.5
    endloop
  endfacet
  facet normal -0.866017 0.500014 -9.34474e-18
    outer loop
      vertex -8.40129 -0.711788 0.5
      vertex -8.58422 -1.02862 -0.5
      vertex -8.58422 -1.02862 0.5
    endloop
  endfacet
  facet normal 0.587756 0.809039 -0
    outer loop
      vertex -10.875 -1.51554 -0.5
      vertex -11.171 -1.3005 0.5
      vertex -10.875 -1.51554 0.5
    endloop
  endfacet
  facet normal 0.587756 0.809039 0
    outer loop
      vertex -11.171 -1.3005 0.5
      vertex -10.875 -1.51554 -0.5
      vertex -11.171 -1.3005 -0.5
    endloop
  endfacet
  facet normal 0 1 -0
    outer loop
      vertex -9.81707 -1.74041 -0.5
      vertex -10.1829 -1.74041 0.5
      vertex -9.81707 -1.74041 0.5
    endloop
  endfacet
  facet normal 0 1 0
    outer loop
      vertex -10.1829 -1.74041 0.5
      vertex -9.81707 -1.74041 -0.5
      vertex -10.1829 -1.74041 -0.5
    endloop
  endfacet
  facet normal 0.951019 0.309132 -1.82422e-18
    outer loop
      vertex -11.5987 -0.711788 0.5
      vertex -11.7118 -0.363845 -0.5
      vertex -11.7118 -0.363845 0.5
    endloop
  endfacet
  facet normal 0.951019 0.309132 -1.82422e-18
    outer loop
      vertex -11.7118 -0.363845 -0.5
      vertex -11.5987 -0.711788 0.5
      vertex -11.5987 -0.711788 -0.5
    endloop
  endfacet
  facet normal 0.743147 0.669128 -1.97428e-18
    outer loop
      vertex -11.171 -1.3005 0.5
      vertex -11.4158 -1.02862 -0.5
      vertex -11.4158 -1.02862 0.5
    endloop
  endfacet
  facet normal 0.743147 0.669128 -1.97428e-18
    outer loop
      vertex -11.4158 -1.02862 -0.5
      vertex -11.171 -1.3005 0.5
      vertex -11.171 -1.3005 -0.5
    endloop
  endfacet
  facet normal 0.866053 0.499953 6.45562e-18
    outer loop
      vertex -11.4158 -1.02862 0.5
      vertex -11.5987 -0.711788 -0.5
      vertex -11.5987 -0.711788 0.5
    endloop
  endfacet
  facet normal 0.866053 0.499953 6.45562e-18
    outer loop
      vertex -11.5987 -0.711788 -0.5
      vertex -11.4158 -1.02862 0.5
      vertex -11.4158 -1.02862 -0.5
    endloop
  endfacet
  facet normal 0.40677 0.913531 -0
    outer loop
      vertex -10.5408 -1.66435 -0.5
      vertex -10.875 -1.51554 0.5
      vertex -10.5408 -1.66435 0.5
    endloop
  endfacet
  facet normal 0.40677 0.913531 0
    outer loop
      vertex -10.875 -1.51554 0.5
      vertex -10.5408 -1.66435 -0.5
      vertex -10.875 -1.51554 -0.5
    endloop
  endfacet
  facet normal -0.866053 -0.499953 6.45562e-18
    outer loop
      vertex 11.5987 0.711788 -0.5
      vertex 11.4158 1.02862 0.5
      vertex 11.4158 1.02862 -0.5
    endloop
  endfacet
  facet normal -0.866053 -0.499953 6.45562e-18
    outer loop
      vertex 11.4158 1.02862 0.5
      vertex 11.5987 0.711788 -0.5
      vertex 11.5987 0.711788 0.5
    endloop
  endfacet
  facet normal -0.994534 -0.104416 1.61383e-18
    outer loop
      vertex 11.75 0 -0.5
      vertex 11.7118 0.363845 0.5
      vertex 11.7118 0.363845 -0.5
    endloop
  endfacet
  facet normal -0.994534 -0.104416 1.61383e-18
    outer loop
      vertex 11.7118 0.363845 0.5
      vertex 11.75 0 -0.5
      vertex 11.75 0 0.5
    endloop
  endfacet
  facet normal 0.994522 -0.104524 8.83891e-19
    outer loop
      vertex 8.25 0 0.5
      vertex 8.28824 0.363845 -0.5
      vertex 8.28824 0.363845 0.5
    endloop
  endfacet
  facet normal 0.994522 -0.104524 8.83891e-19
    outer loop
      vertex 8.28824 0.363845 -0.5
      vertex 8.25 0 0.5
      vertex 8.25 0 -0.5
    endloop
  endfacet
  facet normal -0.743147 -0.669128 -1.97428e-18
    outer loop
      vertex 11.4158 1.02862 -0.5
      vertex 11.171 1.3005 0.5
      vertex 11.171 1.3005 -0.5
    endloop
  endfacet
  facet normal -0.743147 -0.669128 -1.97428e-18
    outer loop
      vertex 11.171 1.3005 0.5
      vertex 11.4158 1.02862 -0.5
      vertex 11.4158 1.02862 0.5
    endloop
  endfacet
  facet normal -0.207875 -0.978155 0
    outer loop
      vertex 10.1829 1.74041 -0.5
      vertex 10.5408 1.66435 0.5
      vertex 10.1829 1.74041 0.5
    endloop
  endfacet
  facet normal -0.207875 -0.978155 -0
    outer loop
      vertex 10.5408 1.66435 0.5
      vertex 10.1829 1.74041 -0.5
      vertex 10.5408 1.66435 -0.5
    endloop
  endfacet
  facet normal 0.587782 -0.80902 0
    outer loop
      vertex 8.82902 1.3005 -0.5
      vertex 9.125 1.51554 0.5
      vertex 8.82902 1.3005 0.5
    endloop
  endfacet
  facet normal 0.587782 -0.80902 0
    outer loop
      vertex 9.125 1.51554 0.5
      vertex 8.82902 1.3005 -0.5
      vertex 9.125 1.51554 -0.5
    endloop
  endfacet
  facet normal -0.587756 -0.809039 0
    outer loop
      vertex 10.875 1.51554 -0.5
      vertex 11.171 1.3005 0.5
      vertex 10.875 1.51554 0.5
    endloop
  endfacet
  facet normal -0.587756 -0.809039 -0
    outer loop
      vertex 11.171 1.3005 0.5
      vertex 10.875 1.51554 -0.5
      vertex 11.171 1.3005 -0.5
    endloop
  endfacet
  facet normal 0.207903 -0.978149 0
    outer loop
      vertex 9.45922 1.66435 -0.5
      vertex 9.81707 1.74041 0.5
      vertex 9.45922 1.66435 0.5
    endloop
  endfacet
  facet normal 0.207903 -0.978149 0
    outer loop
      vertex 9.81707 1.74041 0.5
      vertex 9.45922 1.66435 -0.5
      vertex 9.81707 1.74041 -0.5
    endloop
  endfacet
  facet normal -0.40677 -0.913531 0
    outer loop
      vertex 10.5408 1.66435 -0.5
      vertex 10.875 1.51554 0.5
      vertex 10.5408 1.66435 0.5
    endloop
  endfacet
  facet normal -0.40677 -0.913531 -0
    outer loop
      vertex 10.875 1.51554 0.5
      vertex 10.5408 1.66435 -0.5
      vertex 10.875 1.51554 -0.5
    endloop
  endfacet
  facet normal 0.994522 0.104524 -8.83891e-19
    outer loop
      vertex 8.28824 -0.363845 0.5
      vertex 8.25 0 -0.5
      vertex 8.25 0 0.5
    endloop
  endfacet
  facet normal 0.994522 0.104524 -8.83891e-19
    outer loop
      vertex 8.25 0 -0.5
      vertex 8.28824 -0.363845 0.5
      vertex 8.28824 -0.363845 -0.5
    endloop
  endfacet
  facet normal 0.951059 -0.309008 -1.89818e-19
    outer loop
      vertex 8.28824 0.363845 0.5
      vertex 8.40129 0.711788 -0.5
      vertex 8.40129 0.711788 0.5
    endloop
  endfacet
  facet normal 0.951059 -0.309008 -1.89818e-19
    outer loop
      vertex 8.40129 0.711788 -0.5
      vertex 8.28824 0.363845 0.5
      vertex 8.28824 0.363845 -0.5
    endloop
  endfacet
  facet normal 0.743147 -0.669128 9.53661e-18
    outer loop
      vertex 8.58422 1.02862 0.5
      vertex 8.82902 1.3005 -0.5
      vertex 8.82902 1.3005 0.5
    endloop
  endfacet
  facet normal 0.743147 -0.669128 9.53661e-18
    outer loop
      vertex 8.82902 1.3005 -0.5
      vertex 8.58422 1.02862 0.5
      vertex 8.58422 1.02862 -0.5
    endloop
  endfacet
  facet normal 0.40675 -0.91354 0
    outer loop
      vertex 9.125 1.51554 -0.5
      vertex 9.45922 1.66435 0.5
      vertex 9.125 1.51554 0.5
    endloop
  endfacet
  facet normal 0.40675 -0.91354 0
    outer loop
      vertex 9.45922 1.66435 0.5
      vertex 9.125 1.51554 -0.5
      vertex 9.45922 1.66435 -0.5
    endloop
  endfacet
  facet normal 0.866017 -0.500014 -9.34474e-18
    outer loop
      vertex 8.40129 0.711788 0.5
      vertex 8.58422 1.02862 -0.5
      vertex 8.58422 1.02862 0.5
    endloop
  endfacet
  facet normal 0.866017 -0.500014 -9.34474e-18
    outer loop
      vertex 8.58422 1.02862 -0.5
      vertex 8.40129 0.711788 0.5
      vertex 8.40129 0.711788 -0.5
    endloop
  endfacet
  facet normal -0.951019 0.309132 1.82422e-18
    outer loop
      vertex 11.5987 -0.711788 -0.5
      vertex 11.7118 -0.363845 0.5
      vertex 11.7118 -0.363845 -0.5
    endloop
  endfacet
  facet normal -0.951019 0.309132 1.82422e-18
    outer loop
      vertex 11.7118 -0.363845 0.5
      vertex 11.5987 -0.711788 -0.5
      vertex 11.5987 -0.711788 0.5
    endloop
  endfacet
  facet normal 0.951059 0.309008 1.89818e-19
    outer loop
      vertex 8.40129 -0.711788 0.5
      vertex 8.28824 -0.363845 -0.5
      vertex 8.28824 -0.363845 0.5
    endloop
  endfacet
  facet normal 0.951059 0.309008 1.89818e-19
    outer loop
      vertex 8.28824 -0.363845 -0.5
      vertex 8.40129 -0.711788 0.5
      vertex 8.40129 -0.711788 -0.5
    endloop
  endfacet
  facet normal -0.743147 0.669128 1.97428e-18
    outer loop
      vertex 11.171 -1.3005 -0.5
      vertex 11.4158 -1.02862 0.5
      vertex 11.4158 -1.02862 -0.5
    endloop
  endfacet
  facet normal -0.743147 0.669128 1.97428e-18
    outer loop
      vertex 11.4158 -1.02862 0.5
      vertex 11.171 -1.3005 -0.5
      vertex 11.171 -1.3005 0.5
    endloop
  endfacet
  facet normal -0.994534 0.104416 -1.61383e-18
    outer loop
      vertex 11.7118 -0.363845 -0.5
      vertex 11.75 0 0.5
      vertex 11.75 0 -0.5
    endloop
  endfacet
  facet normal -0.994534 0.104416 -1.61383e-18
    outer loop
      vertex 11.75 0 0.5
      vertex 11.7118 -0.363845 -0.5
      vertex 11.7118 -0.363845 0.5
    endloop
  endfacet
  facet normal -0.951019 -0.309132 -1.82422e-18
    outer loop
      vertex 11.7118 0.363845 -0.5
      vertex 11.5987 0.711788 0.5
      vertex 11.5987 0.711788 -0.5
    endloop
  endfacet
  facet normal -0.951019 -0.309132 -1.82422e-18
    outer loop
      vertex 11.5987 0.711788 0.5
      vertex 11.7118 0.363845 -0.5
      vertex 11.7118 0.363845 0.5
    endloop
  endfacet
  facet normal 0 -1 0
    outer loop
      vertex 9.81707 1.74041 -0.5
      vertex 10.1829 1.74041 0.5
      vertex 9.81707 1.74041 0.5
    endloop
  endfacet
  facet normal 0 -1 -0
    outer loop
      vertex 10.1829 1.74041 0.5
      vertex 9.81707 1.74041 -0.5
      vertex 10.1829 1.74041 -0.5
    endloop
  endfacet
  facet normal -0.207875 0.978155 0
    outer loop
      vertex 10.5408 -1.66435 -0.5
      vertex 10.1829 -1.74041 0.5
      vertex 10.5408 -1.66435 0.5
    endloop
  endfacet
  facet normal -0.207875 0.978155 0
    outer loop
      vertex 10.1829 -1.74041 0.5
      vertex 10.5408 -1.66435 -0.5
      vertex 10.1829 -1.74041 -0.5
    endloop
  endfacet
  facet normal -0.40677 0.913531 0
    outer loop
      vertex 10.875 -1.51554 -0.5
      vertex 10.5408 -1.66435 0.5
      vertex 10.875 -1.51554 0.5
    endloop
  endfacet
  facet normal -0.40677 0.913531 0
    outer loop
      vertex 10.5408 -1.66435 0.5
      vertex 10.875 -1.51554 -0.5
      vertex 10.5408 -1.66435 -0.5
    endloop
  endfacet
  facet normal -0.587756 0.809039 0
    outer loop
      vertex 11.171 -1.3005 -0.5
      vertex 10.875 -1.51554 0.5
      vertex 11.171 -1.3005 0.5
    endloop
  endfacet
  facet normal -0.587756 0.809039 0
    outer loop
      vertex 10.875 -1.51554 0.5
      vertex 11.171 -1.3005 -0.5
      vertex 10.875 -1.51554 -0.5
    endloop
  endfacet
  facet normal 0.743147 0.669128 -9.53661e-18
    outer loop
      vertex 8.82902 -1.3005 0.5
      vertex 8.58422 -1.02862 -0.5
      vertex 8.58422 -1.02862 0.5
    endloop
  endfacet
  facet normal 0.743147 0.669128 -9.53661e-18
    outer loop
      vertex 8.58422 -1.02862 -0.5
      vertex 8.82902 -1.3005 0.5
      vertex 8.82902 -1.3005 -0.5
    endloop
  endfacet
  facet normal 0.866017 0.500014 9.34474e-18
    outer loop
      vertex 8.58422 -1.02862 0.5
      vertex 8.40129 -0.711788 -0.5
      vertex 8.40129 -0.711788 0.5
    endloop
  endfacet
  facet normal 0.866017 0.500014 9.34474e-18
    outer loop
      vertex 8.40129 -0.711788 -0.5
      vertex 8.58422 -1.02862 0.5
      vertex 8.58422 -1.02862 -0.5
    endloop
  endfacet
  facet normal 0.587782 0.80902 -0
    outer loop
      vertex 9.125 -1.51554 -0.5
      vertex 8.82902 -1.3005 0.5
      vertex 9.125 -1.51554 0.5
    endloop
  endfacet
  facet normal 0.587782 0.80902 0
    outer loop
      vertex 8.82902 -1.3005 0.5
      vertex 9.125 -1.51554 -0.5
      vertex 8.82902 -1.3005 -0.5
    endloop
  endfacet
  facet normal 0 1 -0
    outer loop
      vertex 10.1829 -1.74041 -0.5
      vertex 9.81707 -1.74041 0.5
      vertex 10.1829 -1.74041 0.5
    endloop
  endfacet
  facet normal 0 1 0
    outer loop
      vertex 9.81707 -1.74041 0.5
      vertex 10.1829 -1.74041 -0.5
      vertex 9.81707 -1.74041 -0.5
    endloop
  endfacet
  facet normal -0.866053 0.499953 -6.45562e-18
    outer loop
      vertex 11.4158 -1.02862 -0.5
      vertex 11.5987 -0.711788 0.5
      vertex 11.5987 -0.711788 -0.5
    endloop
  endfacet
  facet normal -0.866053 0.499953 -6.45562e-18
    outer loop
      vertex 11.5987 -0.711788 0.5
      vertex 11.4158 -1.02862 -0.5
      vertex 11.4158 -1.02862 0.5
    endloop
  endfacet
  facet normal 0.207903 0.978149 -0
    outer loop
      vertex 9.81707 -1.74041 -0.5
      vertex 9.45922 -1.66435 0.5
      vertex 9.81707 -1.74041 0.5
    endloop
  endfacet
  facet normal 0.207903 0.978149 0
    outer loop
      vertex 9.45922 -1.66435 0.5
      vertex 9.81707 -1.74041 -0.5
      vertex 9.45922 -1.66435 -0.5
    endloop
  endfacet
  facet normal 0.40675 0.91354 -0
    outer loop
      vertex 9.45922 -1.66435 -0.5
      vertex 9.125 -1.51554 0.5
      vertex 9.45922 -1.66435 0.5
    endloop
  endfacet
  facet normal 0.40675 0.91354 0
    outer loop
      vertex 9.125 -1.51554 0.5
      vertex 9.45922 -1.66435 -0.5
      vertex 9.125 -1.51554 -0.5
    endloop
  endfacet
endsolid OpenSCAD_Model
