ISO-10303-21;
HEADER;
/* Generated by software containing ST-Developer
 * from STEP Tools, Inc. (www.steptools.com) 
 */

FILE_DESCRIPTION(
/* description */ (''),
/* implementation_level */ '2;1');

FILE_NAME(
/* name */ 
'C:\\Users\\bruno\\Dropbox\\RepRap\\BFPTouch\\Step\\BFPTouch_Cover_Lig
ht.stp',
/* time_stamp */ '2018-07-03T22:45:31-03:00',
/* author */ ('bruno'),
/* organization */ (''),
/* preprocessor_version */ 'ST-DEVELOPER v17',
/* originating_system */ 'Autodesk Inventor 2018',
/* authorisation */ '');

FILE_SCHEMA (('AUTOMOTIVE_DESIGN { 1 0 10303 214 3 1 1 }'));
ENDSEC;

DATA;
#10=MECHANICAL_DESIGN_GEOMETRIC_PRESENTATION_REPRESENTATION('',(#13),#2109);
#11=SHAPE_REPRESENTATION_RELATIONSHIP('SRR','None',#2116,#12);
#12=ADVANCED_BREP_SHAPE_REPRESENTATION('',(#14),#2108);
#13=STYLED_ITEM('',(#2125),#14);
#14=MANIFOLD_SOLID_BREP('S\X\F3lido1',#1265);
#15=CYLINDRICAL_SURFACE('',#1306,4.2);
#16=CYLINDRICAL_SURFACE('',#1311,4.2);
#17=CYLINDRICAL_SURFACE('',#1314,2.95);
#18=CYLINDRICAL_SURFACE('',#1332,6.);
#19=CYLINDRICAL_SURFACE('',#1336,3.5);
#20=CYLINDRICAL_SURFACE('',#1338,1.);
#21=CYLINDRICAL_SURFACE('',#1340,1.75);
#22=CYLINDRICAL_SURFACE('',#1348,1.6);
#23=CYLINDRICAL_SURFACE('',#1351,1.6);
#24=CYLINDRICAL_SURFACE('',#1354,2.99999999999999);
#25=CYLINDRICAL_SURFACE('',#1358,2.99999999999999);
#26=CYLINDRICAL_SURFACE('',#1363,3.);
#27=CYLINDRICAL_SURFACE('',#1369,3.);
#28=ELLIPSE('',#1296,9.39148550549912,4.2);
#29=ELLIPSE('',#1303,9.39148550549913,4.2);
#30=ELLIPSE('',#1305,9.39148550549912,4.2);
#31=ELLIPSE('',#1312,9.39148550549913,4.2);
#32=ELLIPSE('',#1316,4.17193000900063,2.95);
#33=ELLIPSE('',#1317,3.29820026681219,2.95);
#34=ELLIPSE('',#1321,3.91311896062463,3.5);
#35=ELLIPSE('',#1322,6.70820393249937,6.);
#36=ELLIPSE('',#1334,6.70820393249937,6.);
#37=ELLIPSE('',#1341,1.95655948031232,1.75);
#38=ELLIPSE('',#1342,2.47487373415292,1.75);
#39=ELLIPSE('',#1345,2.47487373415292,1.75);
#40=ELLIPSE('',#1355,6.70820393249935,2.99999999999999);
#41=ELLIPSE('',#1356,6.70820393249935,2.99999999999999);
#42=ELLIPSE('',#1359,6.70820393249935,2.99999999999999);
#43=ELLIPSE('',#1360,6.70820393249935,2.99999999999999);
#44=ELLIPSE('',#1364,6.70820393249938,3.);
#45=ELLIPSE('',#1370,6.70820393249938,3.);
#46=FACE_BOUND('',#140,.T.);
#47=FACE_BOUND('',#164,.T.);
#48=FACE_BOUND('',#165,.T.);
#49=FACE_BOUND('',#175,.T.);
#50=FACE_BOUND('',#185,.T.);
#51=FACE_BOUND('',#190,.T.);
#52=CIRCLE('',#1287,2.95);
#53=CIRCLE('',#1288,1.);
#54=CIRCLE('',#1292,4.2);
#55=CIRCLE('',#1293,4.2);
#56=CIRCLE('',#1307,4.2);
#57=CIRCLE('',#1313,4.2);
#58=CIRCLE('',#1315,2.95);
#59=CIRCLE('',#1325,2.99999999999999);
#60=CIRCLE('',#1326,2.99999999999999);
#61=CIRCLE('',#1327,1.6);
#62=CIRCLE('',#1328,1.6);
#63=CIRCLE('',#1333,6.);
#64=CIRCLE('',#1337,3.5);
#65=CIRCLE('',#1339,1.);
#66=CIRCLE('',#1343,1.75);
#67=CIRCLE('',#1344,1.75);
#68=CIRCLE('',#1349,1.6);
#69=CIRCLE('',#1350,1.6);
#70=CIRCLE('',#1352,1.6);
#71=CIRCLE('',#1353,1.6);
#72=CIRCLE('',#1357,2.99999999999999);
#73=CIRCLE('',#1361,2.99999999999999);
#74=CIRCLE('',#1365,3.);
#75=CIRCLE('',#1371,3.);
#76=FACE_OUTER_BOUND('',#138,.T.);
#77=FACE_OUTER_BOUND('',#139,.T.);
#78=FACE_OUTER_BOUND('',#141,.T.);
#79=FACE_OUTER_BOUND('',#142,.T.);
#80=FACE_OUTER_BOUND('',#143,.T.);
#81=FACE_OUTER_BOUND('',#144,.T.);
#82=FACE_OUTER_BOUND('',#145,.T.);
#83=FACE_OUTER_BOUND('',#146,.T.);
#84=FACE_OUTER_BOUND('',#147,.T.);
#85=FACE_OUTER_BOUND('',#148,.T.);
#86=FACE_OUTER_BOUND('',#149,.T.);
#87=FACE_OUTER_BOUND('',#150,.T.);
#88=FACE_OUTER_BOUND('',#151,.T.);
#89=FACE_OUTER_BOUND('',#152,.T.);
#90=FACE_OUTER_BOUND('',#153,.T.);
#91=FACE_OUTER_BOUND('',#154,.T.);
#92=FACE_OUTER_BOUND('',#155,.T.);
#93=FACE_OUTER_BOUND('',#156,.T.);
#94=FACE_OUTER_BOUND('',#157,.T.);
#95=FACE_OUTER_BOUND('',#158,.T.);
#96=FACE_OUTER_BOUND('',#159,.T.);
#97=FACE_OUTER_BOUND('',#160,.T.);
#98=FACE_OUTER_BOUND('',#161,.T.);
#99=FACE_OUTER_BOUND('',#162,.T.);
#100=FACE_OUTER_BOUND('',#163,.T.);
#101=FACE_OUTER_BOUND('',#166,.T.);
#102=FACE_OUTER_BOUND('',#167,.T.);
#103=FACE_OUTER_BOUND('',#168,.T.);
#104=FACE_OUTER_BOUND('',#169,.T.);
#105=FACE_OUTER_BOUND('',#170,.T.);
#106=FACE_OUTER_BOUND('',#171,.T.);
#107=FACE_OUTER_BOUND('',#172,.T.);
#108=FACE_OUTER_BOUND('',#173,.T.);
#109=FACE_OUTER_BOUND('',#174,.T.);
#110=FACE_OUTER_BOUND('',#176,.T.);
#111=FACE_OUTER_BOUND('',#177,.T.);
#112=FACE_OUTER_BOUND('',#178,.T.);
#113=FACE_OUTER_BOUND('',#179,.T.);
#114=FACE_OUTER_BOUND('',#180,.T.);
#115=FACE_OUTER_BOUND('',#181,.T.);
#116=FACE_OUTER_BOUND('',#182,.T.);
#117=FACE_OUTER_BOUND('',#183,.T.);
#118=FACE_OUTER_BOUND('',#184,.T.);
#119=FACE_OUTER_BOUND('',#186,.T.);
#120=FACE_OUTER_BOUND('',#187,.T.);
#121=FACE_OUTER_BOUND('',#188,.T.);
#122=FACE_OUTER_BOUND('',#189,.T.);
#123=FACE_OUTER_BOUND('',#191,.T.);
#124=FACE_OUTER_BOUND('',#192,.T.);
#125=FACE_OUTER_BOUND('',#193,.T.);
#126=FACE_OUTER_BOUND('',#194,.T.);
#127=FACE_OUTER_BOUND('',#195,.T.);
#128=FACE_OUTER_BOUND('',#196,.T.);
#129=FACE_OUTER_BOUND('',#197,.T.);
#130=FACE_OUTER_BOUND('',#198,.T.);
#131=FACE_OUTER_BOUND('',#199,.T.);
#132=FACE_OUTER_BOUND('',#200,.T.);
#133=FACE_OUTER_BOUND('',#201,.T.);
#134=FACE_OUTER_BOUND('',#202,.T.);
#135=FACE_OUTER_BOUND('',#203,.T.);
#136=FACE_OUTER_BOUND('',#204,.T.);
#137=FACE_OUTER_BOUND('',#205,.T.);
#138=EDGE_LOOP('',(#790,#791,#792,#793,#794,#795));
#139=EDGE_LOOP('',(#796,#797,#798,#799,#800,#801,#802,#803));
#140=EDGE_LOOP('',(#804));
#141=EDGE_LOOP('',(#805,#806,#807,#808,#809,#810,#811,#812,#813,#814));
#142=EDGE_LOOP('',(#815,#816,#817,#818));
#143=EDGE_LOOP('',(#819,#820,#821,#822,#823,#824,#825,#826,#827,#828,#829,
#830,#831,#832,#833,#834,#835));
#144=EDGE_LOOP('',(#836,#837,#838,#839,#840,#841));
#145=EDGE_LOOP('',(#842,#843,#844,#845));
#146=EDGE_LOOP('',(#846,#847,#848,#849));
#147=EDGE_LOOP('',(#850,#851,#852,#853));
#148=EDGE_LOOP('',(#854,#855,#856,#857));
#149=EDGE_LOOP('',(#858,#859,#860,#861));
#150=EDGE_LOOP('',(#862,#863,#864,#865));
#151=EDGE_LOOP('',(#866,#867,#868));
#152=EDGE_LOOP('',(#869,#870,#871));
#153=EDGE_LOOP('',(#872,#873,#874,#875,#876));
#154=EDGE_LOOP('',(#877,#878,#879,#880));
#155=EDGE_LOOP('',(#881,#882,#883,#884));
#156=EDGE_LOOP('',(#885,#886,#887,#888));
#157=EDGE_LOOP('',(#889,#890,#891,#892,#893));
#158=EDGE_LOOP('',(#894,#895,#896,#897,#898,#899,#900));
#159=EDGE_LOOP('',(#901,#902,#903,#904,#905));
#160=EDGE_LOOP('',(#906,#907,#908,#909));
#161=EDGE_LOOP('',(#910,#911,#912,#913,#914,#915,#916,#917,#918,#919,#920,
#921,#922,#923));
#162=EDGE_LOOP('',(#924,#925,#926,#927,#928,#929));
#163=EDGE_LOOP('',(#930,#931,#932,#933,#934,#935,#936,#937,#938,#939,#940,
#941,#942,#943));
#164=EDGE_LOOP('',(#944));
#165=EDGE_LOOP('',(#945));
#166=EDGE_LOOP('',(#946,#947,#948,#949,#950,#951));
#167=EDGE_LOOP('',(#952,#953,#954,#955));
#168=EDGE_LOOP('',(#956,#957,#958,#959,#960,#961));
#169=EDGE_LOOP('',(#962,#963,#964,#965,#966,#967));
#170=EDGE_LOOP('',(#968,#969,#970,#971,#972,#973,#974));
#171=EDGE_LOOP('',(#975,#976,#977));
#172=EDGE_LOOP('',(#978,#979,#980,#981));
#173=EDGE_LOOP('',(#982,#983,#984,#985,#986,#987,#988));
#174=EDGE_LOOP('',(#989,#990));
#175=EDGE_LOOP('',(#991));
#176=EDGE_LOOP('',(#992,#993,#994,#995,#996,#997,#998));
#177=EDGE_LOOP('',(#999,#1000,#1001,#1002,#1003));
#178=EDGE_LOOP('',(#1004,#1005,#1006,#1007,#1008));
#179=EDGE_LOOP('',(#1009,#1010,#1011,#1012));
#180=EDGE_LOOP('',(#1013,#1014,#1015,#1016));
#181=EDGE_LOOP('',(#1017,#1018,#1019));
#182=EDGE_LOOP('',(#1020,#1021,#1022,#1023));
#183=EDGE_LOOP('',(#1024,#1025,#1026));
#184=EDGE_LOOP('',(#1027,#1028,#1029,#1030,#1031,#1032));
#185=EDGE_LOOP('',(#1033,#1034));
#186=EDGE_LOOP('',(#1035,#1036,#1037));
#187=EDGE_LOOP('',(#1038,#1039,#1040,#1041));
#188=EDGE_LOOP('',(#1042,#1043,#1044));
#189=EDGE_LOOP('',(#1045,#1046,#1047,#1048,#1049,#1050));
#190=EDGE_LOOP('',(#1051,#1052));
#191=EDGE_LOOP('',(#1053,#1054,#1055,#1056));
#192=EDGE_LOOP('',(#1057,#1058,#1059,#1060));
#193=EDGE_LOOP('',(#1061,#1062,#1063,#1064));
#194=EDGE_LOOP('',(#1065,#1066,#1067,#1068));
#195=EDGE_LOOP('',(#1069,#1070,#1071,#1072));
#196=EDGE_LOOP('',(#1073,#1074,#1075,#1076,#1077));
#197=EDGE_LOOP('',(#1078,#1079));
#198=EDGE_LOOP('',(#1080,#1081,#1082,#1083,#1084,#1085,#1086,#1087,#1088,
#1089,#1090,#1091,#1092,#1093));
#199=EDGE_LOOP('',(#1094,#1095,#1096,#1097,#1098,#1099,#1100,#1101));
#200=EDGE_LOOP('',(#1102,#1103,#1104,#1105));
#201=EDGE_LOOP('',(#1106,#1107,#1108,#1109));
#202=EDGE_LOOP('',(#1110,#1111,#1112,#1113,#1114,#1115,#1116,#1117,#1118,
#1119,#1120,#1121));
#203=EDGE_LOOP('',(#1122,#1123,#1124,#1125));
#204=EDGE_LOOP('',(#1126,#1127,#1128,#1129,#1130,#1131,#1132,#1133,#1134,
#1135,#1136,#1137,#1138,#1139,#1140,#1141,#1142,#1143,#1144,#1145,#1146));
#205=EDGE_LOOP('',(#1147,#1148,#1149,#1150,#1151,#1152,#1153));
#206=LINE('',#1743,#346);
#207=LINE('',#1745,#347);
#208=LINE('',#1747,#348);
#209=LINE('',#1749,#349);
#210=LINE('',#1751,#350);
#211=LINE('',#1752,#351);
#212=LINE('',#1755,#352);
#213=LINE('',#1757,#353);
#214=LINE('',#1759,#354);
#215=LINE('',#1761,#355);
#216=LINE('',#1763,#356);
#217=LINE('',#1765,#357);
#218=LINE('',#1772,#358);
#219=LINE('',#1774,#359);
#220=LINE('',#1776,#360);
#221=LINE('',#1778,#361);
#222=LINE('',#1780,#362);
#223=LINE('',#1782,#363);
#224=LINE('',#1784,#364);
#225=LINE('',#1786,#365);
#226=LINE('',#1788,#366);
#227=LINE('',#1789,#367);
#228=LINE('',#1792,#368);
#229=LINE('',#1794,#369);
#230=LINE('',#1795,#370);
#231=LINE('',#1798,#371);
#232=LINE('',#1802,#372);
#233=LINE('',#1804,#373);
#234=LINE('',#1806,#374);
#235=LINE('',#1810,#375);
#236=LINE('',#1812,#376);
#237=LINE('',#1814,#377);
#238=LINE('',#1816,#378);
#239=LINE('',#1818,#379);
#240=LINE('',#1820,#380);
#241=LINE('',#1822,#381);
#242=LINE('',#1823,#382);
#243=LINE('',#1827,#383);
#244=LINE('',#1828,#384);
#245=LINE('',#1830,#385);
#246=LINE('',#1832,#386);
#247=LINE('',#1833,#387);
#248=LINE('',#1838,#388);
#249=LINE('',#1839,#389);
#250=LINE('',#1842,#390);
#251=LINE('',#1844,#391);
#252=LINE('',#1845,#392);
#253=LINE('',#1848,#393);
#254=LINE('',#1849,#394);
#255=LINE('',#1852,#395);
#256=LINE('',#1853,#396);
#257=LINE('',#1856,#397);
#258=LINE('',#1857,#398);
#259=LINE('',#1860,#399);
#260=LINE('',#1861,#400);
#261=LINE('',#1869,#401);
#262=LINE('',#1872,#402);
#263=LINE('',#1874,#403);
#264=LINE('',#1875,#404);
#265=LINE('',#1879,#405);
#266=LINE('',#1881,#406);
#267=LINE('',#1883,#407);
#268=LINE('',#1884,#408);
#269=LINE('',#1896,#409);
#270=LINE('',#1898,#410);
#271=LINE('',#1899,#411);
#272=LINE('',#1903,#412);
#273=LINE('',#1904,#413);
#274=LINE('',#1905,#414);
#275=LINE('',#1908,#415);
#276=LINE('',#1910,#416);
#277=LINE('',#1915,#417);
#278=LINE('',#1917,#418);
#279=LINE('',#1918,#419);
#280=LINE('',#1921,#420);
#281=LINE('',#1922,#421);
#282=LINE('',#1923,#422);
#283=LINE('',#1926,#423);
#284=LINE('',#1928,#424);
#285=LINE('',#1932,#425);
#286=LINE('',#1934,#426);
#287=LINE('',#1936,#427);
#288=LINE('',#1939,#428);
#289=LINE('',#1946,#429);
#290=LINE('',#1948,#430);
#291=LINE('',#1949,#431);
#292=LINE('',#1952,#432);
#293=LINE('',#1953,#433);
#294=LINE('',#1956,#434);
#295=LINE('',#1958,#435);
#296=LINE('',#1959,#436);
#297=LINE('',#1962,#437);
#298=LINE('',#1966,#438);
#299=LINE('',#1970,#439);
#300=LINE('',#1972,#440);
#301=LINE('',#1973,#441);
#302=LINE('',#1974,#442);
#303=LINE('',#1980,#443);
#304=LINE('',#1988,#444);
#305=LINE('',#1996,#445);
#306=LINE('',#1998,#446);
#307=LINE('',#2000,#447);
#308=LINE('',#2002,#448);
#309=LINE('',#2003,#449);
#310=LINE('',#2009,#450);
#311=LINE('',#2015,#451);
#312=LINE('',#2031,#452);
#313=LINE('',#2033,#453);
#314=LINE('',#2034,#454);
#315=LINE('',#2040,#455);
#316=LINE('',#2043,#456);
#317=LINE('',#2044,#457);
#318=LINE('',#2046,#458);
#319=LINE('',#2047,#459);
#320=LINE('',#2051,#460);
#321=LINE('',#2053,#461);
#322=LINE('',#2054,#462);
#323=LINE('',#2060,#463);
#324=LINE('',#2063,#464);
#325=LINE('',#2064,#465);
#326=LINE('',#2066,#466);
#327=LINE('',#2067,#467);
#328=LINE('',#2071,#468);
#329=LINE('',#2073,#469);
#330=LINE('',#2074,#470);
#331=LINE('',#2077,#471);
#332=LINE('',#2079,#472);
#333=LINE('',#2080,#473);
#334=LINE('',#2082,#474);
#335=LINE('',#2085,#475);
#336=LINE('',#2086,#476);
#337=LINE('',#2088,#477);
#338=LINE('',#2091,#478);
#339=LINE('',#2093,#479);
#340=LINE('',#2094,#480);
#341=LINE('',#2096,#481);
#342=LINE('',#2098,#482);
#343=LINE('',#2100,#483);
#344=LINE('',#2102,#484);
#345=LINE('',#2104,#485);
#346=VECTOR('',#1393,10.);
#347=VECTOR('',#1394,10.);
#348=VECTOR('',#1395,10.);
#349=VECTOR('',#1396,10.);
#350=VECTOR('',#1397,10.);
#351=VECTOR('',#1398,10.);
#352=VECTOR('',#1401,10.);
#353=VECTOR('',#1402,10.);
#354=VECTOR('',#1403,10.);
#355=VECTOR('',#1404,10.);
#356=VECTOR('',#1405,10.);
#357=VECTOR('',#1406,10.);
#358=VECTOR('',#1413,10.);
#359=VECTOR('',#1414,10.);
#360=VECTOR('',#1415,10.);
#361=VECTOR('',#1416,10.);
#362=VECTOR('',#1417,10.);
#363=VECTOR('',#1418,10.);
#364=VECTOR('',#1419,10.);
#365=VECTOR('',#1420,10.);
#366=VECTOR('',#1421,10.);
#367=VECTOR('',#1422,10.);
#368=VECTOR('',#1425,10.);
#369=VECTOR('',#1426,10.);
#370=VECTOR('',#1427,10.);
#371=VECTOR('',#1430,10.);
#372=VECTOR('',#1433,10.);
#373=VECTOR('',#1434,10.);
#374=VECTOR('',#1435,10.);
#375=VECTOR('',#1438,10.);
#376=VECTOR('',#1439,10.);
#377=VECTOR('',#1440,10.);
#378=VECTOR('',#1441,10.);
#379=VECTOR('',#1442,10.);
#380=VECTOR('',#1443,10.);
#381=VECTOR('',#1444,10.);
#382=VECTOR('',#1445,10.);
#383=VECTOR('',#1448,10.);
#384=VECTOR('',#1449,10.);
#385=VECTOR('',#1450,10.);
#386=VECTOR('',#1451,10.);
#387=VECTOR('',#1452,10.);
#388=VECTOR('',#1457,10.);
#389=VECTOR('',#1458,10.);
#390=VECTOR('',#1461,10.);
#391=VECTOR('',#1462,10.);
#392=VECTOR('',#1463,10.);
#393=VECTOR('',#1466,10.);
#394=VECTOR('',#1467,10.);
#395=VECTOR('',#1470,10.);
#396=VECTOR('',#1471,10.);
#397=VECTOR('',#1474,10.);
#398=VECTOR('',#1475,10.);
#399=VECTOR('',#1478,10.);
#400=VECTOR('',#1479,10.);
#401=VECTOR('',#1494,10.);
#402=VECTOR('',#1497,10.);
#403=VECTOR('',#1498,10.);
#404=VECTOR('',#1499,10.);
#405=VECTOR('',#1502,10.);
#406=VECTOR('',#1503,10.);
#407=VECTOR('',#1504,10.);
#408=VECTOR('',#1505,10.);
#409=VECTOR('',#1522,10.);
#410=VECTOR('',#1523,10.);
#411=VECTOR('',#1524,10.);
#412=VECTOR('',#1527,10.);
#413=VECTOR('',#1528,10.);
#414=VECTOR('',#1529,10.);
#415=VECTOR('',#1532,10.);
#416=VECTOR('',#1533,10.);
#417=VECTOR('',#1538,10.);
#418=VECTOR('',#1539,10.);
#419=VECTOR('',#1540,10.);
#420=VECTOR('',#1543,10.);
#421=VECTOR('',#1544,10.);
#422=VECTOR('',#1545,10.);
#423=VECTOR('',#1548,10.);
#424=VECTOR('',#1549,10.);
#425=VECTOR('',#1552,10.);
#426=VECTOR('',#1553,10.);
#427=VECTOR('',#1554,10.);
#428=VECTOR('',#1557,10.);
#429=VECTOR('',#1564,10.);
#430=VECTOR('',#1565,10.);
#431=VECTOR('',#1566,10.);
#432=VECTOR('',#1569,10.);
#433=VECTOR('',#1570,10.);
#434=VECTOR('',#1573,10.);
#435=VECTOR('',#1574,10.);
#436=VECTOR('',#1575,10.);
#437=VECTOR('',#1578,10.);
#438=VECTOR('',#1581,10.);
#439=VECTOR('',#1586,10.);
#440=VECTOR('',#1587,10.);
#441=VECTOR('',#1588,10.);
#442=VECTOR('',#1589,10.);
#443=VECTOR('',#1598,1.);
#444=VECTOR('',#1605,1.75);
#445=VECTOR('',#1616,10.);
#446=VECTOR('',#1617,10.);
#447=VECTOR('',#1618,10.);
#448=VECTOR('',#1619,10.);
#449=VECTOR('',#1620,10.);
#450=VECTOR('',#1627,1.6);
#451=VECTOR('',#1634,1.6);
#452=VECTOR('',#1653,10.);
#453=VECTOR('',#1654,10.);
#454=VECTOR('',#1655,10.);
#455=VECTOR('',#1662,10.);
#456=VECTOR('',#1665,10.);
#457=VECTOR('',#1666,10.);
#458=VECTOR('',#1669,10.);
#459=VECTOR('',#1670,10.);
#460=VECTOR('',#1673,10.);
#461=VECTOR('',#1674,10.);
#462=VECTOR('',#1675,10.);
#463=VECTOR('',#1682,10.);
#464=VECTOR('',#1685,10.);
#465=VECTOR('',#1686,10.);
#466=VECTOR('',#1689,10.);
#467=VECTOR('',#1690,10.);
#468=VECTOR('',#1695,10.);
#469=VECTOR('',#1696,10.);
#470=VECTOR('',#1697,10.);
#471=VECTOR('',#1700,10.);
#472=VECTOR('',#1701,10.);
#473=VECTOR('',#1702,10.);
#474=VECTOR('',#1705,10.);
#475=VECTOR('',#1708,10.);
#476=VECTOR('',#1709,10.);
#477=VECTOR('',#1712,10.);
#478=VECTOR('',#1717,10.);
#479=VECTOR('',#1720,10.);
#480=VECTOR('',#1721,10.);
#481=VECTOR('',#1724,10.);
#482=VECTOR('',#1727,10.);
#483=VECTOR('',#1730,10.);
#484=VECTOR('',#1733,10.);
#485=VECTOR('',#1736,10.);
#486=VERTEX_POINT('',#1741);
#487=VERTEX_POINT('',#1742);
#488=VERTEX_POINT('',#1744);
#489=VERTEX_POINT('',#1746);
#490=VERTEX_POINT('',#1748);
#491=VERTEX_POINT('',#1750);
#492=VERTEX_POINT('',#1754);
#493=VERTEX_POINT('',#1756);
#494=VERTEX_POINT('',#1758);
#495=VERTEX_POINT('',#1760);
#496=VERTEX_POINT('',#1762);
#497=VERTEX_POINT('',#1764);
#498=VERTEX_POINT('',#1767);
#499=VERTEX_POINT('',#1770);
#500=VERTEX_POINT('',#1771);
#501=VERTEX_POINT('',#1773);
#502=VERTEX_POINT('',#1775);
#503=VERTEX_POINT('',#1777);
#504=VERTEX_POINT('',#1779);
#505=VERTEX_POINT('',#1781);
#506=VERTEX_POINT('',#1783);
#507=VERTEX_POINT('',#1785);
#508=VERTEX_POINT('',#1787);
#509=VERTEX_POINT('',#1791);
#510=VERTEX_POINT('',#1793);
#511=VERTEX_POINT('',#1797);
#512=VERTEX_POINT('',#1799);
#513=VERTEX_POINT('',#1801);
#514=VERTEX_POINT('',#1803);
#515=VERTEX_POINT('',#1805);
#516=VERTEX_POINT('',#1807);
#517=VERTEX_POINT('',#1809);
#518=VERTEX_POINT('',#1811);
#519=VERTEX_POINT('',#1813);
#520=VERTEX_POINT('',#1815);
#521=VERTEX_POINT('',#1817);
#522=VERTEX_POINT('',#1819);
#523=VERTEX_POINT('',#1821);
#524=VERTEX_POINT('',#1825);
#525=VERTEX_POINT('',#1826);
#526=VERTEX_POINT('',#1829);
#527=VERTEX_POINT('',#1831);
#528=VERTEX_POINT('',#1835);
#529=VERTEX_POINT('',#1837);
#530=VERTEX_POINT('',#1841);
#531=VERTEX_POINT('',#1843);
#532=VERTEX_POINT('',#1847);
#533=VERTEX_POINT('',#1851);
#534=VERTEX_POINT('',#1855);
#535=VERTEX_POINT('',#1859);
#536=VERTEX_POINT('',#1871);
#537=VERTEX_POINT('',#1873);
#538=VERTEX_POINT('',#1877);
#539=VERTEX_POINT('',#1878);
#540=VERTEX_POINT('',#1880);
#541=VERTEX_POINT('',#1882);
#542=VERTEX_POINT('',#1886);
#543=VERTEX_POINT('',#1891);
#544=VERTEX_POINT('',#1895);
#545=VERTEX_POINT('',#1897);
#546=VERTEX_POINT('',#1901);
#547=VERTEX_POINT('',#1902);
#548=VERTEX_POINT('',#1907);
#549=VERTEX_POINT('',#1909);
#550=VERTEX_POINT('',#1911);
#551=VERTEX_POINT('',#1913);
#552=VERTEX_POINT('',#1916);
#553=VERTEX_POINT('',#1920);
#554=VERTEX_POINT('',#1925);
#555=VERTEX_POINT('',#1927);
#556=VERTEX_POINT('',#1929);
#557=VERTEX_POINT('',#1931);
#558=VERTEX_POINT('',#1933);
#559=VERTEX_POINT('',#1935);
#560=VERTEX_POINT('',#1937);
#561=VERTEX_POINT('',#1940);
#562=VERTEX_POINT('',#1942);
#563=VERTEX_POINT('',#1945);
#564=VERTEX_POINT('',#1947);
#565=VERTEX_POINT('',#1951);
#566=VERTEX_POINT('',#1955);
#567=VERTEX_POINT('',#1957);
#568=VERTEX_POINT('',#1961);
#569=VERTEX_POINT('',#1963);
#570=VERTEX_POINT('',#1965);
#571=VERTEX_POINT('',#1969);
#572=VERTEX_POINT('',#1971);
#573=VERTEX_POINT('',#1978);
#574=VERTEX_POINT('',#1982);
#575=VERTEX_POINT('',#1983);
#576=VERTEX_POINT('',#1985);
#577=VERTEX_POINT('',#1987);
#578=VERTEX_POINT('',#1989);
#579=VERTEX_POINT('',#1995);
#580=VERTEX_POINT('',#1997);
#581=VERTEX_POINT('',#1999);
#582=VERTEX_POINT('',#2001);
#583=VERTEX_POINT('',#2005);
#584=VERTEX_POINT('',#2006);
#585=VERTEX_POINT('',#2011);
#586=VERTEX_POINT('',#2012);
#587=VERTEX_POINT('',#2017);
#588=VERTEX_POINT('',#2019);
#589=VERTEX_POINT('',#2023);
#590=VERTEX_POINT('',#2025);
#591=VERTEX_POINT('',#2029);
#592=VERTEX_POINT('',#2030);
#593=VERTEX_POINT('',#2032);
#594=VERTEX_POINT('',#2036);
#595=VERTEX_POINT('',#2038);
#596=VERTEX_POINT('',#2042);
#597=VERTEX_POINT('',#2049);
#598=VERTEX_POINT('',#2050);
#599=VERTEX_POINT('',#2052);
#600=VERTEX_POINT('',#2056);
#601=VERTEX_POINT('',#2058);
#602=VERTEX_POINT('',#2062);
#603=VERTEX_POINT('',#2070);
#604=VERTEX_POINT('',#2072);
#605=VERTEX_POINT('',#2076);
#606=VERTEX_POINT('',#2078);
#607=VERTEX_POINT('',#2084);
#608=EDGE_CURVE('',#486,#487,#206,.T.);
#609=EDGE_CURVE('',#488,#486,#207,.T.);
#610=EDGE_CURVE('',#489,#488,#208,.T.);
#611=EDGE_CURVE('',#489,#490,#209,.T.);
#612=EDGE_CURVE('',#490,#491,#210,.T.);
#613=EDGE_CURVE('',#487,#491,#211,.T.);
#614=EDGE_CURVE('',#492,#488,#212,.T.);
#615=EDGE_CURVE('',#493,#492,#213,.T.);
#616=EDGE_CURVE('',#493,#494,#214,.T.);
#617=EDGE_CURVE('',#495,#494,#215,.T.);
#618=EDGE_CURVE('',#496,#495,#216,.T.);
#619=EDGE_CURVE('',#496,#497,#217,.T.);
#620=EDGE_CURVE('',#497,#489,#52,.T.);
#621=EDGE_CURVE('',#498,#498,#53,.T.);
#622=EDGE_CURVE('',#499,#500,#218,.T.);
#623=EDGE_CURVE('',#499,#501,#219,.T.);
#624=EDGE_CURVE('',#501,#502,#220,.T.);
#625=EDGE_CURVE('',#502,#503,#221,.T.);
#626=EDGE_CURVE('',#503,#504,#222,.T.);
#627=EDGE_CURVE('',#505,#504,#223,.T.);
#628=EDGE_CURVE('',#505,#506,#224,.T.);
#629=EDGE_CURVE('',#506,#507,#225,.T.);
#630=EDGE_CURVE('',#508,#507,#226,.T.);
#631=EDGE_CURVE('',#508,#500,#227,.T.);
#632=EDGE_CURVE('',#492,#509,#228,.F.);
#633=EDGE_CURVE('',#510,#509,#229,.T.);
#634=EDGE_CURVE('',#493,#510,#230,.T.);
#635=EDGE_CURVE('',#486,#511,#231,.T.);
#636=EDGE_CURVE('',#511,#512,#54,.T.);
#637=EDGE_CURVE('',#512,#513,#232,.T.);
#638=EDGE_CURVE('',#514,#513,#233,.F.);
#639=EDGE_CURVE('',#514,#515,#234,.T.);
#640=EDGE_CURVE('',#515,#516,#55,.T.);
#641=EDGE_CURVE('',#516,#517,#235,.T.);
#642=EDGE_CURVE('',#518,#517,#236,.T.);
#643=EDGE_CURVE('',#519,#518,#237,.F.);
#644=EDGE_CURVE('',#520,#519,#238,.T.);
#645=EDGE_CURVE('',#520,#521,#239,.T.);
#646=EDGE_CURVE('',#522,#521,#240,.F.);
#647=EDGE_CURVE('',#523,#522,#241,.F.);
#648=EDGE_CURVE('',#509,#523,#242,.T.);
#649=EDGE_CURVE('',#524,#525,#243,.T.);
#650=EDGE_CURVE('',#525,#514,#244,.T.);
#651=EDGE_CURVE('',#513,#526,#245,.F.);
#652=EDGE_CURVE('',#526,#527,#246,.T.);
#653=EDGE_CURVE('',#524,#527,#247,.T.);
#654=EDGE_CURVE('',#528,#516,#28,.T.);
#655=EDGE_CURVE('',#529,#528,#248,.T.);
#656=EDGE_CURVE('',#517,#529,#249,.T.);
#657=EDGE_CURVE('',#530,#518,#250,.T.);
#658=EDGE_CURVE('',#530,#531,#251,.T.);
#659=EDGE_CURVE('',#531,#519,#252,.F.);
#660=EDGE_CURVE('',#520,#532,#253,.F.);
#661=EDGE_CURVE('',#532,#531,#254,.T.);
#662=EDGE_CURVE('',#521,#533,#255,.T.);
#663=EDGE_CURVE('',#533,#532,#256,.T.);
#664=EDGE_CURVE('',#534,#533,#257,.T.);
#665=EDGE_CURVE('',#534,#522,#258,.T.);
#666=EDGE_CURVE('',#535,#534,#259,.T.);
#667=EDGE_CURVE('',#535,#523,#260,.F.);
#668=EDGE_CURVE('',#526,#512,#29,.T.);
#669=EDGE_CURVE('',#515,#525,#30,.T.);
#670=EDGE_CURVE('',#524,#528,#56,.T.);
#671=EDGE_CURVE('',#510,#535,#261,.T.);
#672=EDGE_CURVE('',#536,#497,#262,.T.);
#673=EDGE_CURVE('',#537,#496,#263,.T.);
#674=EDGE_CURVE('',#537,#536,#264,.T.);
#675=EDGE_CURVE('',#538,#539,#265,.T.);
#676=EDGE_CURVE('',#540,#538,#266,.T.);
#677=EDGE_CURVE('',#541,#540,#267,.T.);
#678=EDGE_CURVE('',#541,#539,#268,.F.);
#679=EDGE_CURVE('',#542,#511,#31,.T.);
#680=EDGE_CURVE('',#527,#542,#57,.T.);
#681=EDGE_CURVE('',#490,#491,#58,.T.);
#682=EDGE_CURVE('',#536,#543,#32,.T.);
#683=EDGE_CURVE('',#543,#487,#33,.T.);
#684=EDGE_CURVE('',#544,#537,#269,.T.);
#685=EDGE_CURVE('',#545,#544,#270,.T.);
#686=EDGE_CURVE('',#543,#545,#271,.T.);
#687=EDGE_CURVE('',#546,#547,#272,.T.);
#688=EDGE_CURVE('',#546,#545,#273,.F.);
#689=EDGE_CURVE('',#547,#544,#274,.T.);
#690=EDGE_CURVE('',#548,#546,#275,.T.);
#691=EDGE_CURVE('',#549,#548,#276,.T.);
#692=EDGE_CURVE('',#550,#549,#34,.T.);
#693=EDGE_CURVE('',#551,#550,#35,.T.);
#694=EDGE_CURVE('',#539,#551,#277,.T.);
#695=EDGE_CURVE('',#552,#541,#278,.T.);
#696=EDGE_CURVE('',#542,#552,#279,.T.);
#697=EDGE_CURVE('',#529,#553,#280,.T.);
#698=EDGE_CURVE('',#507,#553,#281,.T.);
#699=EDGE_CURVE('',#518,#506,#282,.T.);
#700=EDGE_CURVE('',#554,#552,#283,.T.);
#701=EDGE_CURVE('',#555,#554,#284,.T.);
#702=EDGE_CURVE('',#556,#555,#59,.T.);
#703=EDGE_CURVE('',#557,#556,#285,.T.);
#704=EDGE_CURVE('',#558,#557,#286,.T.);
#705=EDGE_CURVE('',#559,#558,#287,.T.);
#706=EDGE_CURVE('',#560,#559,#60,.T.);
#707=EDGE_CURVE('',#553,#560,#288,.T.);
#708=EDGE_CURVE('',#561,#561,#61,.T.);
#709=EDGE_CURVE('',#562,#562,#62,.T.);
#710=EDGE_CURVE('',#563,#540,#289,.T.);
#711=EDGE_CURVE('',#564,#563,#290,.T.);
#712=EDGE_CURVE('',#554,#564,#291,.T.);
#713=EDGE_CURVE('',#538,#565,#292,.T.);
#714=EDGE_CURVE('',#563,#565,#293,.T.);
#715=EDGE_CURVE('',#566,#551,#294,.T.);
#716=EDGE_CURVE('',#567,#566,#295,.T.);
#717=EDGE_CURVE('',#565,#567,#296,.T.);
#718=EDGE_CURVE('',#550,#568,#297,.T.);
#719=EDGE_CURVE('',#568,#569,#63,.T.);
#720=EDGE_CURVE('',#570,#569,#298,.T.);
#721=EDGE_CURVE('',#566,#570,#36,.T.);
#722=EDGE_CURVE('',#571,#547,#299,.T.);
#723=EDGE_CURVE('',#572,#571,#300,.T.);
#724=EDGE_CURVE('',#570,#572,#301,.T.);
#725=EDGE_CURVE('',#569,#548,#302,.T.);
#726=EDGE_CURVE('',#549,#568,#64,.T.);
#727=EDGE_CURVE('',#573,#573,#65,.T.);
#728=EDGE_CURVE('',#573,#498,#303,.T.);
#729=EDGE_CURVE('',#574,#575,#37,.T.);
#730=EDGE_CURVE('',#576,#574,#38,.T.);
#731=EDGE_CURVE('',#576,#577,#304,.T.);
#732=EDGE_CURVE('',#578,#577,#66,.T.);
#733=EDGE_CURVE('',#577,#578,#67,.T.);
#734=EDGE_CURVE('',#575,#576,#39,.T.);
#735=EDGE_CURVE('',#574,#579,#305,.T.);
#736=EDGE_CURVE('',#579,#580,#306,.T.);
#737=EDGE_CURVE('',#580,#581,#307,.T.);
#738=EDGE_CURVE('',#581,#582,#308,.T.);
#739=EDGE_CURVE('',#582,#575,#309,.T.);
#740=EDGE_CURVE('',#583,#584,#68,.T.);
#741=EDGE_CURVE('',#584,#583,#69,.T.);
#742=EDGE_CURVE('',#584,#562,#310,.T.);
#743=EDGE_CURVE('',#585,#586,#70,.T.);
#744=EDGE_CURVE('',#586,#585,#71,.T.);
#745=EDGE_CURVE('',#586,#561,#311,.T.);
#746=EDGE_CURVE('',#560,#587,#40,.T.);
#747=EDGE_CURVE('',#588,#559,#41,.T.);
#748=EDGE_CURVE('',#588,#587,#72,.T.);
#749=EDGE_CURVE('',#556,#589,#42,.T.);
#750=EDGE_CURVE('',#590,#555,#43,.T.);
#751=EDGE_CURVE('',#590,#589,#73,.T.);
#752=EDGE_CURVE('',#591,#592,#312,.T.);
#753=EDGE_CURVE('',#591,#593,#313,.T.);
#754=EDGE_CURVE('',#592,#593,#314,.T.);
#755=EDGE_CURVE('',#592,#594,#44,.T.);
#756=EDGE_CURVE('',#593,#595,#74,.T.);
#757=EDGE_CURVE('',#594,#595,#315,.T.);
#758=EDGE_CURVE('',#594,#596,#316,.T.);
#759=EDGE_CURVE('',#595,#596,#317,.T.);
#760=EDGE_CURVE('',#589,#591,#318,.T.);
#761=EDGE_CURVE('',#596,#590,#319,.T.);
#762=EDGE_CURVE('',#597,#598,#320,.T.);
#763=EDGE_CURVE('',#597,#599,#321,.T.);
#764=EDGE_CURVE('',#598,#599,#322,.T.);
#765=EDGE_CURVE('',#598,#600,#45,.T.);
#766=EDGE_CURVE('',#599,#601,#75,.T.);
#767=EDGE_CURVE('',#600,#601,#323,.T.);
#768=EDGE_CURVE('',#600,#602,#324,.T.);
#769=EDGE_CURVE('',#601,#602,#325,.T.);
#770=EDGE_CURVE('',#587,#597,#326,.T.);
#771=EDGE_CURVE('',#602,#588,#327,.T.);
#772=EDGE_CURVE('',#603,#503,#328,.T.);
#773=EDGE_CURVE('',#604,#502,#329,.T.);
#774=EDGE_CURVE('',#604,#603,#330,.T.);
#775=EDGE_CURVE('',#504,#605,#331,.T.);
#776=EDGE_CURVE('',#606,#605,#332,.T.);
#777=EDGE_CURVE('',#505,#606,#333,.T.);
#778=EDGE_CURVE('',#605,#603,#334,.T.);
#779=EDGE_CURVE('',#607,#501,#335,.T.);
#780=EDGE_CURVE('',#607,#604,#336,.T.);
#781=EDGE_CURVE('',#606,#530,#337,.T.);
#782=EDGE_CURVE('',#494,#607,#338,.T.);
#783=EDGE_CURVE('',#581,#495,#339,.T.);
#784=EDGE_CURVE('',#571,#580,#340,.T.);
#785=EDGE_CURVE('',#564,#567,#341,.T.);
#786=EDGE_CURVE('',#572,#579,#342,.T.);
#787=EDGE_CURVE('',#558,#508,#343,.T.);
#788=EDGE_CURVE('',#500,#557,#344,.T.);
#789=EDGE_CURVE('',#582,#499,#345,.T.);
#790=ORIENTED_EDGE('',*,*,#608,.F.);
#791=ORIENTED_EDGE('',*,*,#609,.F.);
#792=ORIENTED_EDGE('',*,*,#610,.F.);
#793=ORIENTED_EDGE('',*,*,#611,.T.);
#794=ORIENTED_EDGE('',*,*,#612,.T.);
#795=ORIENTED_EDGE('',*,*,#613,.F.);
#796=ORIENTED_EDGE('',*,*,#610,.T.);
#797=ORIENTED_EDGE('',*,*,#614,.F.);
#798=ORIENTED_EDGE('',*,*,#615,.F.);
#799=ORIENTED_EDGE('',*,*,#616,.T.);
#800=ORIENTED_EDGE('',*,*,#617,.F.);
#801=ORIENTED_EDGE('',*,*,#618,.F.);
#802=ORIENTED_EDGE('',*,*,#619,.T.);
#803=ORIENTED_EDGE('',*,*,#620,.T.);
#804=ORIENTED_EDGE('',*,*,#621,.T.);
#805=ORIENTED_EDGE('',*,*,#622,.F.);
#806=ORIENTED_EDGE('',*,*,#623,.T.);
#807=ORIENTED_EDGE('',*,*,#624,.T.);
#808=ORIENTED_EDGE('',*,*,#625,.T.);
#809=ORIENTED_EDGE('',*,*,#626,.T.);
#810=ORIENTED_EDGE('',*,*,#627,.F.);
#811=ORIENTED_EDGE('',*,*,#628,.T.);
#812=ORIENTED_EDGE('',*,*,#629,.T.);
#813=ORIENTED_EDGE('',*,*,#630,.F.);
#814=ORIENTED_EDGE('',*,*,#631,.T.);
#815=ORIENTED_EDGE('',*,*,#615,.T.);
#816=ORIENTED_EDGE('',*,*,#632,.T.);
#817=ORIENTED_EDGE('',*,*,#633,.F.);
#818=ORIENTED_EDGE('',*,*,#634,.F.);
#819=ORIENTED_EDGE('',*,*,#614,.T.);
#820=ORIENTED_EDGE('',*,*,#609,.T.);
#821=ORIENTED_EDGE('',*,*,#635,.T.);
#822=ORIENTED_EDGE('',*,*,#636,.T.);
#823=ORIENTED_EDGE('',*,*,#637,.T.);
#824=ORIENTED_EDGE('',*,*,#638,.F.);
#825=ORIENTED_EDGE('',*,*,#639,.T.);
#826=ORIENTED_EDGE('',*,*,#640,.T.);
#827=ORIENTED_EDGE('',*,*,#641,.T.);
#828=ORIENTED_EDGE('',*,*,#642,.F.);
#829=ORIENTED_EDGE('',*,*,#643,.F.);
#830=ORIENTED_EDGE('',*,*,#644,.F.);
#831=ORIENTED_EDGE('',*,*,#645,.T.);
#832=ORIENTED_EDGE('',*,*,#646,.F.);
#833=ORIENTED_EDGE('',*,*,#647,.F.);
#834=ORIENTED_EDGE('',*,*,#648,.F.);
#835=ORIENTED_EDGE('',*,*,#632,.F.);
#836=ORIENTED_EDGE('',*,*,#649,.T.);
#837=ORIENTED_EDGE('',*,*,#650,.T.);
#838=ORIENTED_EDGE('',*,*,#638,.T.);
#839=ORIENTED_EDGE('',*,*,#651,.T.);
#840=ORIENTED_EDGE('',*,*,#652,.T.);
#841=ORIENTED_EDGE('',*,*,#653,.F.);
#842=ORIENTED_EDGE('',*,*,#654,.F.);
#843=ORIENTED_EDGE('',*,*,#655,.F.);
#844=ORIENTED_EDGE('',*,*,#656,.F.);
#845=ORIENTED_EDGE('',*,*,#641,.F.);
#846=ORIENTED_EDGE('',*,*,#657,.F.);
#847=ORIENTED_EDGE('',*,*,#658,.T.);
#848=ORIENTED_EDGE('',*,*,#659,.T.);
#849=ORIENTED_EDGE('',*,*,#643,.T.);
#850=ORIENTED_EDGE('',*,*,#660,.F.);
#851=ORIENTED_EDGE('',*,*,#644,.T.);
#852=ORIENTED_EDGE('',*,*,#659,.F.);
#853=ORIENTED_EDGE('',*,*,#661,.F.);
#854=ORIENTED_EDGE('',*,*,#662,.F.);
#855=ORIENTED_EDGE('',*,*,#645,.F.);
#856=ORIENTED_EDGE('',*,*,#660,.T.);
#857=ORIENTED_EDGE('',*,*,#663,.F.);
#858=ORIENTED_EDGE('',*,*,#662,.T.);
#859=ORIENTED_EDGE('',*,*,#664,.F.);
#860=ORIENTED_EDGE('',*,*,#665,.T.);
#861=ORIENTED_EDGE('',*,*,#646,.T.);
#862=ORIENTED_EDGE('',*,*,#665,.F.);
#863=ORIENTED_EDGE('',*,*,#666,.F.);
#864=ORIENTED_EDGE('',*,*,#667,.T.);
#865=ORIENTED_EDGE('',*,*,#647,.T.);
#866=ORIENTED_EDGE('',*,*,#651,.F.);
#867=ORIENTED_EDGE('',*,*,#637,.F.);
#868=ORIENTED_EDGE('',*,*,#668,.F.);
#869=ORIENTED_EDGE('',*,*,#639,.F.);
#870=ORIENTED_EDGE('',*,*,#650,.F.);
#871=ORIENTED_EDGE('',*,*,#669,.F.);
#872=ORIENTED_EDGE('',*,*,#640,.F.);
#873=ORIENTED_EDGE('',*,*,#669,.T.);
#874=ORIENTED_EDGE('',*,*,#649,.F.);
#875=ORIENTED_EDGE('',*,*,#670,.T.);
#876=ORIENTED_EDGE('',*,*,#654,.T.);
#877=ORIENTED_EDGE('',*,*,#667,.F.);
#878=ORIENTED_EDGE('',*,*,#671,.F.);
#879=ORIENTED_EDGE('',*,*,#633,.T.);
#880=ORIENTED_EDGE('',*,*,#648,.T.);
#881=ORIENTED_EDGE('',*,*,#672,.T.);
#882=ORIENTED_EDGE('',*,*,#619,.F.);
#883=ORIENTED_EDGE('',*,*,#673,.F.);
#884=ORIENTED_EDGE('',*,*,#674,.T.);
#885=ORIENTED_EDGE('',*,*,#675,.F.);
#886=ORIENTED_EDGE('',*,*,#676,.F.);
#887=ORIENTED_EDGE('',*,*,#677,.F.);
#888=ORIENTED_EDGE('',*,*,#678,.T.);
#889=ORIENTED_EDGE('',*,*,#636,.F.);
#890=ORIENTED_EDGE('',*,*,#679,.F.);
#891=ORIENTED_EDGE('',*,*,#680,.F.);
#892=ORIENTED_EDGE('',*,*,#652,.F.);
#893=ORIENTED_EDGE('',*,*,#668,.T.);
#894=ORIENTED_EDGE('',*,*,#613,.T.);
#895=ORIENTED_EDGE('',*,*,#681,.F.);
#896=ORIENTED_EDGE('',*,*,#611,.F.);
#897=ORIENTED_EDGE('',*,*,#620,.F.);
#898=ORIENTED_EDGE('',*,*,#672,.F.);
#899=ORIENTED_EDGE('',*,*,#682,.T.);
#900=ORIENTED_EDGE('',*,*,#683,.T.);
#901=ORIENTED_EDGE('',*,*,#674,.F.);
#902=ORIENTED_EDGE('',*,*,#684,.F.);
#903=ORIENTED_EDGE('',*,*,#685,.F.);
#904=ORIENTED_EDGE('',*,*,#686,.F.);
#905=ORIENTED_EDGE('',*,*,#682,.F.);
#906=ORIENTED_EDGE('',*,*,#687,.F.);
#907=ORIENTED_EDGE('',*,*,#688,.T.);
#908=ORIENTED_EDGE('',*,*,#685,.T.);
#909=ORIENTED_EDGE('',*,*,#689,.F.);
#910=ORIENTED_EDGE('',*,*,#608,.T.);
#911=ORIENTED_EDGE('',*,*,#683,.F.);
#912=ORIENTED_EDGE('',*,*,#686,.T.);
#913=ORIENTED_EDGE('',*,*,#688,.F.);
#914=ORIENTED_EDGE('',*,*,#690,.F.);
#915=ORIENTED_EDGE('',*,*,#691,.F.);
#916=ORIENTED_EDGE('',*,*,#692,.F.);
#917=ORIENTED_EDGE('',*,*,#693,.F.);
#918=ORIENTED_EDGE('',*,*,#694,.F.);
#919=ORIENTED_EDGE('',*,*,#678,.F.);
#920=ORIENTED_EDGE('',*,*,#695,.F.);
#921=ORIENTED_EDGE('',*,*,#696,.F.);
#922=ORIENTED_EDGE('',*,*,#679,.T.);
#923=ORIENTED_EDGE('',*,*,#635,.F.);
#924=ORIENTED_EDGE('',*,*,#642,.T.);
#925=ORIENTED_EDGE('',*,*,#656,.T.);
#926=ORIENTED_EDGE('',*,*,#697,.T.);
#927=ORIENTED_EDGE('',*,*,#698,.F.);
#928=ORIENTED_EDGE('',*,*,#629,.F.);
#929=ORIENTED_EDGE('',*,*,#699,.F.);
#930=ORIENTED_EDGE('',*,*,#655,.T.);
#931=ORIENTED_EDGE('',*,*,#670,.F.);
#932=ORIENTED_EDGE('',*,*,#653,.T.);
#933=ORIENTED_EDGE('',*,*,#680,.T.);
#934=ORIENTED_EDGE('',*,*,#696,.T.);
#935=ORIENTED_EDGE('',*,*,#700,.F.);
#936=ORIENTED_EDGE('',*,*,#701,.F.);
#937=ORIENTED_EDGE('',*,*,#702,.F.);
#938=ORIENTED_EDGE('',*,*,#703,.F.);
#939=ORIENTED_EDGE('',*,*,#704,.F.);
#940=ORIENTED_EDGE('',*,*,#705,.F.);
#941=ORIENTED_EDGE('',*,*,#706,.F.);
#942=ORIENTED_EDGE('',*,*,#707,.F.);
#943=ORIENTED_EDGE('',*,*,#697,.F.);
#944=ORIENTED_EDGE('',*,*,#708,.T.);
#945=ORIENTED_EDGE('',*,*,#709,.T.);
#946=ORIENTED_EDGE('',*,*,#695,.T.);
#947=ORIENTED_EDGE('',*,*,#677,.T.);
#948=ORIENTED_EDGE('',*,*,#710,.F.);
#949=ORIENTED_EDGE('',*,*,#711,.F.);
#950=ORIENTED_EDGE('',*,*,#712,.F.);
#951=ORIENTED_EDGE('',*,*,#700,.T.);
#952=ORIENTED_EDGE('',*,*,#676,.T.);
#953=ORIENTED_EDGE('',*,*,#713,.T.);
#954=ORIENTED_EDGE('',*,*,#714,.F.);
#955=ORIENTED_EDGE('',*,*,#710,.T.);
#956=ORIENTED_EDGE('',*,*,#675,.T.);
#957=ORIENTED_EDGE('',*,*,#694,.T.);
#958=ORIENTED_EDGE('',*,*,#715,.F.);
#959=ORIENTED_EDGE('',*,*,#716,.F.);
#960=ORIENTED_EDGE('',*,*,#717,.F.);
#961=ORIENTED_EDGE('',*,*,#713,.F.);
#962=ORIENTED_EDGE('',*,*,#693,.T.);
#963=ORIENTED_EDGE('',*,*,#718,.T.);
#964=ORIENTED_EDGE('',*,*,#719,.T.);
#965=ORIENTED_EDGE('',*,*,#720,.F.);
#966=ORIENTED_EDGE('',*,*,#721,.F.);
#967=ORIENTED_EDGE('',*,*,#715,.T.);
#968=ORIENTED_EDGE('',*,*,#690,.T.);
#969=ORIENTED_EDGE('',*,*,#687,.T.);
#970=ORIENTED_EDGE('',*,*,#722,.F.);
#971=ORIENTED_EDGE('',*,*,#723,.F.);
#972=ORIENTED_EDGE('',*,*,#724,.F.);
#973=ORIENTED_EDGE('',*,*,#720,.T.);
#974=ORIENTED_EDGE('',*,*,#725,.T.);
#975=ORIENTED_EDGE('',*,*,#692,.T.);
#976=ORIENTED_EDGE('',*,*,#726,.T.);
#977=ORIENTED_EDGE('',*,*,#718,.F.);
#978=ORIENTED_EDGE('',*,*,#727,.F.);
#979=ORIENTED_EDGE('',*,*,#728,.T.);
#980=ORIENTED_EDGE('',*,*,#621,.F.);
#981=ORIENTED_EDGE('',*,*,#728,.F.);
#982=ORIENTED_EDGE('',*,*,#729,.F.);
#983=ORIENTED_EDGE('',*,*,#730,.F.);
#984=ORIENTED_EDGE('',*,*,#731,.T.);
#985=ORIENTED_EDGE('',*,*,#732,.F.);
#986=ORIENTED_EDGE('',*,*,#733,.F.);
#987=ORIENTED_EDGE('',*,*,#731,.F.);
#988=ORIENTED_EDGE('',*,*,#734,.F.);
#989=ORIENTED_EDGE('',*,*,#732,.T.);
#990=ORIENTED_EDGE('',*,*,#733,.T.);
#991=ORIENTED_EDGE('',*,*,#727,.T.);
#992=ORIENTED_EDGE('',*,*,#734,.T.);
#993=ORIENTED_EDGE('',*,*,#730,.T.);
#994=ORIENTED_EDGE('',*,*,#735,.T.);
#995=ORIENTED_EDGE('',*,*,#736,.T.);
#996=ORIENTED_EDGE('',*,*,#737,.T.);
#997=ORIENTED_EDGE('',*,*,#738,.T.);
#998=ORIENTED_EDGE('',*,*,#739,.T.);
#999=ORIENTED_EDGE('',*,*,#740,.F.);
#1000=ORIENTED_EDGE('',*,*,#741,.F.);
#1001=ORIENTED_EDGE('',*,*,#742,.T.);
#1002=ORIENTED_EDGE('',*,*,#709,.F.);
#1003=ORIENTED_EDGE('',*,*,#742,.F.);
#1004=ORIENTED_EDGE('',*,*,#743,.F.);
#1005=ORIENTED_EDGE('',*,*,#744,.F.);
#1006=ORIENTED_EDGE('',*,*,#745,.T.);
#1007=ORIENTED_EDGE('',*,*,#708,.F.);
#1008=ORIENTED_EDGE('',*,*,#745,.F.);
#1009=ORIENTED_EDGE('',*,*,#746,.F.);
#1010=ORIENTED_EDGE('',*,*,#706,.T.);
#1011=ORIENTED_EDGE('',*,*,#747,.F.);
#1012=ORIENTED_EDGE('',*,*,#748,.T.);
#1013=ORIENTED_EDGE('',*,*,#749,.F.);
#1014=ORIENTED_EDGE('',*,*,#702,.T.);
#1015=ORIENTED_EDGE('',*,*,#750,.F.);
#1016=ORIENTED_EDGE('',*,*,#751,.T.);
#1017=ORIENTED_EDGE('',*,*,#752,.F.);
#1018=ORIENTED_EDGE('',*,*,#753,.T.);
#1019=ORIENTED_EDGE('',*,*,#754,.F.);
#1020=ORIENTED_EDGE('',*,*,#755,.F.);
#1021=ORIENTED_EDGE('',*,*,#754,.T.);
#1022=ORIENTED_EDGE('',*,*,#756,.T.);
#1023=ORIENTED_EDGE('',*,*,#757,.F.);
#1024=ORIENTED_EDGE('',*,*,#758,.F.);
#1025=ORIENTED_EDGE('',*,*,#757,.T.);
#1026=ORIENTED_EDGE('',*,*,#759,.T.);
#1027=ORIENTED_EDGE('',*,*,#753,.F.);
#1028=ORIENTED_EDGE('',*,*,#760,.F.);
#1029=ORIENTED_EDGE('',*,*,#751,.F.);
#1030=ORIENTED_EDGE('',*,*,#761,.F.);
#1031=ORIENTED_EDGE('',*,*,#759,.F.);
#1032=ORIENTED_EDGE('',*,*,#756,.F.);
#1033=ORIENTED_EDGE('',*,*,#743,.T.);
#1034=ORIENTED_EDGE('',*,*,#744,.T.);
#1035=ORIENTED_EDGE('',*,*,#762,.F.);
#1036=ORIENTED_EDGE('',*,*,#763,.T.);
#1037=ORIENTED_EDGE('',*,*,#764,.F.);
#1038=ORIENTED_EDGE('',*,*,#765,.F.);
#1039=ORIENTED_EDGE('',*,*,#764,.T.);
#1040=ORIENTED_EDGE('',*,*,#766,.T.);
#1041=ORIENTED_EDGE('',*,*,#767,.F.);
#1042=ORIENTED_EDGE('',*,*,#768,.F.);
#1043=ORIENTED_EDGE('',*,*,#767,.T.);
#1044=ORIENTED_EDGE('',*,*,#769,.T.);
#1045=ORIENTED_EDGE('',*,*,#763,.F.);
#1046=ORIENTED_EDGE('',*,*,#770,.F.);
#1047=ORIENTED_EDGE('',*,*,#748,.F.);
#1048=ORIENTED_EDGE('',*,*,#771,.F.);
#1049=ORIENTED_EDGE('',*,*,#769,.F.);
#1050=ORIENTED_EDGE('',*,*,#766,.F.);
#1051=ORIENTED_EDGE('',*,*,#740,.T.);
#1052=ORIENTED_EDGE('',*,*,#741,.T.);
#1053=ORIENTED_EDGE('',*,*,#691,.T.);
#1054=ORIENTED_EDGE('',*,*,#725,.F.);
#1055=ORIENTED_EDGE('',*,*,#719,.F.);
#1056=ORIENTED_EDGE('',*,*,#726,.F.);
#1057=ORIENTED_EDGE('',*,*,#772,.T.);
#1058=ORIENTED_EDGE('',*,*,#625,.F.);
#1059=ORIENTED_EDGE('',*,*,#773,.F.);
#1060=ORIENTED_EDGE('',*,*,#774,.T.);
#1061=ORIENTED_EDGE('',*,*,#775,.T.);
#1062=ORIENTED_EDGE('',*,*,#776,.F.);
#1063=ORIENTED_EDGE('',*,*,#777,.F.);
#1064=ORIENTED_EDGE('',*,*,#627,.T.);
#1065=ORIENTED_EDGE('',*,*,#775,.F.);
#1066=ORIENTED_EDGE('',*,*,#626,.F.);
#1067=ORIENTED_EDGE('',*,*,#772,.F.);
#1068=ORIENTED_EDGE('',*,*,#778,.F.);
#1069=ORIENTED_EDGE('',*,*,#773,.T.);
#1070=ORIENTED_EDGE('',*,*,#624,.F.);
#1071=ORIENTED_EDGE('',*,*,#779,.F.);
#1072=ORIENTED_EDGE('',*,*,#780,.T.);
#1073=ORIENTED_EDGE('',*,*,#777,.T.);
#1074=ORIENTED_EDGE('',*,*,#781,.T.);
#1075=ORIENTED_EDGE('',*,*,#657,.T.);
#1076=ORIENTED_EDGE('',*,*,#699,.T.);
#1077=ORIENTED_EDGE('',*,*,#628,.F.);
#1078=ORIENTED_EDGE('',*,*,#681,.T.);
#1079=ORIENTED_EDGE('',*,*,#612,.F.);
#1080=ORIENTED_EDGE('',*,*,#661,.T.);
#1081=ORIENTED_EDGE('',*,*,#658,.F.);
#1082=ORIENTED_EDGE('',*,*,#781,.F.);
#1083=ORIENTED_EDGE('',*,*,#776,.T.);
#1084=ORIENTED_EDGE('',*,*,#778,.T.);
#1085=ORIENTED_EDGE('',*,*,#774,.F.);
#1086=ORIENTED_EDGE('',*,*,#780,.F.);
#1087=ORIENTED_EDGE('',*,*,#782,.F.);
#1088=ORIENTED_EDGE('',*,*,#616,.F.);
#1089=ORIENTED_EDGE('',*,*,#634,.T.);
#1090=ORIENTED_EDGE('',*,*,#671,.T.);
#1091=ORIENTED_EDGE('',*,*,#666,.T.);
#1092=ORIENTED_EDGE('',*,*,#664,.T.);
#1093=ORIENTED_EDGE('',*,*,#663,.T.);
#1094=ORIENTED_EDGE('',*,*,#673,.T.);
#1095=ORIENTED_EDGE('',*,*,#618,.T.);
#1096=ORIENTED_EDGE('',*,*,#783,.F.);
#1097=ORIENTED_EDGE('',*,*,#737,.F.);
#1098=ORIENTED_EDGE('',*,*,#784,.F.);
#1099=ORIENTED_EDGE('',*,*,#722,.T.);
#1100=ORIENTED_EDGE('',*,*,#689,.T.);
#1101=ORIENTED_EDGE('',*,*,#684,.T.);
#1102=ORIENTED_EDGE('',*,*,#717,.T.);
#1103=ORIENTED_EDGE('',*,*,#785,.F.);
#1104=ORIENTED_EDGE('',*,*,#711,.T.);
#1105=ORIENTED_EDGE('',*,*,#714,.T.);
#1106=ORIENTED_EDGE('',*,*,#723,.T.);
#1107=ORIENTED_EDGE('',*,*,#784,.T.);
#1108=ORIENTED_EDGE('',*,*,#736,.F.);
#1109=ORIENTED_EDGE('',*,*,#786,.F.);
#1110=ORIENTED_EDGE('',*,*,#746,.T.);
#1111=ORIENTED_EDGE('',*,*,#770,.T.);
#1112=ORIENTED_EDGE('',*,*,#762,.T.);
#1113=ORIENTED_EDGE('',*,*,#765,.T.);
#1114=ORIENTED_EDGE('',*,*,#768,.T.);
#1115=ORIENTED_EDGE('',*,*,#771,.T.);
#1116=ORIENTED_EDGE('',*,*,#747,.T.);
#1117=ORIENTED_EDGE('',*,*,#705,.T.);
#1118=ORIENTED_EDGE('',*,*,#787,.T.);
#1119=ORIENTED_EDGE('',*,*,#630,.T.);
#1120=ORIENTED_EDGE('',*,*,#698,.T.);
#1121=ORIENTED_EDGE('',*,*,#707,.T.);
#1122=ORIENTED_EDGE('',*,*,#704,.T.);
#1123=ORIENTED_EDGE('',*,*,#788,.F.);
#1124=ORIENTED_EDGE('',*,*,#631,.F.);
#1125=ORIENTED_EDGE('',*,*,#787,.F.);
#1126=ORIENTED_EDGE('',*,*,#622,.T.);
#1127=ORIENTED_EDGE('',*,*,#788,.T.);
#1128=ORIENTED_EDGE('',*,*,#703,.T.);
#1129=ORIENTED_EDGE('',*,*,#749,.T.);
#1130=ORIENTED_EDGE('',*,*,#760,.T.);
#1131=ORIENTED_EDGE('',*,*,#752,.T.);
#1132=ORIENTED_EDGE('',*,*,#755,.T.);
#1133=ORIENTED_EDGE('',*,*,#758,.T.);
#1134=ORIENTED_EDGE('',*,*,#761,.T.);
#1135=ORIENTED_EDGE('',*,*,#750,.T.);
#1136=ORIENTED_EDGE('',*,*,#701,.T.);
#1137=ORIENTED_EDGE('',*,*,#712,.T.);
#1138=ORIENTED_EDGE('',*,*,#785,.T.);
#1139=ORIENTED_EDGE('',*,*,#716,.T.);
#1140=ORIENTED_EDGE('',*,*,#721,.T.);
#1141=ORIENTED_EDGE('',*,*,#724,.T.);
#1142=ORIENTED_EDGE('',*,*,#786,.T.);
#1143=ORIENTED_EDGE('',*,*,#735,.F.);
#1144=ORIENTED_EDGE('',*,*,#729,.T.);
#1145=ORIENTED_EDGE('',*,*,#739,.F.);
#1146=ORIENTED_EDGE('',*,*,#789,.T.);
#1147=ORIENTED_EDGE('',*,*,#782,.T.);
#1148=ORIENTED_EDGE('',*,*,#779,.T.);
#1149=ORIENTED_EDGE('',*,*,#623,.F.);
#1150=ORIENTED_EDGE('',*,*,#789,.F.);
#1151=ORIENTED_EDGE('',*,*,#738,.F.);
#1152=ORIENTED_EDGE('',*,*,#783,.T.);
#1153=ORIENTED_EDGE('',*,*,#617,.T.);
#1154=PLANE('',#1285);
#1155=PLANE('',#1286);
#1156=PLANE('',#1289);
#1157=PLANE('',#1290);
#1158=PLANE('',#1291);
#1159=PLANE('',#1294);
#1160=PLANE('',#1295);
#1161=PLANE('',#1297);
#1162=PLANE('',#1298);
#1163=PLANE('',#1299);
#1164=PLANE('',#1300);
#1165=PLANE('',#1301);
#1166=PLANE('',#1302);
#1167=PLANE('',#1304);
#1168=PLANE('',#1308);
#1169=PLANE('',#1309);
#1170=PLANE('',#1310);
#1171=PLANE('',#1318);
#1172=PLANE('',#1319);
#1173=PLANE('',#1320);
#1174=PLANE('',#1323);
#1175=PLANE('',#1324);
#1176=PLANE('',#1329);
#1177=PLANE('',#1330);
#1178=PLANE('',#1331);
#1179=PLANE('',#1335);
#1180=PLANE('',#1346);
#1181=PLANE('',#1347);
#1182=PLANE('',#1362);
#1183=PLANE('',#1366);
#1184=PLANE('',#1367);
#1185=PLANE('',#1368);
#1186=PLANE('',#1372);
#1187=PLANE('',#1373);
#1188=PLANE('',#1374);
#1189=PLANE('',#1375);
#1190=PLANE('',#1376);
#1191=PLANE('',#1377);
#1192=PLANE('',#1378);
#1193=PLANE('',#1379);
#1194=PLANE('',#1380);
#1195=PLANE('',#1381);
#1196=PLANE('',#1382);
#1197=PLANE('',#1383);
#1198=PLANE('',#1384);
#1199=PLANE('',#1385);
#1200=PLANE('',#1386);
#1201=PLANE('',#1387);
#1202=PLANE('',#1388);
#1203=ADVANCED_FACE('',(#76),#1154,.T.);
#1204=ADVANCED_FACE('',(#77,#46),#1155,.T.);
#1205=ADVANCED_FACE('',(#78),#1156,.T.);
#1206=ADVANCED_FACE('',(#79),#1157,.F.);
#1207=ADVANCED_FACE('',(#80),#1158,.F.);
#1208=ADVANCED_FACE('',(#81),#1159,.F.);
#1209=ADVANCED_FACE('',(#82),#1160,.F.);
#1210=ADVANCED_FACE('',(#83),#1161,.T.);
#1211=ADVANCED_FACE('',(#84),#1162,.T.);
#1212=ADVANCED_FACE('',(#85),#1163,.F.);
#1213=ADVANCED_FACE('',(#86),#1164,.F.);
#1214=ADVANCED_FACE('',(#87),#1165,.F.);
#1215=ADVANCED_FACE('',(#88),#1166,.F.);
#1216=ADVANCED_FACE('',(#89),#1167,.F.);
#1217=ADVANCED_FACE('',(#90),#15,.T.);
#1218=ADVANCED_FACE('',(#91),#1168,.T.);
#1219=ADVANCED_FACE('',(#92),#1169,.F.);
#1220=ADVANCED_FACE('',(#93),#1170,.F.);
#1221=ADVANCED_FACE('',(#94),#16,.T.);
#1222=ADVANCED_FACE('',(#95),#17,.T.);
#1223=ADVANCED_FACE('',(#96),#1171,.F.);
#1224=ADVANCED_FACE('',(#97),#1172,.F.);
#1225=ADVANCED_FACE('',(#98),#1173,.F.);
#1226=ADVANCED_FACE('',(#99),#1174,.F.);
#1227=ADVANCED_FACE('',(#100,#47,#48),#1175,.F.);
#1228=ADVANCED_FACE('',(#101),#1176,.F.);
#1229=ADVANCED_FACE('',(#102),#1177,.F.);
#1230=ADVANCED_FACE('',(#103),#1178,.F.);
#1231=ADVANCED_FACE('',(#104),#18,.F.);
#1232=ADVANCED_FACE('',(#105),#1179,.F.);
#1233=ADVANCED_FACE('',(#106),#19,.F.);
#1234=ADVANCED_FACE('',(#107),#20,.F.);
#1235=ADVANCED_FACE('',(#108),#21,.F.);
#1236=ADVANCED_FACE('',(#109,#49),#1180,.T.);
#1237=ADVANCED_FACE('',(#110),#1181,.T.);
#1238=ADVANCED_FACE('',(#111),#22,.F.);
#1239=ADVANCED_FACE('',(#112),#23,.F.);
#1240=ADVANCED_FACE('',(#113),#24,.T.);
#1241=ADVANCED_FACE('',(#114),#25,.T.);
#1242=ADVANCED_FACE('',(#115),#1182,.F.);
#1243=ADVANCED_FACE('',(#116),#26,.F.);
#1244=ADVANCED_FACE('',(#117),#1183,.F.);
#1245=ADVANCED_FACE('',(#118,#50),#1184,.T.);
#1246=ADVANCED_FACE('',(#119),#1185,.F.);
#1247=ADVANCED_FACE('',(#120),#27,.F.);
#1248=ADVANCED_FACE('',(#121),#1186,.F.);
#1249=ADVANCED_FACE('',(#122,#51),#1187,.T.);
#1250=ADVANCED_FACE('',(#123),#1188,.T.);
#1251=ADVANCED_FACE('',(#124),#1189,.T.);
#1252=ADVANCED_FACE('',(#125),#1190,.T.);
#1253=ADVANCED_FACE('',(#126),#1191,.T.);
#1254=ADVANCED_FACE('',(#127),#1192,.F.);
#1255=ADVANCED_FACE('',(#128),#1193,.F.);
#1256=ADVANCED_FACE('',(#129),#1194,.F.);
#1257=ADVANCED_FACE('',(#130),#1195,.F.);
#1258=ADVANCED_FACE('',(#131),#1196,.F.);
#1259=ADVANCED_FACE('',(#132),#1197,.T.);
#1260=ADVANCED_FACE('',(#133),#1198,.T.);
#1261=ADVANCED_FACE('',(#134),#1199,.T.);
#1262=ADVANCED_FACE('',(#135),#1200,.T.);
#1263=ADVANCED_FACE('',(#136),#1201,.T.);
#1264=ADVANCED_FACE('',(#137),#1202,.T.);
#1265=CLOSED_SHELL('',(#1203,#1204,#1205,#1206,#1207,#1208,#1209,#1210,
#1211,#1212,#1213,#1214,#1215,#1216,#1217,#1218,#1219,#1220,#1221,#1222,
#1223,#1224,#1225,#1226,#1227,#1228,#1229,#1230,#1231,#1232,#1233,#1234,
#1235,#1236,#1237,#1238,#1239,#1240,#1241,#1242,#1243,#1244,#1245,#1246,
#1247,#1248,#1249,#1250,#1251,#1252,#1253,#1254,#1255,#1256,#1257,#1258,
#1259,#1260,#1261,#1262,#1263,#1264));
#1266=DERIVED_UNIT_ELEMENT(#1268,1.);
#1267=DERIVED_UNIT_ELEMENT(#2111,3.);
#1268=(
MASS_UNIT()
NAMED_UNIT(*)
SI_UNIT($,.GRAM.)
);
#1269=DERIVED_UNIT((#1266,#1267));
#1270=MEASURE_REPRESENTATION_ITEM('density measure',
POSITIVE_RATIO_MEASURE(1.06),#1269);
#1271=PROPERTY_DEFINITION_REPRESENTATION(#1276,#1273);
#1272=PROPERTY_DEFINITION_REPRESENTATION(#1277,#1274);
#1273=REPRESENTATION('material name',(#1275),#2108);
#1274=REPRESENTATION('density',(#1270),#2108);
#1275=DESCRIPTIVE_REPRESENTATION_ITEM('ABS Plastic','ABS Plastic');
#1276=PROPERTY_DEFINITION('material property','material name',#2118);
#1277=PROPERTY_DEFINITION('material property','density of part',#2118);
#1278=DATE_TIME_ROLE('creation_date');
#1279=APPLIED_DATE_AND_TIME_ASSIGNMENT(#1280,#1278,(#2118));
#1280=DATE_AND_TIME(#1281,#1282);
#1281=CALENDAR_DATE(2018,2,5);
#1282=LOCAL_TIME(2,30,59.,#1283);
#1283=COORDINATED_UNIVERSAL_TIME_OFFSET(0,0,.BEHIND.);
#1284=AXIS2_PLACEMENT_3D('placement',#1739,#1389,#1390);
#1285=AXIS2_PLACEMENT_3D('',#1740,#1391,#1392);
#1286=AXIS2_PLACEMENT_3D('',#1753,#1399,#1400);
#1287=AXIS2_PLACEMENT_3D('',#1766,#1407,#1408);
#1288=AXIS2_PLACEMENT_3D('',#1768,#1409,#1410);
#1289=AXIS2_PLACEMENT_3D('',#1769,#1411,#1412);
#1290=AXIS2_PLACEMENT_3D('',#1790,#1423,#1424);
#1291=AXIS2_PLACEMENT_3D('',#1796,#1428,#1429);
#1292=AXIS2_PLACEMENT_3D('',#1800,#1431,#1432);
#1293=AXIS2_PLACEMENT_3D('',#1808,#1436,#1437);
#1294=AXIS2_PLACEMENT_3D('',#1824,#1446,#1447);
#1295=AXIS2_PLACEMENT_3D('',#1834,#1453,#1454);
#1296=AXIS2_PLACEMENT_3D('',#1836,#1455,#1456);
#1297=AXIS2_PLACEMENT_3D('',#1840,#1459,#1460);
#1298=AXIS2_PLACEMENT_3D('',#1846,#1464,#1465);
#1299=AXIS2_PLACEMENT_3D('',#1850,#1468,#1469);
#1300=AXIS2_PLACEMENT_3D('',#1854,#1472,#1473);
#1301=AXIS2_PLACEMENT_3D('',#1858,#1476,#1477);
#1302=AXIS2_PLACEMENT_3D('',#1862,#1480,#1481);
#1303=AXIS2_PLACEMENT_3D('',#1863,#1482,#1483);
#1304=AXIS2_PLACEMENT_3D('',#1864,#1484,#1485);
#1305=AXIS2_PLACEMENT_3D('',#1865,#1486,#1487);
#1306=AXIS2_PLACEMENT_3D('',#1866,#1488,#1489);
#1307=AXIS2_PLACEMENT_3D('',#1867,#1490,#1491);
#1308=AXIS2_PLACEMENT_3D('',#1868,#1492,#1493);
#1309=AXIS2_PLACEMENT_3D('',#1870,#1495,#1496);
#1310=AXIS2_PLACEMENT_3D('',#1876,#1500,#1501);
#1311=AXIS2_PLACEMENT_3D('',#1885,#1506,#1507);
#1312=AXIS2_PLACEMENT_3D('',#1887,#1508,#1509);
#1313=AXIS2_PLACEMENT_3D('',#1888,#1510,#1511);
#1314=AXIS2_PLACEMENT_3D('',#1889,#1512,#1513);
#1315=AXIS2_PLACEMENT_3D('',#1890,#1514,#1515);
#1316=AXIS2_PLACEMENT_3D('',#1892,#1516,#1517);
#1317=AXIS2_PLACEMENT_3D('',#1893,#1518,#1519);
#1318=AXIS2_PLACEMENT_3D('',#1894,#1520,#1521);
#1319=AXIS2_PLACEMENT_3D('',#1900,#1525,#1526);
#1320=AXIS2_PLACEMENT_3D('',#1906,#1530,#1531);
#1321=AXIS2_PLACEMENT_3D('',#1912,#1534,#1535);
#1322=AXIS2_PLACEMENT_3D('',#1914,#1536,#1537);
#1323=AXIS2_PLACEMENT_3D('',#1919,#1541,#1542);
#1324=AXIS2_PLACEMENT_3D('',#1924,#1546,#1547);
#1325=AXIS2_PLACEMENT_3D('',#1930,#1550,#1551);
#1326=AXIS2_PLACEMENT_3D('',#1938,#1555,#1556);
#1327=AXIS2_PLACEMENT_3D('',#1941,#1558,#1559);
#1328=AXIS2_PLACEMENT_3D('',#1943,#1560,#1561);
#1329=AXIS2_PLACEMENT_3D('',#1944,#1562,#1563);
#1330=AXIS2_PLACEMENT_3D('',#1950,#1567,#1568);
#1331=AXIS2_PLACEMENT_3D('',#1954,#1571,#1572);
#1332=AXIS2_PLACEMENT_3D('',#1960,#1576,#1577);
#1333=AXIS2_PLACEMENT_3D('',#1964,#1579,#1580);
#1334=AXIS2_PLACEMENT_3D('',#1967,#1582,#1583);
#1335=AXIS2_PLACEMENT_3D('',#1968,#1584,#1585);
#1336=AXIS2_PLACEMENT_3D('',#1975,#1590,#1591);
#1337=AXIS2_PLACEMENT_3D('',#1976,#1592,#1593);
#1338=AXIS2_PLACEMENT_3D('',#1977,#1594,#1595);
#1339=AXIS2_PLACEMENT_3D('',#1979,#1596,#1597);
#1340=AXIS2_PLACEMENT_3D('',#1981,#1599,#1600);
#1341=AXIS2_PLACEMENT_3D('',#1984,#1601,#1602);
#1342=AXIS2_PLACEMENT_3D('',#1986,#1603,#1604);
#1343=AXIS2_PLACEMENT_3D('',#1990,#1606,#1607);
#1344=AXIS2_PLACEMENT_3D('',#1991,#1608,#1609);
#1345=AXIS2_PLACEMENT_3D('',#1992,#1610,#1611);
#1346=AXIS2_PLACEMENT_3D('',#1993,#1612,#1613);
#1347=AXIS2_PLACEMENT_3D('',#1994,#1614,#1615);
#1348=AXIS2_PLACEMENT_3D('',#2004,#1621,#1622);
#1349=AXIS2_PLACEMENT_3D('',#2007,#1623,#1624);
#1350=AXIS2_PLACEMENT_3D('',#2008,#1625,#1626);
#1351=AXIS2_PLACEMENT_3D('',#2010,#1628,#1629);
#1352=AXIS2_PLACEMENT_3D('',#2013,#1630,#1631);
#1353=AXIS2_PLACEMENT_3D('',#2014,#1632,#1633);
#1354=AXIS2_PLACEMENT_3D('',#2016,#1635,#1636);
#1355=AXIS2_PLACEMENT_3D('',#2018,#1637,#1638);
#1356=AXIS2_PLACEMENT_3D('',#2020,#1639,#1640);
#1357=AXIS2_PLACEMENT_3D('',#2021,#1641,#1642);
#1358=AXIS2_PLACEMENT_3D('',#2022,#1643,#1644);
#1359=AXIS2_PLACEMENT_3D('',#2024,#1645,#1646);
#1360=AXIS2_PLACEMENT_3D('',#2026,#1647,#1648);
#1361=AXIS2_PLACEMENT_3D('',#2027,#1649,#1650);
#1362=AXIS2_PLACEMENT_3D('',#2028,#1651,#1652);
#1363=AXIS2_PLACEMENT_3D('',#2035,#1656,#1657);
#1364=AXIS2_PLACEMENT_3D('',#2037,#1658,#1659);
#1365=AXIS2_PLACEMENT_3D('',#2039,#1660,#1661);
#1366=AXIS2_PLACEMENT_3D('',#2041,#1663,#1664);
#1367=AXIS2_PLACEMENT_3D('',#2045,#1667,#1668);
#1368=AXIS2_PLACEMENT_3D('',#2048,#1671,#1672);
#1369=AXIS2_PLACEMENT_3D('',#2055,#1676,#1677);
#1370=AXIS2_PLACEMENT_3D('',#2057,#1678,#1679);
#1371=AXIS2_PLACEMENT_3D('',#2059,#1680,#1681);
#1372=AXIS2_PLACEMENT_3D('',#2061,#1683,#1684);
#1373=AXIS2_PLACEMENT_3D('',#2065,#1687,#1688);
#1374=AXIS2_PLACEMENT_3D('',#2068,#1691,#1692);
#1375=AXIS2_PLACEMENT_3D('',#2069,#1693,#1694);
#1376=AXIS2_PLACEMENT_3D('',#2075,#1698,#1699);
#1377=AXIS2_PLACEMENT_3D('',#2081,#1703,#1704);
#1378=AXIS2_PLACEMENT_3D('',#2083,#1706,#1707);
#1379=AXIS2_PLACEMENT_3D('',#2087,#1710,#1711);
#1380=AXIS2_PLACEMENT_3D('',#2089,#1713,#1714);
#1381=AXIS2_PLACEMENT_3D('',#2090,#1715,#1716);
#1382=AXIS2_PLACEMENT_3D('',#2092,#1718,#1719);
#1383=AXIS2_PLACEMENT_3D('',#2095,#1722,#1723);
#1384=AXIS2_PLACEMENT_3D('',#2097,#1725,#1726);
#1385=AXIS2_PLACEMENT_3D('',#2099,#1728,#1729);
#1386=AXIS2_PLACEMENT_3D('',#2101,#1731,#1732);
#1387=AXIS2_PLACEMENT_3D('',#2103,#1734,#1735);
#1388=AXIS2_PLACEMENT_3D('',#2105,#1737,#1738);
#1389=DIRECTION('axis',(0.,0.,1.));
#1390=DIRECTION('refdir',(1.,0.,0.));
#1391=DIRECTION('center_axis',(-1.16194548816493E-15,1.,0.));
#1392=DIRECTION('ref_axis',(-1.,-1.16194548816493E-15,0.));
#1393=DIRECTION('',(-0.447213595499958,-5.19637819537193E-16,-0.894427190999916));
#1394=DIRECTION('',(-1.,-1.16194548816493E-15,0.));
#1395=DIRECTION('',(0.,0.,1.));
#1396=DIRECTION('',(-1.,-2.4616918506101E-16,-4.50402844998694E-32));
#1397=DIRECTION('',(0.,0.,1.));
#1398=DIRECTION('',(1.,2.4616918506101E-16,4.50402844998694E-32));
#1399=DIRECTION('center_axis',(1.,0.,0.));
#1400=DIRECTION('ref_axis',(0.,1.,0.));
#1401=DIRECTION('',(0.,1.,0.));
#1402=DIRECTION('',(0.,0.,1.));
#1403=DIRECTION('',(0.,-1.,0.));
#1404=DIRECTION('',(0.,0.,1.));
#1405=DIRECTION('',(0.,-1.,0.));
#1406=DIRECTION('',(0.,0.,1.));
#1407=DIRECTION('center_axis',(1.,0.,0.));
#1408=DIRECTION('ref_axis',(2.03854510171285E-16,-0.4406779661017,-0.897665266228158));
#1409=DIRECTION('center_axis',(-1.,0.,0.));
#1410=DIRECTION('ref_axis',(-5.91645678915759E-31,2.22044604925031E-15,
1.));
#1411=DIRECTION('center_axis',(0.,0.,1.));
#1412=DIRECTION('ref_axis',(1.,0.,0.));
#1413=DIRECTION('',(-2.4616918506101E-16,1.,0.));
#1414=DIRECTION('',(1.,1.81260901979617E-16,0.));
#1415=DIRECTION('',(-2.01858731750028E-16,1.,0.));
#1416=DIRECTION('',(1.,2.30178937267541E-16,0.));
#1417=DIRECTION('',(-4.92338370122021E-16,1.,0.));
#1418=DIRECTION('',(1.,2.30178937267541E-16,0.));
#1419=DIRECTION('',(-2.01858731750028E-16,1.,0.));
#1420=DIRECTION('',(1.,0.,0.));
#1421=DIRECTION('',(4.92338370122021E-16,-1.,0.));
#1422=DIRECTION('',(-1.,0.,0.));
#1423=DIRECTION('center_axis',(1.81260901979617E-16,-1.,0.));
#1424=DIRECTION('ref_axis',(1.,1.81260901979617E-16,0.));
#1425=DIRECTION('',(-1.,-1.81260901979617E-16,0.));
#1426=DIRECTION('',(0.,0.,1.));
#1427=DIRECTION('',(1.,1.81260901979617E-16,0.));
#1428=DIRECTION('center_axis',(0.,0.,1.));
#1429=DIRECTION('ref_axis',(1.,0.,0.));
#1430=DIRECTION('',(-2.4616918506101E-16,1.,0.));
#1431=DIRECTION('center_axis',(0.,0.,1.));
#1432=DIRECTION('ref_axis',(0.,-1.,0.));
#1433=DIRECTION('',(-2.4616918506101E-16,1.,0.));
#1434=DIRECTION('',(1.,0.,0.));
#1435=DIRECTION('',(4.92338370122021E-16,-1.,0.));
#1436=DIRECTION('center_axis',(0.,0.,1.));
#1437=DIRECTION('ref_axis',(0.,1.,0.));
#1438=DIRECTION('',(4.92338370122021E-16,-1.,0.));
#1439=DIRECTION('',(1.,0.,0.));
#1440=DIRECTION('',(-1.,0.,0.));
#1441=DIRECTION('',(-2.01858731750028E-16,1.,0.));
#1442=DIRECTION('',(1.,2.30178937267541E-16,0.));
#1443=DIRECTION('',(4.92338370122021E-16,-1.,0.));
#1444=DIRECTION('',(-1.,-2.30178937267541E-16,0.));
#1445=DIRECTION('',(-2.01858731750028E-16,1.,0.));
#1446=DIRECTION('center_axis',(0.,1.,0.));
#1447=DIRECTION('ref_axis',(-1.,0.,0.));
#1448=DIRECTION('',(0.,0.,1.));
#1449=DIRECTION('',(-0.447213595499958,0.,0.894427190999916));
#1450=DIRECTION('',(0.447213595499958,0.,0.894427190999916));
#1451=DIRECTION('',(0.,0.,-1.));
#1452=DIRECTION('',(-1.,0.,0.));
#1453=DIRECTION('center_axis',(0.894427190999916,4.40360825409716E-16,0.447213595499958));
#1454=DIRECTION('ref_axis',(0.447213595499958,0.,-0.894427190999916));
#1455=DIRECTION('center_axis',(-0.894427190999916,-4.40360825409716E-16,
-0.447213595499958));
#1456=DIRECTION('ref_axis',(0.447213595499958,0.,-0.894427190999916));
#1457=DIRECTION('',(-4.92338370122021E-16,1.,0.));
#1458=DIRECTION('',(0.447213595499958,0.,-0.894427190999916));
#1459=DIRECTION('center_axis',(0.,1.,0.));
#1460=DIRECTION('ref_axis',(-1.,0.,0.));
#1461=DIRECTION('',(0.,0.,1.));
#1462=DIRECTION('',(-1.,0.,0.));
#1463=DIRECTION('',(0.,0.,-1.));
#1464=DIRECTION('center_axis',(-1.,-2.01858731750028E-16,0.));
#1465=DIRECTION('ref_axis',(2.01858731750028E-16,-1.,0.));
#1466=DIRECTION('',(0.,0.,1.));
#1467=DIRECTION('',(-2.01858731750028E-16,1.,0.));
#1468=DIRECTION('center_axis',(-2.30178937267541E-16,1.,0.));
#1469=DIRECTION('ref_axis',(0.,0.,1.));
#1470=DIRECTION('',(0.447213595499958,1.02939150143776E-16,-0.894427190999916));
#1471=DIRECTION('',(-1.,-2.30178937267541E-16,0.));
#1472=DIRECTION('center_axis',(0.894427190999916,4.40360825409716E-16,0.447213595499958));
#1473=DIRECTION('ref_axis',(0.447213595499958,0.,-0.894427190999916));
#1474=DIRECTION('',(-4.92338370122021E-16,1.,0.));
#1475=DIRECTION('',(-0.447213595499958,-1.02939150143776E-16,0.894427190999916));
#1476=DIRECTION('center_axis',(2.30178937267541E-16,-1.,0.));
#1477=DIRECTION('ref_axis',(0.,0.,-1.));
#1478=DIRECTION('',(1.,2.30178937267541E-16,0.));
#1479=DIRECTION('',(0.,0.,-1.));
#1480=DIRECTION('center_axis',(-0.894427190999916,-2.20180412704858E-16,
0.447213595499958));
#1481=DIRECTION('ref_axis',(0.447213595499958,0.,0.894427190999916));
#1482=DIRECTION('center_axis',(0.894427190999916,2.20180412704858E-16,-0.447213595499958));
#1483=DIRECTION('ref_axis',(-0.447213595499958,0.,-0.894427190999916));
#1484=DIRECTION('center_axis',(0.894427190999916,4.40360825409716E-16,0.447213595499958));
#1485=DIRECTION('ref_axis',(0.447213595499958,0.,-0.894427190999916));
#1486=DIRECTION('center_axis',(-0.894427190999916,-4.40360825409716E-16,
-0.447213595499958));
#1487=DIRECTION('ref_axis',(0.447213595499958,0.,-0.894427190999916));
#1488=DIRECTION('center_axis',(0.,0.,-1.));
#1489=DIRECTION('ref_axis',(-0.975025753925978,-0.2220918260114,0.));
#1490=DIRECTION('center_axis',(0.,0.,1.));
#1491=DIRECTION('ref_axis',(-0.00794266988098051,0.999968456500085,0.));
#1492=DIRECTION('center_axis',(-1.,-2.01858731750028E-16,0.));
#1493=DIRECTION('ref_axis',(2.01858731750028E-16,-1.,0.));
#1494=DIRECTION('',(-2.01858731750028E-16,1.,0.));
#1495=DIRECTION('center_axis',(1.81260901979617E-16,-1.,0.));
#1496=DIRECTION('ref_axis',(1.,1.81260901979617E-16,0.));
#1497=DIRECTION('',(1.,4.62592926927141E-16,0.));
#1498=DIRECTION('',(1.,1.81260901979617E-16,0.));
#1499=DIRECTION('',(0.,0.,1.));
#1500=DIRECTION('center_axis',(-1.,-2.4616918506101E-16,0.));
#1501=DIRECTION('ref_axis',(2.4616918506101E-16,-1.,0.));
#1502=DIRECTION('',(-5.46605394415889E-31,2.22044604925031E-15,1.));
#1503=DIRECTION('',(2.4616918506101E-16,-1.,0.));
#1504=DIRECTION('',(0.,0.,-1.));
#1505=DIRECTION('',(-2.4616918506101E-16,1.,0.));
#1506=DIRECTION('center_axis',(0.,0.,-1.));
#1507=DIRECTION('ref_axis',(0.,-1.,0.));
#1508=DIRECTION('center_axis',(-0.894427190999916,-2.20180412704858E-16,
0.447213595499958));
#1509=DIRECTION('ref_axis',(0.447213595499958,8.86619340445454E-17,0.894427190999916));
#1510=DIRECTION('center_axis',(0.,0.,-1.));
#1511=DIRECTION('ref_axis',(0.425917709999962,0.904761904761904,0.));
#1512=DIRECTION('center_axis',(-1.,-2.4616918506101E-16,-4.50402844998694E-32));
#1513=DIRECTION('ref_axis',(-2.03078602795068E-16,0.824955417327062,-0.565197805571406));
#1514=DIRECTION('center_axis',(1.,1.15648231731787E-16,0.));
#1515=DIRECTION('ref_axis',(-5.91645678915759E-31,2.22044604925031E-15,
1.));
#1516=DIRECTION('center_axis',(0.707106781186547,0.707106781186548,0.));
#1517=DIRECTION('ref_axis',(-0.707106781186548,0.707106781186547,-1.57009245868377E-15));
#1518=DIRECTION('center_axis',(0.894427190999916,2.20180412704858E-16,-0.447213595499958));
#1519=DIRECTION('ref_axis',(0.447213595499958,2.09611752895025E-15,0.894427190999916));
#1520=DIRECTION('center_axis',(-0.707106781186547,-0.707106781186548,0.));
#1521=DIRECTION('ref_axis',(0.,0.,1.));
#1522=DIRECTION('',(0.707106781186548,-0.707106781186547,0.));
#1523=DIRECTION('',(0.,0.,-1.));
#1524=DIRECTION('',(-0.408248290463863,0.408248290463862,-0.816496580927726));
#1525=DIRECTION('center_axis',(-1.,-2.4616918506101E-16,0.));
#1526=DIRECTION('ref_axis',(2.4616918506101E-16,-1.,0.));
#1527=DIRECTION('',(1.13825059604861E-16,-0.462385491411731,-0.886679004675273));
#1528=DIRECTION('',(-2.4616918506101E-16,1.,0.));
#1529=DIRECTION('',(2.4616918506101E-16,-1.,0.));
#1530=DIRECTION('center_axis',(-0.894427190999916,-2.20180412704858E-16,
0.447213595499958));
#1531=DIRECTION('ref_axis',(0.447213595499958,0.,0.894427190999916));
#1532=DIRECTION('',(-0.405294788540143,-0.422706366063963,-0.810589577080287));
#1533=DIRECTION('',(-1.15648231731787E-16,1.,2.61041906658446E-16));
#1534=DIRECTION('center_axis',(0.894427190999916,2.20180412704858E-16,-0.447213595499958));
#1535=DIRECTION('ref_axis',(0.447213595499958,-2.83718188942546E-16,0.894427190999916));
#1536=DIRECTION('center_axis',(0.894427190999916,2.20180412704858E-16,-0.447213595499958));
#1537=DIRECTION('ref_axis',(0.447213595499958,-2.48253415324727E-16,0.894427190999916));
#1538=DIRECTION('',(0.447213595499958,2.09636217385325E-15,0.894427190999916));
#1539=DIRECTION('',(-0.447213595499958,0.,-0.894427190999916));
#1540=DIRECTION('',(2.4616918506101E-16,-1.,0.));
#1541=DIRECTION('center_axis',(0.,1.,0.));
#1542=DIRECTION('ref_axis',(-1.,0.,0.));
#1543=DIRECTION('',(1.,0.,0.));
#1544=DIRECTION('',(0.447213595499958,0.,-0.894427190999916));
#1545=DIRECTION('',(0.,0.,1.));
#1546=DIRECTION('center_axis',(0.,0.,1.));
#1547=DIRECTION('ref_axis',(1.,0.,0.));
#1548=DIRECTION('',(1.,0.,0.));
#1549=DIRECTION('',(2.4616918506101E-16,-1.,0.));
#1550=DIRECTION('center_axis',(0.,0.,1.));
#1551=DIRECTION('ref_axis',(1.,0.,0.));
#1552=DIRECTION('',(2.4616918506101E-16,-1.,0.));
#1553=DIRECTION('',(-1.,0.,0.));
#1554=DIRECTION('',(-4.92338370122021E-16,1.,0.));
#1555=DIRECTION('center_axis',(0.,0.,1.));
#1556=DIRECTION('ref_axis',(1.,0.,0.));
#1557=DIRECTION('',(-4.92338370122021E-16,1.,0.));
#1558=DIRECTION('center_axis',(0.,0.,1.));
#1559=DIRECTION('ref_axis',(1.,0.,0.));
#1560=DIRECTION('center_axis',(0.,0.,1.));
#1561=DIRECTION('ref_axis',(1.,0.,0.));
#1562=DIRECTION('center_axis',(0.,-1.,0.));
#1563=DIRECTION('ref_axis',(1.,0.,0.));
#1564=DIRECTION('',(1.,0.,0.));
#1565=DIRECTION('',(0.,0.,-1.));
#1566=DIRECTION('',(-0.447213595499958,0.,-0.894427190999916));
#1567=DIRECTION('center_axis',(0.,0.,1.));
#1568=DIRECTION('ref_axis',(1.,0.,0.));
#1569=DIRECTION('',(-1.,-2.46716227694479E-16,0.));
#1570=DIRECTION('',(2.4616918506101E-16,-1.,0.));
#1571=DIRECTION('center_axis',(-2.46716227694479E-16,1.,-2.22044604925031E-15));
#1572=DIRECTION('ref_axis',(-5.91645678915759E-31,2.22044604925031E-15,
1.));
#1573=DIRECTION('',(1.,2.46716227694479E-16,0.));
#1574=DIRECTION('',(0.447213595499958,2.09636217385325E-15,0.894427190999916));
#1575=DIRECTION('',(-5.46605394415889E-31,2.22044604925031E-15,1.));
#1576=DIRECTION('center_axis',(1.,2.46716227694479E-16,0.));
#1577=DIRECTION('ref_axis',(2.18758099209378E-16,-0.886679004675269,0.462385491411738));
#1578=DIRECTION('',(-1.,0.,0.));
#1579=DIRECTION('center_axis',(1.,1.15648231731787E-16,8.74311054118632E-34));
#1580=DIRECTION('ref_axis',(2.18758099209378E-16,-0.886679004675269,0.462385491411738));
#1581=DIRECTION('',(1.,2.46716227694479E-16,0.));
#1582=DIRECTION('center_axis',(0.894427190999916,2.20180412704858E-16,-0.447213595499958));
#1583=DIRECTION('ref_axis',(0.447213595499958,-2.48253415324727E-16,0.894427190999916));
#1584=DIRECTION('center_axis',(2.18758099209379E-16,-0.886679004675273,
0.462385491411731));
#1585=DIRECTION('ref_axis',(1.13825059604861E-16,-0.462385491411731,-0.886679004675273));
#1586=DIRECTION('',(1.,2.46716227694479E-16,0.));
#1587=DIRECTION('',(1.13825059604861E-16,-0.462385491411731,-0.886679004675273));
#1588=DIRECTION('',(-0.405294788540143,-0.422706366063963,-0.810589577080287));
#1589=DIRECTION('',(5.34740644602001E-17,-0.462385491411731,-0.886679004675273));
#1590=DIRECTION('center_axis',(-1.,0.,0.));
#1591=DIRECTION('ref_axis',(0.,-1.,-3.1720657846433E-16));
#1592=DIRECTION('center_axis',(-1.,-1.15648231731787E-16,0.));
#1593=DIRECTION('ref_axis',(1.15648231731787E-16,-1.,-3.1720657846433E-16));
#1594=DIRECTION('center_axis',(-1.,-2.4616918506101E-16,-4.50402844998694E-32));
#1595=DIRECTION('ref_axis',(-5.91645678915759E-31,2.22044604925031E-15,
1.));
#1596=DIRECTION('center_axis',(1.,2.4616918506101E-16,4.50402844998694E-32));
#1597=DIRECTION('ref_axis',(-5.91645678915759E-31,2.22044604925031E-15,
1.));
#1598=DIRECTION('',(1.,2.4616918506101E-16,4.50402844998694E-32));
#1599=DIRECTION('center_axis',(-1.,-2.4616918506101E-16,-4.50402844998694E-32));
#1600=DIRECTION('ref_axis',(-5.91645678915759E-31,2.22044604925031E-15,
1.));
#1601=DIRECTION('center_axis',(0.894427190999916,2.20180412704858E-16,-0.447213595499958));
#1602=DIRECTION('ref_axis',(0.447213595499958,2.09611752895025E-15,0.894427190999916));
#1603=DIRECTION('center_axis',(0.707106781186547,0.707106781186548,0.));
#1604=DIRECTION('ref_axis',(-0.707106781186548,0.707106781186547,-1.57009245868377E-15));
#1605=DIRECTION('',(1.,2.4616918506101E-16,4.50402844998694E-32));
#1606=DIRECTION('center_axis',(-1.,-2.4616918506101E-16,-4.50402844998694E-32));
#1607=DIRECTION('ref_axis',(-5.91645678915759E-31,2.22044604925031E-15,
1.));
#1608=DIRECTION('center_axis',(-1.,-2.4616918506101E-16,-4.50402844998694E-32));
#1609=DIRECTION('ref_axis',(-5.91645678915759E-31,2.22044604925031E-15,
1.));
#1610=DIRECTION('center_axis',(0.707106781186547,0.707106781186548,0.));
#1611=DIRECTION('ref_axis',(-0.707106781186548,0.707106781186547,-1.57009245868377E-15));
#1612=DIRECTION('center_axis',(-1.,-2.4616918506101E-16,-4.50402844998694E-32));
#1613=DIRECTION('ref_axis',(-5.91645678915759E-31,2.22044604925031E-15,
1.));
#1614=DIRECTION('center_axis',(-0.707106781186547,-0.707106781186548,0.));
#1615=DIRECTION('ref_axis',(0.,0.,1.));
#1616=DIRECTION('',(-0.408248290463863,0.408248290463862,-0.816496580927726));
#1617=DIRECTION('',(0.,0.,-1.));
#1618=DIRECTION('',(0.707106781186548,-0.707106781186547,0.));
#1619=DIRECTION('',(0.,0.,1.));
#1620=DIRECTION('',(-0.408248290463863,0.408248290463862,-0.816496580927726));
#1621=DIRECTION('center_axis',(0.,0.,1.));
#1622=DIRECTION('ref_axis',(1.,0.,0.));
#1623=DIRECTION('center_axis',(0.,0.,-1.));
#1624=DIRECTION('ref_axis',(1.,0.,0.));
#1625=DIRECTION('center_axis',(0.,0.,-1.));
#1626=DIRECTION('ref_axis',(1.,0.,0.));
#1627=DIRECTION('',(0.,0.,-1.));
#1628=DIRECTION('center_axis',(0.,0.,1.));
#1629=DIRECTION('ref_axis',(1.,0.,0.));
#1630=DIRECTION('center_axis',(0.,0.,-1.));
#1631=DIRECTION('ref_axis',(1.,0.,0.));
#1632=DIRECTION('center_axis',(0.,0.,-1.));
#1633=DIRECTION('ref_axis',(1.,0.,0.));
#1634=DIRECTION('',(0.,0.,-1.));
#1635=DIRECTION('center_axis',(0.,0.,1.));
#1636=DIRECTION('ref_axis',(1.,0.,0.));
#1637=DIRECTION('center_axis',(-0.894427190999916,-4.40360825409716E-16,
-0.447213595499958));
#1638=DIRECTION('ref_axis',(0.447213595499958,0.,-0.894427190999916));
#1639=DIRECTION('center_axis',(-0.894427190999916,-4.40360825409716E-16,
-0.447213595499958));
#1640=DIRECTION('ref_axis',(0.447213595499958,0.,-0.894427190999916));
#1641=DIRECTION('center_axis',(0.,0.,-1.));
#1642=DIRECTION('ref_axis',(1.,0.,0.));
#1643=DIRECTION('center_axis',(0.,0.,1.));
#1644=DIRECTION('ref_axis',(-1.,1.22464679914735E-16,0.));
#1645=DIRECTION('center_axis',(0.894427190999916,2.20180412704858E-16,-0.447213595499958));
#1646=DIRECTION('ref_axis',(0.447213595499958,0.,0.894427190999916));
#1647=DIRECTION('center_axis',(0.894427190999916,2.20180412704858E-16,-0.447213595499958));
#1648=DIRECTION('ref_axis',(0.447213595499958,0.,0.894427190999916));
#1649=DIRECTION('center_axis',(0.,0.,-1.));
#1650=DIRECTION('ref_axis',(1.,0.,0.));
#1651=DIRECTION('center_axis',(6.4594794160009E-15,1.,0.));
#1652=DIRECTION('ref_axis',(1.,-6.4594794160009E-15,0.));
#1653=DIRECTION('',(0.447213595499958,-2.88876701468773E-15,0.894427190999916));
#1654=DIRECTION('',(1.,-6.4594794160009E-15,0.));
#1655=DIRECTION('',(0.,0.,-1.));
#1656=DIRECTION('center_axis',(0.,0.,-1.));
#1657=DIRECTION('ref_axis',(0.,-1.,0.));
#1658=DIRECTION('center_axis',(0.894427190999916,2.20180412704858E-16,-0.447213595499958));
#1659=DIRECTION('ref_axis',(-0.447213595499958,0.,-0.894427190999916));
#1660=DIRECTION('center_axis',(0.,0.,-1.));
#1661=DIRECTION('ref_axis',(0.,-1.,0.));
#1662=DIRECTION('',(0.,0.,-1.));
#1663=DIRECTION('center_axis',(0.,-1.,0.));
#1664=DIRECTION('ref_axis',(-1.,0.,0.));
#1665=DIRECTION('',(-0.447213595499958,0.,-0.894427190999916));
#1666=DIRECTION('',(-1.,0.,0.));
#1667=DIRECTION('center_axis',(0.,0.,1.));
#1668=DIRECTION('ref_axis',(1.,0.,0.));
#1669=DIRECTION('',(-2.4616918506101E-16,1.,0.));
#1670=DIRECTION('',(-2.4616918506101E-16,1.,0.));
#1671=DIRECTION('center_axis',(0.,-1.,0.));
#1672=DIRECTION('ref_axis',(-1.,0.,0.));
#1673=DIRECTION('',(-0.447213595499958,0.,0.894427190999916));
#1674=DIRECTION('',(-1.,0.,0.));
#1675=DIRECTION('',(0.,0.,-1.));
#1676=DIRECTION('center_axis',(0.,0.,-1.));
#1677=DIRECTION('ref_axis',(0.,1.,0.));
#1678=DIRECTION('center_axis',(-0.894427190999916,-4.40360825409716E-16,
-0.447213595499958));
#1679=DIRECTION('ref_axis',(0.447213595499958,0.,-0.894427190999916));
#1680=DIRECTION('center_axis',(0.,0.,-1.));
#1681=DIRECTION('ref_axis',(0.,1.,0.));
#1682=DIRECTION('',(0.,0.,-1.));
#1683=DIRECTION('center_axis',(-6.4594794160009E-15,1.,0.));
#1684=DIRECTION('ref_axis',(1.,6.4594794160009E-15,0.));
#1685=DIRECTION('',(0.447213595499958,2.88876701468773E-15,-0.894427190999916));
#1686=DIRECTION('',(1.,6.4594794160009E-15,0.));
#1687=DIRECTION('center_axis',(0.,0.,1.));
#1688=DIRECTION('ref_axis',(1.,0.,0.));
#1689=DIRECTION('',(4.92338370122021E-16,-1.,0.));
#1690=DIRECTION('',(4.92338370122021E-16,-1.,0.));
#1691=DIRECTION('center_axis',(1.,1.15648231731787E-16,8.74311054118632E-34));
#1692=DIRECTION('ref_axis',(8.74311054118632E-34,0.,-1.));
#1693=DIRECTION('center_axis',(2.30178937267541E-16,-1.,0.));
#1694=DIRECTION('ref_axis',(0.,0.,-1.));
#1695=DIRECTION('',(-0.447213595499958,-1.02939150143776E-16,0.894427190999916));
#1696=DIRECTION('',(0.,0.,1.));
#1697=DIRECTION('',(1.,2.30178937267541E-16,0.));
#1698=DIRECTION('center_axis',(-2.30178937267541E-16,1.,0.));
#1699=DIRECTION('ref_axis',(0.,0.,1.));
#1700=DIRECTION('',(0.447213595499958,1.02939150143776E-16,-0.894427190999916));
#1701=DIRECTION('',(1.,2.30178937267541E-16,0.));
#1702=DIRECTION('',(0.,0.,-1.));
#1703=DIRECTION('center_axis',(0.894427190999916,4.40360825409716E-16,0.447213595499958));
#1704=DIRECTION('ref_axis',(0.447213595499958,0.,-0.894427190999916));
#1705=DIRECTION('',(4.92338370122021E-16,-1.,0.));
#1706=DIRECTION('center_axis',(-1.,-2.01858731750028E-16,0.));
#1707=DIRECTION('ref_axis',(2.01858731750028E-16,-1.,0.));
#1708=DIRECTION('',(0.,0.,1.));
#1709=DIRECTION('',(-2.01858731750028E-16,1.,0.));
#1710=DIRECTION('center_axis',(-1.,-2.01858731750028E-16,0.));
#1711=DIRECTION('ref_axis',(2.01858731750028E-16,-1.,0.));
#1712=DIRECTION('',(-2.01858731750028E-16,1.,0.));
#1713=DIRECTION('center_axis',(-1.,-1.15648231731787E-16,0.));
#1714=DIRECTION('ref_axis',(1.15648231731787E-16,-1.,0.));
#1715=DIRECTION('center_axis',(0.,0.,1.));
#1716=DIRECTION('ref_axis',(1.,0.,0.));
#1717=DIRECTION('',(1.,1.81260901979617E-16,0.));
#1718=DIRECTION('center_axis',(0.,0.,1.));
#1719=DIRECTION('ref_axis',(1.,0.,0.));
#1720=DIRECTION('',(1.,1.81260901979617E-16,0.));
#1721=DIRECTION('',(2.4616918506101E-16,-1.,0.));
#1722=DIRECTION('center_axis',(-1.,-2.4616918506101E-16,0.));
#1723=DIRECTION('ref_axis',(2.4616918506101E-16,-1.,0.));
#1724=DIRECTION('',(2.4616918506101E-16,-1.,0.));
#1725=DIRECTION('center_axis',(-1.,-2.4616918506101E-16,0.));
#1726=DIRECTION('ref_axis',(2.4616918506101E-16,-1.,0.));
#1727=DIRECTION('',(2.4616918506101E-16,-1.,0.));
#1728=DIRECTION('center_axis',(0.894427190999916,4.40360825409716E-16,0.447213595499958));
#1729=DIRECTION('ref_axis',(0.447213595499958,0.,-0.894427190999916));
#1730=DIRECTION('',(-0.447213595499958,0.,0.894427190999916));
#1731=DIRECTION('center_axis',(0.,1.,0.));
#1732=DIRECTION('ref_axis',(-1.,0.,0.));
#1733=DIRECTION('',(-0.447213595499958,0.,-0.894427190999916));
#1734=DIRECTION('center_axis',(-0.894427190999916,-2.20180412704858E-16,
0.447213595499958));
#1735=DIRECTION('ref_axis',(0.447213595499958,0.,0.894427190999916));
#1736=DIRECTION('',(0.447213595499958,8.10623396978701E-17,0.894427190999916));
#1737=DIRECTION('center_axis',(1.81260901979617E-16,-1.,0.));
#1738=DIRECTION('ref_axis',(1.,1.81260901979617E-16,0.));
#1739=CARTESIAN_POINT('',(0.,0.,0.));
#1740=CARTESIAN_POINT('Origin',(1.25000000000001,4.5,8.36852484422015));
#1741=CARTESIAN_POINT('',(-5.50835921350012,4.49999999999999,12.8));
#1742=CARTESIAN_POINT('',(-7.72409679139004,4.49999999999999,8.36852484422015));
#1743=CARTESIAN_POINT('',(-7.05298240195606,4.49999999999999,9.71075362308812));
#1744=CARTESIAN_POINT('',(1.25000000000001,4.5,12.8));
#1745=CARTESIAN_POINT('',(0.625000000000014,4.5,12.8));
#1746=CARTESIAN_POINT('',(1.25000000000001,4.5,4.03147515577984));
#1747=CARTESIAN_POINT('',(1.25000000000001,4.5,8.36852484422015));
#1748=CARTESIAN_POINT('',(-3.44999999999999,4.5,4.03147515577984));
#1749=CARTESIAN_POINT('',(-6.5,4.5,4.03147515577984));
#1750=CARTESIAN_POINT('',(-3.44999999999999,4.5,8.36852484422015));
#1751=CARTESIAN_POINT('',(-3.44999999999999,4.5,0.));
#1752=CARTESIAN_POINT('',(-6.5,4.49999999999999,8.36852484422016));
#1753=CARTESIAN_POINT('Origin',(1.25000000000001,1.2,8.36852484422015));
#1754=CARTESIAN_POINT('',(1.25000000000001,1.2,12.8));
#1755=CARTESIAN_POINT('',(1.25000000000001,11.875,12.8));
#1756=CARTESIAN_POINT('',(1.25000000000001,1.2,12.5));
#1757=CARTESIAN_POINT('',(1.25000000000001,1.2,4.18426242211008));
#1758=CARTESIAN_POINT('',(1.25000000000001,0.,12.5));
#1759=CARTESIAN_POINT('',(1.25000000000001,4.5,12.5));
#1760=CARTESIAN_POINT('',(1.25000000000001,-1.05311978435038E-16,0.));
#1761=CARTESIAN_POINT('',(1.25000000000001,-2.77555756156289E-16,0.));
#1762=CARTESIAN_POINT('',(1.25000000000001,1.2,0.));
#1763=CARTESIAN_POINT('',(1.25000000000001,13.525,0.));
#1764=CARTESIAN_POINT('',(1.25000000000001,1.2,3.55188746462693));
#1765=CARTESIAN_POINT('',(1.25000000000001,1.2,0.));
#1766=CARTESIAN_POINT('Origin',(1.25000000000001,2.50000000000002,6.2));
#1767=CARTESIAN_POINT('',(1.25000000000001,2.50000000000001,5.2));
#1768=CARTESIAN_POINT('Origin',(1.25000000000001,2.50000000000001,6.2));
#1769=CARTESIAN_POINT('Origin',(-2.22044604925031E-15,22.55,14.));
#1770=CARTESIAN_POINT('',(-6.25,-1.68799214968519E-15,14.));
#1771=CARTESIAN_POINT('',(-6.25000000000001,45.1,14.));
#1772=CARTESIAN_POINT('',(-6.25000000000001,33.825,14.));
#1773=CARTESIAN_POINT('',(3.75000000000001,1.24616870110987E-16,14.));
#1774=CARTESIAN_POINT('',(-12.25,-2.77555756156289E-15,14.));
#1775=CARTESIAN_POINT('',(3.75000000000001,5.1,14.));
#1776=CARTESIAN_POINT('',(3.75,27.775,14.));
#1777=CARTESIAN_POINT('',(6.25000000000001,5.1,14.));
#1778=CARTESIAN_POINT('',(3.75000000000001,5.1,14.));
#1779=CARTESIAN_POINT('',(6.25,27.9,14.));
#1780=CARTESIAN_POINT('',(6.25,22.2,14.));
#1781=CARTESIAN_POINT('',(3.75,27.9,14.));
#1782=CARTESIAN_POINT('',(3.75,27.9,14.));
#1783=CARTESIAN_POINT('',(3.75,33.,14.));
#1784=CARTESIAN_POINT('',(3.75,27.775,14.));
#1785=CARTESIAN_POINT('',(6.24999999999999,33.,14.));
#1786=CARTESIAN_POINT('',(6.125,33.,14.));
#1787=CARTESIAN_POINT('',(6.24999999999999,45.1,14.));
#1788=CARTESIAN_POINT('',(6.25000000000001,11.275,14.));
#1789=CARTESIAN_POINT('',(12.25,45.1,14.));
#1790=CARTESIAN_POINT('Origin',(-12.25,1.2,0.));
#1791=CARTESIAN_POINT('',(2.55000000000001,1.2,12.8));
#1792=CARTESIAN_POINT('',(-6.125,1.2,12.8));
#1793=CARTESIAN_POINT('',(2.55000000000001,1.2,12.5));
#1794=CARTESIAN_POINT('',(2.55000000000001,1.2,0.));
#1795=CARTESIAN_POINT('',(-5.84291044776119,1.2,12.5));
#1796=CARTESIAN_POINT('Origin',(-2.22044604925031E-15,22.55,12.8));
#1797=CARTESIAN_POINT('',(-5.50835921350013,38.8725649539687,12.8));
#1798=CARTESIAN_POINT('',(-5.50835921350013,28.1875,12.8));
#1799=CARTESIAN_POINT('',(-5.50835921350013,41.3274350460313,12.8));
#1800=CARTESIAN_POINT('Origin',(-9.525,40.1,12.8));
#1801=CARTESIAN_POINT('',(-5.50835921350013,43.9,12.8));
#1802=CARTESIAN_POINT('',(-5.50835921350013,28.1875,12.8));
#1803=CARTESIAN_POINT('',(5.50835921350011,43.9,12.8));
#1804=CARTESIAN_POINT('',(6.12499999999999,43.9,12.8));
#1805=CARTESIAN_POINT('',(5.50835921350011,41.3274350460312,12.8));
#1806=CARTESIAN_POINT('',(5.50835921350013,16.9125,12.8));
#1807=CARTESIAN_POINT('',(5.50835921350012,38.8725649539688,12.8));
#1808=CARTESIAN_POINT('Origin',(9.525,40.1,12.8));
#1809=CARTESIAN_POINT('',(5.50835921350012,33.,12.8));
#1810=CARTESIAN_POINT('',(5.50835921350013,16.9125,12.8));
#1811=CARTESIAN_POINT('',(3.75,33.,12.8));
#1812=CARTESIAN_POINT('',(6.125,33.,12.8));
#1813=CARTESIAN_POINT('',(2.55,33.,12.8));
#1814=CARTESIAN_POINT('',(6.125,33.,12.8));
#1815=CARTESIAN_POINT('',(2.55,26.7,12.8));
#1816=CARTESIAN_POINT('',(2.55,27.775,12.8));
#1817=CARTESIAN_POINT('',(5.50835921350012,26.7,12.8));
#1818=CARTESIAN_POINT('',(1.875,26.7,12.8));
#1819=CARTESIAN_POINT('',(5.50835921350013,6.3,12.8));
#1820=CARTESIAN_POINT('',(5.50835921350013,19.525,12.8));
#1821=CARTESIAN_POINT('',(2.55000000000001,6.3,12.8));
#1822=CARTESIAN_POINT('',(1.875,6.3,12.8));
#1823=CARTESIAN_POINT('',(2.55,27.775,12.8));
#1824=CARTESIAN_POINT('Origin',(12.25,43.9,0.));
#1825=CARTESIAN_POINT('',(7.73614561800016,43.9,4.7));
#1826=CARTESIAN_POINT('',(7.73614561800016,43.9,8.34442719099992));
#1827=CARTESIAN_POINT('',(7.73614561800016,43.9,4.7));
#1828=CARTESIAN_POINT('',(10.0766873708001,43.9,3.66334368540005));
#1829=CARTESIAN_POINT('',(-7.73614561800016,43.9,8.34442719099995));
#1830=CARTESIAN_POINT('',(-7.62668737080011,43.9,8.56334368540005));
#1831=CARTESIAN_POINT('',(-7.73614561800016,43.9,4.7));
#1832=CARTESIAN_POINT('',(-7.73614561800016,43.9,4.7));
#1833=CARTESIAN_POINT('',(6.3545081967213,43.9,4.7));
#1834=CARTESIAN_POINT('Origin',(8.1766873708001,11.275,7.46334368540005));
#1835=CARTESIAN_POINT('',(9.55835921350012,35.9001324826996,4.7));
#1836=CARTESIAN_POINT('Origin',(9.525,40.1,4.76671842700023));
#1837=CARTESIAN_POINT('',(9.55835921350012,33.,4.7));
#1838=CARTESIAN_POINT('',(9.55835921350013,25.3920081967213,4.7));
#1839=CARTESIAN_POINT('',(10.0766873708001,33.,3.66334368540005));
#1840=CARTESIAN_POINT('Origin',(12.25,33.,0.));
#1841=CARTESIAN_POINT('',(3.75,33.,12.5));
#1842=CARTESIAN_POINT('',(3.75,33.,0.));
#1843=CARTESIAN_POINT('',(2.55,33.,12.5));
#1844=CARTESIAN_POINT('',(3.75,33.,12.5));
#1845=CARTESIAN_POINT('',(2.55,33.,0.));
#1846=CARTESIAN_POINT('Origin',(2.55,33.,0.));
#1847=CARTESIAN_POINT('',(2.55,26.7,12.5));
#1848=CARTESIAN_POINT('',(2.55,26.7,6.25));
#1849=CARTESIAN_POINT('',(2.55,24.8059701492537,12.5));
#1850=CARTESIAN_POINT('Origin',(3.75,26.7,12.5));
#1851=CARTESIAN_POINT('',(5.65835921350012,26.7,12.5));
#1852=CARTESIAN_POINT('',(5.4141873708001,26.7,12.9883436854001));
#1853=CARTESIAN_POINT('',(2.15708955223881,26.7,12.5));
#1854=CARTESIAN_POINT('Origin',(5.5516873708001,16.5,12.7133436854001));
#1855=CARTESIAN_POINT('',(5.65835921350013,6.3,12.5));
#1856=CARTESIAN_POINT('',(5.65835921350013,16.5559701492537,12.5));
#1857=CARTESIAN_POINT('',(5.11418737080011,6.3,13.5883436854001));
#1858=CARTESIAN_POINT('Origin',(3.75000000000001,6.3,14.));
#1859=CARTESIAN_POINT('',(2.55000000000001,6.3,12.5));
#1860=CARTESIAN_POINT('',(2.15708955223881,6.3,12.5));
#1861=CARTESIAN_POINT('',(2.55000000000001,6.3,7.));
#1862=CARTESIAN_POINT('Origin',(-8.17668737080011,33.825,7.46334368540005));
#1863=CARTESIAN_POINT('Origin',(-9.525,40.1,4.76671842700026));
#1864=CARTESIAN_POINT('Origin',(8.1766873708001,11.275,7.46334368540005));
#1865=CARTESIAN_POINT('Origin',(9.525,40.1,4.76671842700023));
#1866=CARTESIAN_POINT('Origin',(9.525,40.1,14.));
#1867=CARTESIAN_POINT('Origin',(9.525,40.1,4.7));
#1868=CARTESIAN_POINT('Origin',(2.55,33.,0.));
#1869=CARTESIAN_POINT('',(2.55,24.8059701492537,12.5));
#1870=CARTESIAN_POINT('Origin',(-12.25,1.2,0.));
#1871=CARTESIAN_POINT('',(-6.75294372515228,1.2,3.55188746462693));
#1872=CARTESIAN_POINT('',(0.450000000000002,1.2,3.55188746462693));
#1873=CARTESIAN_POINT('',(-6.75294372515228,1.2,0.));
#1874=CARTESIAN_POINT('',(-6.125,1.2,0.));
#1875=CARTESIAN_POINT('',(-6.75294372515228,1.2,0.));
#1876=CARTESIAN_POINT('Origin',(-11.05,45.1,0.));
#1877=CARTESIAN_POINT('',(-11.05,28.25,0.));
#1878=CARTESIAN_POINT('',(-11.05,28.25,1.71671842700025));
#1879=CARTESIAN_POINT('',(-11.05,28.25,1.87072579649339E-14));
#1880=CARTESIAN_POINT('',(-11.05,35.1,0.));
#1881=CARTESIAN_POINT('',(-11.05,33.825,0.));
#1882=CARTESIAN_POINT('',(-11.05,35.1,1.71671842700025));
#1883=CARTESIAN_POINT('',(-11.05,35.1,0.));
#1884=CARTESIAN_POINT('',(-11.05,39.4625,1.71671842700025));
#1885=CARTESIAN_POINT('Origin',(-9.525,40.1,14.));
#1886=CARTESIAN_POINT('',(-9.55835921350012,35.9001324826996,4.7));
#1887=CARTESIAN_POINT('Origin',(-9.525,40.1,4.76671842700026));
#1888=CARTESIAN_POINT('Origin',(-9.525,40.1,4.7));
#1889=CARTESIAN_POINT('Origin',(-6.5,2.50000000000001,6.2));
#1890=CARTESIAN_POINT('Origin',(-3.44999999999999,2.50000000000001,6.2));
#1891=CARTESIAN_POINT('',(-9.94148621951075,4.38854249435846,3.93374598797875));
#1892=CARTESIAN_POINT('Origin',(-8.0529437251523,2.50000000000001,6.2));
#1893=CARTESIAN_POINT('Origin',(-8.80835921350013,2.50000000000001,6.2));
#1894=CARTESIAN_POINT('Origin',(-8.90147186257614,3.34852813742385,0.));
#1895=CARTESIAN_POINT('',(-11.05,5.49705627484771,0.));
#1896=CARTESIAN_POINT('',(-11.4764718625761,5.92352813742385,0.));
#1897=CARTESIAN_POINT('',(-11.05,5.49705627484771,1.71671842700025));
#1898=CARTESIAN_POINT('',(-11.05,5.49705627484771,0.));
#1899=CARTESIAN_POINT('',(-12.1414800965255,6.58853637137317,-0.466241766050677));
#1900=CARTESIAN_POINT('Origin',(-11.05,45.1,0.));
#1901=CARTESIAN_POINT('',(-11.05,13.1452345654951,1.71671842700025));
#1902=CARTESIAN_POINT('',(-11.05,12.25,0.));
#1903=CARTESIAN_POINT('',(-11.05,18.1016336142972,11.2212012816581));
#1904=CARTESIAN_POINT('',(-11.05,39.4625,1.71671842700025));
#1905=CARTESIAN_POINT('',(-11.05,33.825,0.));
#1906=CARTESIAN_POINT('Origin',(-8.17668737080011,33.825,7.46334368540005));
#1907=CARTESIAN_POINT('',(-7.74999999999999,16.5870034888893,8.31671842700027));
#1908=CARTESIAN_POINT('',(-6.68081040960868,17.7021257632606,10.4550976077829));
#1909=CARTESIAN_POINT('',(-7.74999999999999,13.2126171592698,8.31671842700027));
#1910=CARTESIAN_POINT('',(-7.74999999999999,24.9125,8.31671842700027));
#1911=CARTESIAN_POINT('',(-7.16904723892057,17.225,9.47862394915911));
#1912=CARTESIAN_POINT('Origin',(-8.80835921350015,16.,6.19999999999995));
#1913=CARTESIAN_POINT('',(-8.80835921350014,28.25,6.19999999999999));
#1914=CARTESIAN_POINT('Origin',(-8.80835921350015,22.25,6.19999999999995));
#1915=CARTESIAN_POINT('',(-10.0766873708001,28.25,3.66334368540006));
#1916=CARTESIAN_POINT('',(-9.55835921350013,35.1,4.7));
#1917=CARTESIAN_POINT('',(-10.0766873708001,35.1,3.66334368540005));
#1918=CARTESIAN_POINT('',(-9.55835921350013,36.6670081967213,4.7));
#1919=CARTESIAN_POINT('Origin',(12.25,33.,0.));
#1920=CARTESIAN_POINT('',(10.9,33.,4.7));
#1921=CARTESIAN_POINT('',(6.35450819672131,33.,4.7));
#1922=CARTESIAN_POINT('',(11.15,33.,4.2));
#1923=CARTESIAN_POINT('',(3.75,33.,0.));
#1924=CARTESIAN_POINT('Origin',(0.459016393442615,39.5090163934426,4.7));
#1925=CARTESIAN_POINT('',(-10.9,35.1,4.7));
#1926=CARTESIAN_POINT('',(-12.25,35.1,4.7));
#1927=CARTESIAN_POINT('',(-10.9,37.4336588740373,4.7));
#1928=CARTESIAN_POINT('',(-10.9,36.6670081967213,4.7));
#1929=CARTESIAN_POINT('',(-10.9,42.7663411259627,4.7));
#1930=CARTESIAN_POINT('Origin',(-9.525,40.1,4.7));
#1931=CARTESIAN_POINT('',(-10.9,45.1,4.7));
#1932=CARTESIAN_POINT('',(-10.9,36.6670081967213,4.7));
#1933=CARTESIAN_POINT('',(10.9,45.1,4.7));
#1934=CARTESIAN_POINT('',(6.3545081967213,45.1,4.7));
#1935=CARTESIAN_POINT('',(10.9,42.7663411259627,4.7));
#1936=CARTESIAN_POINT('',(10.9,25.3920081967213,4.7));
#1937=CARTESIAN_POINT('',(10.9,37.4336588740373,4.7));
#1938=CARTESIAN_POINT('Origin',(9.525,40.1,4.7));
#1939=CARTESIAN_POINT('',(10.9,25.3920081967213,4.7));
#1940=CARTESIAN_POINT('',(-11.125,40.1,4.7));
#1941=CARTESIAN_POINT('Origin',(-9.525,40.1,4.7));
#1942=CARTESIAN_POINT('',(7.925,40.1,4.7));
#1943=CARTESIAN_POINT('Origin',(9.525,40.1,4.7));
#1944=CARTESIAN_POINT('Origin',(-12.25,35.1,0.));
#1945=CARTESIAN_POINT('',(-12.25,35.1,0.));
#1946=CARTESIAN_POINT('',(-6.125,35.1,0.));
#1947=CARTESIAN_POINT('',(-12.25,35.1,2.));
#1948=CARTESIAN_POINT('',(-12.25,35.1,0.));
#1949=CARTESIAN_POINT('',(-11.15,35.1,4.2));
#1950=CARTESIAN_POINT('Origin',(-2.87126644299609E-15,22.55,0.));
#1951=CARTESIAN_POINT('',(-12.25,28.25,-7.88860905221012E-30));
#1952=CARTESIAN_POINT('',(-6.12500000000001,28.25,0.));
#1953=CARTESIAN_POINT('',(-12.25,45.1,0.));
#1954=CARTESIAN_POINT('Origin',(-12.25,28.25,0.));
#1955=CARTESIAN_POINT('',(-10.15,28.25,6.19999999999999));
#1956=CARTESIAN_POINT('',(-12.25,28.25,6.19999999999999));
#1957=CARTESIAN_POINT('',(-12.25,28.25,2.));
#1958=CARTESIAN_POINT('',(-11.15,28.25,4.2));
#1959=CARTESIAN_POINT('',(-12.25,28.25,1.87072579649339E-14));
#1960=CARTESIAN_POINT('Origin',(-12.25,22.25,6.19999999999995));
#1961=CARTESIAN_POINT('',(-7.74999999999999,17.225,9.47862394915911));
#1962=CARTESIAN_POINT('',(-3.44999999999999,17.225,9.47862394915911));
#1963=CARTESIAN_POINT('',(-7.74999999999999,16.9299259719484,8.97431294847039));
#1964=CARTESIAN_POINT('Origin',(-7.74999999999999,22.25,6.19999999999995));
#1965=CARTESIAN_POINT('',(-8.76284352576481,16.9299259719484,8.97431294847039));
#1966=CARTESIAN_POINT('',(-12.25,16.9299259719484,8.97431294847039));
#1967=CARTESIAN_POINT('Origin',(-10.15,22.25,6.19999999999995));
#1968=CARTESIAN_POINT('Origin',(-12.25,16.9299259719484,8.97431294847039));
#1969=CARTESIAN_POINT('',(-12.25,12.25,0.));
#1970=CARTESIAN_POINT('',(-6.125,12.25,0.));
#1971=CARTESIAN_POINT('',(-12.25,13.2929602798164,2.));
#1972=CARTESIAN_POINT('',(-12.25,18.1016336142972,11.2212012816581));
#1973=CARTESIAN_POINT('',(-7.80206809424758,17.9319765848443,10.8958638115048));
#1974=CARTESIAN_POINT('',(-7.74999999999999,15.7912227109595,6.79071442985895));
#1975=CARTESIAN_POINT('Origin',(-3.44999999999999,16.,6.19999999999995));
#1976=CARTESIAN_POINT('Origin',(-7.74999999999999,16.,6.19999999999995));
#1977=CARTESIAN_POINT('Origin',(41.2057059629746,2.50000000000002,6.2));
#1978=CARTESIAN_POINT('',(-0.750000000000002,2.50000000000001,5.2));
#1979=CARTESIAN_POINT('Origin',(-0.750000000000002,2.50000000000001,6.2));
#1980=CARTESIAN_POINT('',(41.2057059629746,2.50000000000002,5.2));
#1981=CARTESIAN_POINT('Origin',(-6.5,2.50000000000001,6.2));
#1982=CARTESIAN_POINT('',(-10.8360939890118,3.58609398901179,4.8278120219764));
#1983=CARTESIAN_POINT('',(-9.30390601098821,2.05390601098821,7.89218797802358));
#1984=CARTESIAN_POINT('Origin',(-10.15,2.50000000000001,6.2));
#1985=CARTESIAN_POINT('',(-9.75000000000001,2.50000000000001,4.45));
#1986=CARTESIAN_POINT('Origin',(-9.75000000000001,2.50000000000001,6.2));
#1987=CARTESIAN_POINT('',(-0.75,2.50000000000001,4.44999999999999));
#1988=CARTESIAN_POINT('',(-6.5,2.50000000000001,4.44999999999999));
#1989=CARTESIAN_POINT('',(-0.75,2.50000000000002,7.95));
#1990=CARTESIAN_POINT('Origin',(-0.75,2.50000000000001,6.2));
#1991=CARTESIAN_POINT('Origin',(-0.75,2.50000000000001,6.2));
#1992=CARTESIAN_POINT('Origin',(-9.75000000000001,2.50000000000001,6.2));
#1993=CARTESIAN_POINT('Origin',(-0.75,2.50000000000001,6.2));
#1994=CARTESIAN_POINT('Origin',(-9.75,2.5,0.));
#1995=CARTESIAN_POINT('',(-12.25,5.,2.));
#1996=CARTESIAN_POINT('',(-13.31875,6.06874999999999,-0.137499999999998));
#1997=CARTESIAN_POINT('',(-12.25,4.99999999999999,0.));
#1998=CARTESIAN_POINT('',(-12.25,4.99999999999999,0.));
#1999=CARTESIAN_POINT('',(-7.25,-1.8692530516648E-15,0.));
#2000=CARTESIAN_POINT('',(-12.325,5.07499999999999,0.));
#2001=CARTESIAN_POINT('',(-7.25,-3.73397458078012E-15,12.));
#2002=CARTESIAN_POINT('',(-7.25,-1.66533453693773E-15,0.));
#2003=CARTESIAN_POINT('',(-13.31875,6.06874999999999,-0.137499999999998));
#2004=CARTESIAN_POINT('Origin',(9.525,40.1,-47.2557059629746));
#2005=CARTESIAN_POINT('',(11.125,40.1,6.20000000000001));
#2006=CARTESIAN_POINT('',(7.925,40.1,6.20000000000001));
#2007=CARTESIAN_POINT('Origin',(9.525,40.1,6.20000000000001));
#2008=CARTESIAN_POINT('Origin',(9.525,40.1,6.20000000000001));
#2009=CARTESIAN_POINT('',(7.925,40.1,-47.2557059629746));
#2010=CARTESIAN_POINT('Origin',(-9.525,40.1,-47.2557059629746));
#2011=CARTESIAN_POINT('',(-7.925,40.1,6.20000000000001));
#2012=CARTESIAN_POINT('',(-11.125,40.1,6.2));
#2013=CARTESIAN_POINT('Origin',(-9.525,40.1,6.2));
#2014=CARTESIAN_POINT('Origin',(-9.525,40.1,6.2));
#2015=CARTESIAN_POINT('',(-11.125,40.1,-47.2557059629746));
#2016=CARTESIAN_POINT('Origin',(9.525,40.1,4.7));
#2017=CARTESIAN_POINT('',(10.15,37.1658263514236,6.20000000000001));
#2018=CARTESIAN_POINT('Origin',(9.525,40.1,7.44999999999998));
#2019=CARTESIAN_POINT('',(10.15,43.0341736485764,6.20000000000001));
#2020=CARTESIAN_POINT('Origin',(9.525,40.1,7.44999999999998));
#2021=CARTESIAN_POINT('Origin',(9.525,40.1,6.20000000000001));
#2022=CARTESIAN_POINT('Origin',(-9.525,40.1,4.7));
#2023=CARTESIAN_POINT('',(-10.15,43.0341736485764,6.20000000000001));
#2024=CARTESIAN_POINT('Origin',(-9.525,40.1,7.45000000000001));
#2025=CARTESIAN_POINT('',(-10.15,37.1658263514236,6.20000000000001));
#2026=CARTESIAN_POINT('Origin',(-9.525,40.1,7.45000000000001));
#2027=CARTESIAN_POINT('Origin',(-9.525,40.1,6.20000000000001));
#2028=CARTESIAN_POINT('Origin',(-10.9,43.1,14.));
#2029=CARTESIAN_POINT('',(-10.15,43.1,6.2));
#2030=CARTESIAN_POINT('',(-9.525,43.1,7.45000000000001));
#2031=CARTESIAN_POINT('',(-8.215,43.1,10.07));
#2032=CARTESIAN_POINT('',(-9.525,43.1,6.2));
#2033=CARTESIAN_POINT('',(-9.525,43.1,6.2));
#2034=CARTESIAN_POINT('',(-9.525,43.1,14.));
#2035=CARTESIAN_POINT('Origin',(-9.525,40.1,14.));
#2036=CARTESIAN_POINT('',(-9.525,37.1,7.45000000000001));
#2037=CARTESIAN_POINT('Origin',(-9.525,40.1,7.45000000000001));
#2038=CARTESIAN_POINT('',(-9.525,37.1,6.2));
#2039=CARTESIAN_POINT('Origin',(-9.525,40.1,6.2));
#2040=CARTESIAN_POINT('',(-9.525,37.1,14.));
#2041=CARTESIAN_POINT('Origin',(-9.525,37.1,14.));
#2042=CARTESIAN_POINT('',(-10.15,37.1,6.2));
#2043=CARTESIAN_POINT('',(-8.07750000000001,37.1,10.345));
#2044=CARTESIAN_POINT('',(-10.9,37.1,6.2));
#2045=CARTESIAN_POINT('Origin',(-9.31262403120215,40.1,6.2));
#2046=CARTESIAN_POINT('',(-10.15,36.9625,6.2));
#2047=CARTESIAN_POINT('',(-10.15,36.9625,6.2));
#2048=CARTESIAN_POINT('Origin',(10.9,37.1,14.));
#2049=CARTESIAN_POINT('',(10.15,37.1,6.2));
#2050=CARTESIAN_POINT('',(9.525,37.1,7.44999999999998));
#2051=CARTESIAN_POINT('',(8.21499999999999,37.1,10.07));
#2052=CARTESIAN_POINT('',(9.525,37.1,6.2));
#2053=CARTESIAN_POINT('',(9.525,37.1,6.2));
#2054=CARTESIAN_POINT('',(9.525,37.1,14.));
#2055=CARTESIAN_POINT('Origin',(9.525,40.1,14.));
#2056=CARTESIAN_POINT('',(9.525,43.1,7.44999999999998));
#2057=CARTESIAN_POINT('Origin',(9.525,40.1,7.44999999999998));
#2058=CARTESIAN_POINT('',(9.525,43.1,6.2));
#2059=CARTESIAN_POINT('Origin',(9.525,40.1,6.2));
#2060=CARTESIAN_POINT('',(9.525,43.1,14.));
#2061=CARTESIAN_POINT('Origin',(9.525,43.1,14.));
#2062=CARTESIAN_POINT('',(10.15,43.1,6.2));
#2063=CARTESIAN_POINT('',(8.07749999999997,43.1,10.345));
#2064=CARTESIAN_POINT('',(10.9,43.1,6.2));
#2065=CARTESIAN_POINT('Origin',(9.31262403120215,40.1,6.20000000000001));
#2066=CARTESIAN_POINT('',(10.15,25.6875,6.20000000000001));
#2067=CARTESIAN_POINT('',(10.15,25.6875,6.20000000000001));
#2068=CARTESIAN_POINT('Origin',(-7.74999999999999,16.,3.90443156549463));
#2069=CARTESIAN_POINT('Origin',(3.75000000000001,5.1,14.));
#2070=CARTESIAN_POINT('',(7.00000000000001,5.1,12.5));
#2071=CARTESIAN_POINT('',(6.18750000000001,5.1,14.125));
#2072=CARTESIAN_POINT('',(3.75000000000001,5.1,12.5));
#2073=CARTESIAN_POINT('',(3.75000000000001,5.1,7.));
#2074=CARTESIAN_POINT('',(3.75000000000001,5.1,12.5));
#2075=CARTESIAN_POINT('Origin',(3.75,27.9,12.5));
#2076=CARTESIAN_POINT('',(7.,27.9,12.5));
#2077=CARTESIAN_POINT('',(6.4875,27.9,13.525));
#2078=CARTESIAN_POINT('',(3.75,27.9,12.5));
#2079=CARTESIAN_POINT('',(3.75,27.9,12.5));
#2080=CARTESIAN_POINT('',(3.75,27.9,6.25));
#2081=CARTESIAN_POINT('Origin',(6.625,16.5,13.25));
#2082=CARTESIAN_POINT('',(7.00000000000001,10.8,12.5));
#2083=CARTESIAN_POINT('Origin',(3.75,33.,0.));
#2084=CARTESIAN_POINT('',(3.75000000000001,0.,12.5));
#2085=CARTESIAN_POINT('',(3.75000000000001,0.,0.));
#2086=CARTESIAN_POINT('',(3.75,24.8059701492537,12.5));
#2087=CARTESIAN_POINT('Origin',(3.75,33.,0.));
#2088=CARTESIAN_POINT('',(3.75,24.8059701492537,12.5));
#2089=CARTESIAN_POINT('Origin',(-3.45,28.5,0.));
#2090=CARTESIAN_POINT('Origin',(0.564179104477618,16.6119402985075,12.5));
#2091=CARTESIAN_POINT('',(-5.84291044776119,-1.11022302462516E-15,12.5));
#2092=CARTESIAN_POINT('Origin',(-2.87126644299609E-15,22.55,0.));
#2093=CARTESIAN_POINT('',(-12.25,-2.77555756156289E-15,0.));
#2094=CARTESIAN_POINT('',(-12.25,45.1,0.));
#2095=CARTESIAN_POINT('Origin',(-12.25,45.1,0.));
#2096=CARTESIAN_POINT('',(-12.25,33.825,2.));
#2097=CARTESIAN_POINT('Origin',(-12.25,45.1,0.));
#2098=CARTESIAN_POINT('',(-12.25,33.825,2.));
#2099=CARTESIAN_POINT('Origin',(9.25000000000001,11.275,8.));
#2100=CARTESIAN_POINT('',(11.15,45.1,4.2));
#2101=CARTESIAN_POINT('Origin',(12.25,45.1,0.));
#2102=CARTESIAN_POINT('',(-8.70000000000001,45.1,9.1));
#2103=CARTESIAN_POINT('Origin',(-9.25000000000001,33.825,8.));
#2104=CARTESIAN_POINT('',(-11.15,-4.44089209850063E-15,4.2));
#2105=CARTESIAN_POINT('Origin',(-12.25,-2.77555756156289E-15,0.));
#2106=UNCERTAINTY_MEASURE_WITH_UNIT(LENGTH_MEASURE(0.01),#2110,
'DISTANCE_ACCURACY_VALUE',
'Maximum model space distance between geometric entities at asserted c
onnectivities');
#2107=UNCERTAINTY_MEASURE_WITH_UNIT(LENGTH_MEASURE(0.01),#2110,
'DISTANCE_ACCURACY_VALUE',
'Maximum model space distance between geometric entities at asserted c
onnectivities');
#2108=(
GEOMETRIC_REPRESENTATION_CONTEXT(3)
GLOBAL_UNCERTAINTY_ASSIGNED_CONTEXT((#2106))
GLOBAL_UNIT_ASSIGNED_CONTEXT((#2110,#2113,#2112))
REPRESENTATION_CONTEXT('','3D')
);
#2109=(
GEOMETRIC_REPRESENTATION_CONTEXT(3)
GLOBAL_UNCERTAINTY_ASSIGNED_CONTEXT((#2107))
GLOBAL_UNIT_ASSIGNED_CONTEXT((#2110,#2113,#2112))
REPRESENTATION_CONTEXT('','3D')
);
#2110=(
LENGTH_UNIT()
NAMED_UNIT(*)
SI_UNIT(.MILLI.,.METRE.)
);
#2111=(
LENGTH_UNIT()
NAMED_UNIT(*)
SI_UNIT(.CENTI.,.METRE.)
);
#2112=(
NAMED_UNIT(*)
SI_UNIT($,.STERADIAN.)
SOLID_ANGLE_UNIT()
);
#2113=(
NAMED_UNIT(*)
PLANE_ANGLE_UNIT()
SI_UNIT($,.RADIAN.)
);
#2114=SHAPE_DEFINITION_REPRESENTATION(#2115,#2116);
#2115=PRODUCT_DEFINITION_SHAPE('',$,#2118);
#2116=SHAPE_REPRESENTATION('',(#1284),#2108);
#2117=PRODUCT_DEFINITION_CONTEXT('part definition',#2122,'design');
#2118=PRODUCT_DEFINITION('BFPTouch_Cover_Light','BFPTouch_Cover_Light',
#2119,#2117);
#2119=PRODUCT_DEFINITION_FORMATION('',$,#2124);
#2120=PRODUCT_RELATED_PRODUCT_CATEGORY('BFPTouch_Cover_Light',
'BFPTouch_Cover_Light',(#2124));
#2121=APPLICATION_PROTOCOL_DEFINITION('international standard',
'automotive_design',2009,#2122);
#2122=APPLICATION_CONTEXT(
'Core Data for Automotive Mechanical Design Process');
#2123=PRODUCT_CONTEXT('part definition',#2122,'mechanical');
#2124=PRODUCT('BFPTouch_Cover_Light','BFPTouch_Cover_Light',$,(#2123));
#2125=PRESENTATION_STYLE_ASSIGNMENT((#2126));
#2126=SURFACE_STYLE_USAGE(.BOTH.,#2127);
#2127=SURFACE_SIDE_STYLE('',(#2128));
#2128=SURFACE_STYLE_FILL_AREA(#2129);
#2129=FILL_AREA_STYLE('',(#2130));
#2130=FILL_AREA_STYLE_COLOUR('',#2131);
#2131=COLOUR_RGB('',0.,1.,0.);
ENDSEC;
END-ISO-10303-21;
